1109
1 28 100 90 80
29 68 120 110 100
69 110 80 70 70
111 128 120 110 100
129 146 80 70 70
147 188 240 240 200
189 206 240 240 200
207 214 204 102 90
215 222 204 102 90
223 232 158 171 77
233 242 158 171 77
243 250 90 199 143
251 272 120 110 100
273 294 80 70 70
295 316 240 240 200
317 342 100 90 80
343 368 120 110 100
369 396 120 110 100
397 424 80 70 70
425 452 240 240 200
453 478 80 70 70
479 504 240 240 200
505 530 100 90 80
531 556 120 110 100
557 582 80 70 70
583 610 120 110 100
611 638 80 70 70
639 664 240 240 200
665 692 240 240 200
693 718 100 90 80
719 744 120 110 100
745 770 80 70 70
771 796 240 240 200
797 824 120 110 100
825 852 80 70 70
853 880 240 240 200
881 906 100 90 80
907 932 120 110 100
933 958 80 70 70
959 984 240 240 200
985 1012 120 110 100
1013 1040 80 70 70
1041 1068 240 240 200
1069 1094 100 90 80
1095 1120 120 110 100
1121 1146 80 70 70
1147 1172 240 240 200
1173 1200 120 110 100
1201 1228 80 70 70
1229 1256 240 240 200
1257 1282 100 90 80
1283 1308 120 110 100
1309 1334 80 70 70
1335 1360 240 240 200
1361 1388 120 110 100
1389 1416 80 70 70
1417 1444 240 240 200
1445 1470 100 90 80
1471 1496 120 110 100
1497 1522 80 70 70
1523 1548 240 240 200
1549 1576 120 110 100
1577 1604 80 70 70
1605 1632 240 240 200
1633 1658 100 90 80
1659 1684 120 110 100
1685 1710 80 70 70
1711 1736 240 240 200
1737 1762 100 90 80
1763 1788 120 110 100
1789 1814 80 70 70
1815 1840 240 240 200
1841 1868 120 110 100
1869 1896 80 70 70
1897 1924 240 240 200
1925 1950 100 90 80
1951 1974 120 110 100
1975 1998 80 70 70
1999 2022 240 240 200
2023 2050 120 110 100
2051 2078 80 70 70
2079 2106 240 240 200
2107 2130 120 110 100
2131 2154 80 70 70
2155 2178 240 240 200
2179 2204 100 90 80
2205 2232 120 110 100
2233 2260 80 70 70
2261 2288 240 240 200
2289 2314 120 110 100
2315 2340 80 70 70
2341 2366 240 240 200
2367 2392 100 90 80
2393 2416 120 110 100
2417 2440 80 70 70
2441 2464 240 240 200
2465 2492 120 110 100
2493 2520 80 70 70
2521 2548 240 240 200
2549 2574 100 90 80
2575 2600 120 110 100
2601 2624 80 70 70
2625 2648 240 240 200
2649 2676 120 110 100
2677 2704 80 70 70
2705 2732 240 240 200
2733 2758 100 90 80
2759 2784 120 110 100
2785 2808 80 70 70
2809 2832 240 240 200
2833 2858 100 90 80
2859 2886 120 110 100
2887 2914 80 70 70
2915 2942 240 240 200
2943 2966 80 70 70
2967 2990 240 240 200
2991 3016 120 110 100
3017 3042 100 90 80
3043 3070 120 110 100
3071 3098 80 70 70
3099 3126 240 240 200
3127 3150 80 70 70
3151 3174 240 240 200
3175 3200 120 110 100
3201 3226 100 90 80
3227 3254 120 110 100
3255 3282 80 70 70
3283 3310 240 240 200
3311 3334 80 70 70
3335 3358 240 240 200
3359 3384 120 110 100
3385 3410 100 90 80
3411 3438 120 110 100
3439 3466 80 70 70
3467 3494 240 240 200
3495 3518 80 70 70
3519 3542 240 240 200
3543 3568 120 110 100
3569 3594 100 90 80
3595 3618 80 70 70
3619 3642 240 240 200
3643 3670 120 110 100
3671 3698 80 70 70
3699 3726 240 240 200
3727 3752 120 110 100
3753 3778 100 90 80
3779 3802 80 70 70
3803 3826 240 240 200
3827 3854 120 110 100
3855 3882 80 70 70
3883 3910 240 240 200
3911 3936 120 110 100
3937 3962 100 90 80
3963 3986 80 70 70
3987 4010 240 240 200
4011 4038 120 110 100
4039 4066 80 70 70
4067 4094 240 240 200
4095 4120 120 110 100
4121 4146 100 90 80
4147 4170 80 70 70
4171 4194 240 240 200
4195 4222 120 110 100
4223 4250 80 70 70
4251 4278 240 240 200
4279 4304 120 110 100
4305 4330 80 70 70
4331 4356 240 240 200
4357 4382 100 90 80
4383 4408 120 110 100
4409 4436 120 110 100
4437 4464 80 70 70
4465 4492 240 240 200
4493 4518 80 70 70
4519 4544 240 240 200
4545 4570 100 90 80
4571 4596 120 110 100
4597 4624 120 110 100
4625 4652 80 70 70
4653 4680 240 240 200
4681 4706 80 70 70
4707 4732 240 240 200
4733 4760 100 90 80
4761 4794 120 110 100
4795 4828 120 110 100
4829 4862 80 70 70
4863 4896 240 240 200
4897 4932 80 70 70
4933 4968 240 240 200
4969 5004 100 90 80
5005 5040 120 110 100
5041 5074 120 110 100
5075 5108 80 70 70
5109 5142 240 240 200
5143 5180 80 70 70
5181 5218 240 240 200
5219 5254 100 90 80
5255 5292 120 110 100
5293 5326 120 110 100
5327 5360 80 70 70
5361 5394 240 240 200
5395 5432 80 70 70
5433 5470 240 240 200
5471 5506 100 90 80
5507 5540 120 110 100
5541 5574 80 70 70
5575 5608 240 240 200
5609 5646 120 110 100
5647 5682 100 90 80
5683 5720 80 70 70
5721 5758 240 240 200
5759 5792 120 110 100
5793 5824 80 70 70
5825 5856 240 240 200
5857 5896 120 110 100
5897 5932 100 90 80
5933 5974 80 70 70
5975 6016 240 240 200
6017 6046 80 70 70
6047 6076 240 240 200
6077 6108 120 110 100
6109 6144 120 110 100
6145 6182 100 90 80
6183 6216 80 70 70
6217 6250 240 240 200
6251 6300 80 70 70
6301 6350 240 240 200
6351 6400 120 110 100
6401 6434 120 110 100
6435 6474 100 90 80
6475 6510 80 70 70
6511 6546 240 240 200
6547 6590 80 70 70
6591 6634 240 240 200
6635 6670 120 110 100
6671 6714 120 110 100
6715 6754 100 90 80
6755 6790 80 70 70
6791 6826 240 240 200
6827 6864 120 110 100
6865 6908 80 70 70
6909 6952 240 240 200
6953 6994 120 110 100
6995 7032 80 70 70
7033 7070 240 240 200
7071 7110 100 90 80
7111 7148 120 110 100
7149 7190 80 70 70
7191 7232 240 240 200
7233 7274 120 110 100
7275 7312 80 70 70
7313 7350 240 240 200
7351 7390 100 90 80
7391 7428 120 110 100
7429 7466 80 70 70
7467 7508 80 70 70
7509 7546 240 240 200
7547 7588 240 240 200
7589 7630 120 110 100
7631 7670 100 90 80
7671 7708 120 110 100
7709 7746 80 70 70
7747 7784 240 240 200
7785 7826 80 70 70
7827 7868 240 240 200
7869 7910 120 110 100
7911 7950 100 90 80
7951 7988 120 110 100
7989 8026 80 70 70
8027 8064 240 240 200
8065 8106 80 70 70
8107 8148 240 240 200
8149 8190 120 110 100
8191 8230 100 90 80
8231 8268 120 110 100
8269 8306 80 70 70
8307 8344 240 240 200
8345 8386 80 70 70
8387 8428 240 240 200
8429 8468 100 90 80
8469 8510 120 110 100
8511 8550 120 110 100
8551 8590 80 70 70
8591 8630 240 240 200
8631 8670 100 90 80
8671 8712 80 70 70
8713 8754 240 240 200
8755 8796 120 110 100
8797 8836 120 110 100
8837 8874 80 70 70
8875 8912 240 240 200
8913 8944 100 90 80
8945 8972 80 70 70
8973 9000 240 240 200
9001 9028 120 110 100
9029 9058 120 110 100
9059 9088 80 70 70
9089 9118 240 240 200
9119 9142 80 70 70
9143 9166 240 240 200
9167 9192 100 90 80
9193 9216 120 110 100
9217 9246 120 110 100
9247 9274 80 70 70
9275 9302 240 240 200
9303 9328 80 70 70
9329 9354 240 240 200
9355 9382 120 110 100
9383 9408 100 90 80
9409 9430 120 110 100
9431 9450 80 70 70
9451 9486 80 70 70
9487 9506 240 240 200
9507 9542 240 240 200
9543 9568 100 90 80
9569 9604 120 110 100
9605 9626 120 110 100
9627 9646 80 70 70
9647 9666 240 240 200
9667 9694 100 90 80
9695 9726 120 110 100
9727 9752 80 70 70
9753 9778 240 240 200
9779 9814 80 70 70
9815 9840 120 110 100
9841 9876 240 240 200
9877 9906 100 90 80
9907 9932 80 70 70
9933 9958 240 240 200
9959 9992 120 110 100
9993 10018 120 110 100
10019 10052 80 70 70
10053 10086 240 240 200
10087 10116 100 90 80
10117 10142 80 70 70
10143 10168 240 240 200
10169 10194 120 110 100
10195 10226 120 110 100
10227 10258 80 70 70
10259 10290 240 240 200
10291 10316 80 70 70
10317 10342 240 240 200
10343 10372 100 90 80
10373 10400 120 110 100
10401 10432 120 110 100
10433 10460 80 70 70
10461 10488 240 240 200
10489 10520 80 70 70
10521 10552 240 240 200
10553 10580 120 110 100
10581 10610 100 90 80
10611 10642 120 110 100
10643 10670 80 70 70
10671 10698 240 240 200
10699 10730 80 70 70
10731 10758 120 110 100
10759 10790 240 240 200
10791 10820 100 90 80
10821 10848 120 110 100
10849 10876 80 70 70
10877 10904 240 240 200
10905 10932 120 110 100
10933 10958 80 70 70
10959 10984 240 240 200
10985 11010 100 90 80
11011 11034 120 110 100
11035 11062 80 70 70
11063 11090 240 240 200
11091 11118 120 110 100
11119 11142 80 70 70
11143 11166 240 240 200
11167 11192 100 90 80
11193 11218 120 110 100
11219 11246 80 70 70
11247 11274 240 240 200
11275 11298 80 70 70
11299 11322 240 240 200
11323 11350 120 110 100
11351 11376 100 90 80
11377 11402 120 110 100
11403 11426 80 70 70
11427 11454 80 70 70
11455 11478 240 240 200
11479 11506 240 240 200
11507 11532 100 90 80
11533 11560 120 110 100
11561 11586 120 110 100
11587 11610 80 70 70
11611 11634 240 240 200
11635 11662 80 70 70
11663 11690 240 240 200
11691 11716 100 90 80
11717 11744 120 110 100
11745 11770 120 110 100
11771 11794 80 70 70
11795 11818 240 240 200
11819 11846 80 70 70
11847 11874 240 240 200
11875 11900 100 90 80
11901 11928 120 110 100
11929 11954 120 110 100
11955 11980 80 70 70
11981 12006 240 240 200
12007 12032 100 90 80
12033 12060 80 70 70
12061 12088 240 240 200
12089 12116 120 110 100
12117 12142 120 110 100
12143 12168 80 70 70
12169 12194 240 240 200
12195 12220 100 90 80
12221 12248 80 70 70
12249 12276 240 240 200
12277 12304 120 110 100
12305 12330 120 110 100
12331 12356 80 70 70
12357 12382 240 240 200
12383 12408 100 90 80
12409 12436 80 70 70
12437 12464 240 240 200
12465 12492 120 110 100
12493 12518 120 110 100
12519 12544 80 70 70
12545 12570 240 240 200
12571 12596 100 90 80
12597 12624 80 70 70
12625 12652 240 240 200
12653 12680 120 110 100
12681 12706 120 110 100
12707 12732 80 70 70
12733 12758 240 240 200
12759 12784 100 90 80
12785 12812 80 70 70
12813 12840 240 240 200
12841 12866 120 110 100
12867 12892 80 70 70
12893 12920 120 110 100
12921 12946 240 240 200
12947 12972 100 90 80
12973 13000 80 70 70
13001 13028 240 240 200
13029 13054 120 110 100
13055 13080 80 70 70
13081 13106 240 240 200
13107 13134 120 110 100
13135 13162 100 90 80
13163 13192 80 70 70
13193 13222 240 240 200
13223 13248 120 110 100
13249 13274 80 70 70
13275 13300 240 240 200
13301 13330 120 110 100
13331 13356 100 90 80
13357 13380 120 110 100
13381 13404 80 70 70
13405 13428 240 240 200
13429 13456 80 70 70
13457 13484 240 240 200
13485 13512 120 110 100
13513 13538 100 90 80
13539 13562 120 110 100
13563 13586 80 70 70
13587 13610 240 240 200
13611 13638 80 70 70
13639 13666 240 240 200
13667 13694 120 110 100
13695 13720 100 90 80
13721 13744 120 110 100
13745 13768 80 70 70
13769 13792 240 240 200
13793 13820 80 70 70
13821 13848 240 240 200
13849 13876 120 110 100
13877 13902 100 90 80
13903 13926 120 110 100
13927 13950 80 70 70
13951 13974 240 240 200
13975 14002 80 70 70
14003 14030 240 240 200
14031 14056 100 90 80
14057 14084 120 110 100
14085 14108 120 110 100
14109 14132 80 70 70
14133 14156 240 240 200
14157 14184 80 70 70
14185 14212 240 240 200
14213 14238 100 90 80
14239 14264 120 110 100
14265 14290 80 70 70
14291 14318 120 110 100
14319 14344 240 240 200
14345 14366 80 70 70
14367 14388 240 240 200
14389 14408 100 90 80
14409 14426 120 110 100
14427 14444 80 70 70
14445 14462 240 240 200
14463 14478 120 110 100
14479 14529 180 190 200
14530 14749 180 190 200
14750 14988 180 190 200
14989 15222 180 190 200
15223 15330 180 190 200
15331 15439 180 190 200
15440 15802 180 190 200
15803 16060 180 190 200
16061 16075 180 190 200
16076 16301 180 190 200
16302 16601 180 190 200
16602 16882 180 190 200
16883 17300 180 190 200
17301 17857 180 190 200
17858 18510 180 190 200
18511 18994 180 190 200
18995 19452 180 190 200
19453 19485 180 190 200
19486 19721 180 190 200
19722 20057 180 190 200
20058 20336 180 190 200
20337 20619 180 190 200
20620 20978 180 190 200
20979 21440 180 190 200
21441 21902 180 190 200
21903 22548 180 190 200
22549 22650 180 190 200
22651 22873 180 190 200
22874 23149 180 190 200
23150 23389 180 190 200
23390 23617 180 190 200
23618 23934 180 190 200
23935 24220 180 190 200
24221 24639 180 190 200
24640 25206 180 190 200
25207 25246 180 190 200
25247 25314 180 190 200
25315 25673 180 190 200
25674 26160 180 190 200
26161 26431 180 190 200
26432 26684 180 190 200
26685 26933 180 190 200
26934 27221 180 190 200
27222 27641 180 190 200
27642 27660 180 190 200
27661 27697 180 190 200
27698 27813 180 190 200
27814 28309 180 190 200
28310 28579 180 190 200
28580 28865 180 190 200
28866 29048 180 190 200
29049 29395 180 190 200
29396 29624 180 190 200
29625 29642 180 190 200
29643 29675 180 190 200
29676 29756 180 190 200
29757 30049 180 190 200
30050 30474 180 190 200
30475 30765 180 190 200
30766 31343 180 190 200
31344 32394 180 190 200
32395 32552 180 190 200
32553 32569 180 190 200
32570 32601 180 190 200
32602 32665 180 190 200
32666 32814 180 190 200
32815 33368 180 190 200
33369 34018 180 190 200
34019 34451 180 190 200
34452 35209 180 190 200
35210 35501 180 190 200
35502 35520 180 190 200
35521 35548 180 190 200
35549 35605 180 190 200
35606 35718 180 190 200
35719 36067 180 190 200
36068 36768 180 190 200
36769 37219 180 190 200
37220 37602 180 190 200
37603 37998 180 190 200
37999 38064 180 190 200
38065 38093 180 190 200
38094 38133 180 190 200
38134 38214 180 190 200
38215 38457 180 190 200
38458 38961 180 190 200
38962 39414 180 190 200
39415 39824 180 190 200
39825 40160 180 190 200
40161 40260 180 190 200
40261 40281 180 190 200
40282 40308 180 190 200
40309 40351 180 190 200
40352 40446 180 190 200
40447 40788 180 190 200
40789 41212 180 190 200
41213 41640 180 190 200
41641 41942 180 190 200
41943 41969 180 190 200
41970 41984 180 190 200
41985 41997 180 190 200
41998 42011 180 190 200
42012 42028 180 190 200
42029 42051 180 190 200
42052 42135 180 190 200
42136 42230 180 190 200
42231 42254 180 190 200
42255 42262 180 190 200
42263 42266 120 80 40
42267 42270 120 80 40
42271 42274 120 80 40
42275 42278 120 80 40
42279 42282 120 80 40
42283 42286 120 80 40
42287 42290 120 80 40
42291 42294 120 80 40
42295 42298 120 80 40
42299 42302 120 80 40
42303 42306 120 80 40
42307 42310 120 80 40
42311 42314 120 80 40
42315 42422 112 139 182
42423 42426 120 80 40
42427 42430 120 80 40
42431 42434 120 80 40
42435 42438 120 80 40
42439 42442 120 80 40
42443 42446 120 80 40
42447 42450 120 80 40
42451 42454 120 80 40
42455 42458 120 80 40
42459 42462 120 80 40
42463 42466 120 80 40
42467 42470 120 80 40
42471 42645 133 119 88
42646 42820 133 119 88
42821 42824 120 80 40
42825 42828 120 80 40
42829 42832 120 80 40
42833 42836 120 80 40
42837 42840 120 80 40
42841 42844 120 80 40
42845 42848 120 80 40
42849 42852 120 80 40
42853 42856 120 80 40
42857 42860 120 80 40
42861 42864 120 80 40
42865 42868 120 80 40
42869 42872 120 80 40
42873 42876 120 80 40
42877 42922 133 119 88
42923 42938 188 190 173
42939 42942 120 80 40
42943 42946 120 80 40
42947 42950 120 80 40
42951 42954 120 80 40
42955 42958 120 80 40
42959 42962 120 80 40
42963 42966 120 80 40
42967 42970 120 80 40
42971 42974 120 80 40
42975 42978 120 80 40
42979 42982 120 80 40
42983 42986 120 80 40
42987 42990 120 80 40
42991 42994 120 80 40
42995 42998 120 80 40
42999 43002 120 80 40
43003 43006 120 80 40
43007 43010 120 80 40
43011 43014 120 80 40
43015 43018 120 80 40
43019 43022 120 80 40
43023 43026 120 80 40
43027 43030 120 80 40
43031 43034 120 80 40
43035 43038 120 80 40
43039 43042 120 80 40
43043 43046 120 80 40
43047 43050 120 80 40
43051 43054 120 80 40
43055 43058 120 80 40
43059 43062 120 80 40
43063 43066 120 80 40
43067 43070 120 80 40
43071 43074 120 80 40
43075 43078 120 80 40
43079 43186 112 139 182
43187 43190 120 80 40
43191 43194 120 80 40
43195 43198 120 80 40
43199 43202 120 80 40
43203 43206 120 80 40
43207 43210 120 80 40
43211 43214 120 80 40
43215 43322 112 139 182
43323 43326 120 80 40
43327 43330 120 80 40
43331 43505 133 119 88
43506 43509 120 80 40
43510 43684 133 119 88
43685 43688 120 80 40
43689 43692 120 80 40
43693 43696 120 80 40
43697 43700 120 80 40
43701 43704 120 80 40
43705 43708 120 80 40
43709 43712 120 80 40
43713 43716 120 80 40
43717 43720 120 80 40
43721 43724 120 80 40
43725 43728 120 80 40
43729 43732 120 80 40
43733 43736 120 80 40
43737 43740 120 80 40
43741 43786 133 119 88
43787 43802 188 190 173
43803 43806 120 80 40
43807 43810 120 80 40
43811 43814 120 80 40
43815 43818 120 80 40
43819 43822 120 80 40
43823 43826 120 80 40
43827 43830 120 80 40
43831 43834 120 80 40
43835 43838 120 80 40
43839 43842 120 80 40
43843 43846 120 80 40
43847 44021 133 119 88
44022 44025 120 80 40
44026 44029 120 80 40
44030 44075 133 119 88
44076 44091 188 190 173
44092 44266 133 119 88
44267 44270 120 80 40
44271 44274 120 80 40
44275 44278 120 80 40
44279 44282 120 80 40
44283 44286 120 80 40
44287 44290 120 80 40
44291 44398 112 139 182
44399 44402 120 80 40
44403 44406 120 80 40
44407 44581 133 119 88
44582 44585 120 80 40
44586 44589 120 80 40
44590 44593 120 80 40
44594 44597 120 80 40
44598 44601 120 80 40
44602 44605 120 80 40
44606 44609 120 80 40
44610 44613 120 80 40
44614 44617 120 80 40
44618 44621 120 80 40
44622 44625 120 80 40
44626 44629 120 80 40
44630 44633 120 80 40
44634 44637 120 80 40
44638 44641 120 80 40
44642 44645 120 80 40
44646 44649 120 80 40
44650 44653 120 80 40
44654 44657 120 80 40
44658 44661 120 80 40
44662 44836 133 119 88
44837 45011 133 119 88
45012 45057 133 119 88
45058 45073 188 190 173
45074 45077 120 80 40
45078 45081 120 80 40
45082 45085 120 80 40
45086 45089 120 80 40
45090 45093 120 80 40
45094 45097 120 80 40
45098 45101 120 80 40
45102 45105 120 80 40
45106 45109 120 80 40
45110 45113 120 80 40
45114 45288 133 119 88
45289 45292 120 80 40
45293 45296 120 80 40
45297 45300 120 80 40
45301 45304 120 80 40
45305 45308 120 80 40
45309 45312 120 80 40
45313 45316 120 80 40
45317 45320 120 80 40
45321 45324 120 80 40
45325 45328 120 80 40
45329 45332 120 80 40
45333 45336 120 80 40
45337 45340 120 80 40
45341 45344 120 80 40
45345 45348 120 80 40
45349 45352 120 80 40
45353 45398 133 119 88
45399 45414 188 190 173
45415 45418 120 80 40
45419 45422 120 80 40
45423 45426 120 80 40
45427 45430 120 80 40
45431 45434 120 80 40
45435 45438 120 80 40
45439 45442 120 80 40
45443 45446 120 80 40
45447 45450 120 80 40
45451 45454 120 80 40
45455 45458 120 80 40
45459 45566 112 139 182
45567 45570 120 80 40
45571 45574 120 80 40
45575 45578 120 80 40
45579 45582 120 80 40
45583 45586 120 80 40
45587 45590 120 80 40
45591 45594 120 80 40
45595 45598 120 80 40
45599 45602 120 80 40
45603 45606 120 80 40
45607 45652 133 119 88
45653 45668 188 190 173
45669 45776 112 139 182
45777 45780 120 80 40
45781 45784 120 80 40
45785 45788 120 80 40
45789 45792 120 80 40
45793 45796 120 80 40
45797 45800 120 80 40
45801 45804 120 80 40
45805 45808 120 80 40
45809 45812 120 80 40
45813 45858 133 119 88
45859 45874 188 190 173
45875 46049 133 119 88
46050 46053 120 80 40
46054 46057 120 80 40
46058 46061 120 80 40
46062 46065 120 80 40
46066 46069 120 80 40
46070 46073 120 80 40
46074 46077 120 80 40
46078 46081 120 80 40
46082 46085 120 80 40
46086 46089 120 80 40
46090 46093 120 80 40
46094 46097 120 80 40
46098 46101 120 80 40
46102 46105 120 80 40
46106 46109 120 80 40
46110 46113 120 80 40
46114 46117 120 80 40
46118 46121 120 80 40
46122 46125 120 80 40
46126 46129 120 80 40
46130 46133 120 80 40
46134 46137 120 80 40
46138 46141 120 80 40
46142 46145 120 80 40
46146 46320 133 119 88
46321 46324 120 80 40
46325 46328 120 80 40
46329 46332 120 80 40
46333 46336 120 80 40
46337 46340 120 80 40
46341 46344 120 80 40
46345 46348 120 80 40
46349 46352 120 80 40
46353 46356 120 80 40
46357 46360 120 80 40
46361 46364 120 80 40
46365 46368 120 80 40
46369 46372 120 80 40
46373 46376 120 80 40
46377 46380 120 80 40
46381 46384 120 80 40
46385 46430 133 119 88
46431 46446 188 190 173
46447 46492 133 119 88
46493 46508 188 190 173
46509 46512 120 80 40
46513 46516 120 80 40
46517 46520 120 80 40
46521 46524 120 80 40
46525 46528 120 80 40
46529 46532 120 80 40
46533 46536 120 80 40
46537 46540 120 80 40
46541 46544 120 80 40
46545 46548 120 80 40
46549 46552 120 80 40
46553 46556 120 80 40
46557 46560 120 80 40
46561 46564 120 80 40
46565 46568 120 80 40
46569 46572 120 80 40
46573 46576 120 80 40
46577 46580 120 80 40
46581 46584 120 80 40
46585 46588 120 80 40
46589 46592 120 80 40
46593 46596 120 80 40
46597 46600 120 80 40
46601 46604 120 80 40
46605 46608 120 80 40
46609 46612 120 80 40
46613 46616 120 80 40
46617 46620 120 80 40
46621 46624 120 80 40
46625 46628 120 80 40
46629 46632 120 80 40
46633 46636 120 80 40
46637 46640 120 80 40
46641 46644 120 80 40
46645 46648 120 80 40
46649 46756 112 139 182
46757 46760 120 80 40
46761 46764 120 80 40
46765 46768 120 80 40
46769 46772 120 80 40
46773 46776 120 80 40
46777 46780 120 80 40
46781 46784 120 80 40
46785 46788 120 80 40
46789 46792 120 80 40
46793 46796 120 80 40
46797 46800 120 80 40
46801 46804 120 80 40
46805 46808 120 80 40
46809 46812 120 80 40
46813 46816 120 80 40
46817 46924 112 139 182
46925 46970 133 119 88
46971 46986 188 190 173
46987 46990 120 80 40
46991 46994 120 80 40
46995 46998 120 80 40
46999 47002 120 80 40
47003 47006 120 80 40
47007 47010 120 80 40
47011 47014 120 80 40
47015 47018 120 80 40
47019 47022 120 80 40
47023 47026 120 80 40
47027 47030 120 80 40
47031 47034 120 80 40
47035 47080 133 119 88
47081 47096 188 190 173
47097 47142 133 119 88
47143 47158 188 190 173
47159 47162 120 80 40
47163 47166 120 80 40
47167 47170 120 80 40
47171 47174 120 80 40
47175 47178 120 80 40
47179 47182 120 80 40
47183 47186 120 80 40
47187 47361 133 119 88
47362 47365 120 80 40
47366 47369 120 80 40
47370 47373 120 80 40
47374 47377 120 80 40
47378 47381 120 80 40
47382 47489 112 139 182
47490 47493 120 80 40
47494 47497 120 80 40
47498 47501 120 80 40
47502 47505 120 80 40
47506 47509 120 80 40
47510 47513 120 80 40
47514 47517 120 80 40
47518 47521 120 80 40
47522 47525 120 80 40
47526 47529 120 80 40
47530 47704 133 119 88
47705 47708 120 80 40
47709 47754 133 119 88
47755 47770 188 190 173
47771 47774 120 80 40
47775 47778 120 80 40
47779 47782 120 80 40
47783 47786 120 80 40
47787 47790 120 80 40
47791 47794 120 80 40
47795 47798 120 80 40
47799 47802 120 80 40
47803 47806 120 80 40
47807 47810 120 80 40
47811 47814 120 80 40
47815 47818 120 80 40
47819 47822 120 80 40
47823 47826 120 80 40
47827 47830 120 80 40
47831 47834 120 80 40
47835 47838 120 80 40
47839 47842 120 80 40
47843 47846 120 80 40
47847 47850 120 80 40
47851 47854 120 80 40
47855 47858 120 80 40
47859 47862 120 80 40
47863 47866 120 80 40
47867 47870 120 80 40
47871 47978 112 139 182
47979 48153 133 119 88
48154 48199 133 119 88
48200 48215 188 190 173
48216 48390 133 119 88
48391 48394 120 80 40
48395 48398 120 80 40
48399 48402 120 80 40
48403 48406 120 80 40
48407 48452 133 119 88
48453 48468 188 190 173
48469 48472 120 80 40
48473 48476 120 80 40
48477 48480 120 80 40
48481 48484 120 80 40
48485 48488 120 80 40
48489 48492 120 80 40
48493 48496 120 80 40
48497 48500 120 80 40
48501 48504 120 80 40
48505 48508 120 80 40
48509 48512 120 80 40
48513 48516 120 80 40
48517 48520 120 80 40
48521 48524 120 80 40
48525 48528 120 80 40
48529 48532 120 80 40
48533 48536 120 80 40
48537 48540 120 80 40
48541 48544 120 80 40
48545 48548 120 80 40
48549 48552 120 80 40
48553 48727 133 119 88
48728 48731 120 80 40
48732 48735 120 80 40
48736 48739 120 80 40
48740 48743 120 80 40
48744 48747 120 80 40
48748 48751 120 80 40
48752 48755 120 80 40
48756 48759 120 80 40
48760 48763 120 80 40
48764 48809 133 119 88
48810 48825 188 190 173
48826 48829 120 80 40
48830 48833 120 80 40
48834 48837 120 80 40
48838 48841 120 80 40
48842 48845 120 80 40
48846 48849 120 80 40
48850 48853 120 80 40
48854 48857 120 80 40
48858 48861 120 80 40
48862 48865 120 80 40
48866 48973 112 139 182
48974 48977 120 80 40
48978 48981 120 80 40
48982 48985 120 80 40
48986 49160 133 119 88
49161 49164 120 80 40
49165 49168 120 80 40
49169 49172 120 80 40
49173 49176 120 80 40
49177 49180 120 80 40
49181 49184 120 80 40
49185 49188 120 80 40
49189 49192 120 80 40
49193 49196 120 80 40
49197 49200 120 80 40
49201 49375 133 119 88
49376 49421 133 119 88
49422 49437 188 190 173
49438 49441 120 80 40
49442 49445 120 80 40
49446 49449 120 80 40
49450 49453 120 80 40
49454 49457 120 80 40
49458 49461 120 80 40
49462 49465 120 80 40
49466 49469 120 80 40
49470 49577 112 139 182
49578 49581 120 80 40
49582 49585 120 80 40
49586 49589 120 80 40
49590 49593 120 80 40
49594 49597 120 80 40
49598 49601 120 80 40
49602 49605 120 80 40
49606 49609 120 80 40
49610 49613 120 80 40
49614 49617 120 80 40
49618 49621 120 80 40
49622 49625 120 80 40
49626 49629 120 80 40
49630 49633 120 80 40
49634 49637 120 80 40
49638 49812 133 119 88
49813 49816 120 80 40
49817 49820 120 80 40
49821 49866 133 119 88
49867 49882 188 190 173
49883 49886 120 80 40
49887 49890 120 80 40
49891 49894 120 80 40
49895 49898 120 80 40
49899 49944 133 119 88
49945 49960 188 190 173
49961 50006 133 119 88
50007 50022 188 190 173
