1134 1502
0.632 -0.395 -0.099
0.620 -0.350 -0.082
0.617 -0.322 -0.116
0.617 -0.322 -0.165
0.620 -0.350 -0.204
0.620 -0.395 -0.219
0.620 -0.441 -0.204
0.619 -0.469 -0.165
0.619 -0.469 -0.116
0.620 -0.441 -0.082
0.620 -0.395 -0.066
0.590 -0.333 -0.052
0.590 -0.294 -0.107
0.590 -0.294 -0.174
0.590 -0.333 -0.228
0.590 -0.395 -0.249
0.590 -0.458 -0.228
0.590 -0.496 -0.174
0.590 -0.496 -0.107
0.590 -0.458 -0.052
0.590 -0.395 -0.032
0.551 -0.322 -0.037
0.551 -0.277 -0.101
0.551 -0.277 -0.180
0.551 -0.322 -0.244
0.551 -0.395 -0.268
0.551 -0.469 -0.244
0.551 -0.514 -0.180
0.551 -0.514 -0.101
0.551 -0.469 -0.037
0.148 0.789 1.839
0.508 -0.318 -0.032
0.508 -0.275 -0.099
0.508 -0.275 -0.182
0.508 -0.318 -0.249
0.508 -0.395 -0.275
0.508 -0.472 -0.249
0.508 -0.515 -0.182
0.508 -0.515 -0.099
0.508 -0.472 -0.032
0.636 -0.395 -0.140
0.464 -0.327 -0.031
0.464 -0.285 -0.101
0.464 -0.285 -0.180
0.464 -0.327 -0.244
0.464 -0.395 -0.268
0.464 -0.464 -0.244
0.464 -0.506 -0.180
0.464 -0.506 -0.101
0.464 -0.464 -0.031
0.464 -0.395 -0.004
0.432 -0.338 -0.043
0.435 -0.302 -0.108
0.441 -0.302 -0.175
0.446 -0.333 -0.229
0.447 -0.395 -0.242
0.446 -0.458 -0.229
0.441 -0.488 -0.175
0.435 -0.488 -0.108
0.432 -0.453 -0.043
0.433 -0.395 -0.022
0.441 -0.399 -0.213
-0.069 -0.399 -0.213
0.118 -0.523 -0.199
-0.074 -0.399 -0.162
0.441 -0.399 -0.096
0.118 -0.531 -0.084
-0.068 -0.399 -0.096
-0.071 -0.575 -0.162
0.412 -0.547 -0.212
0.415 -0.572 -0.103
-0.053 -0.556 -0.103
-0.053 -0.546 -0.214
0.118 -0.544 -0.162
0.423 -0.571 -0.123
0.032 -0.544 -0.210
0.305 -0.248 -0.079
0.009 -0.327 -0.200
0.032 -0.543 -0.084
0.032 -0.399 -0.065
0.305 -0.550 -0.079
0.326 -0.399 -0.051
0.423 -0.227 -0.123
-0.071 -0.223 -0.162
0.118 -0.254 -0.162
0.118 -0.275 -0.199
0.118 -0.267 -0.084
0.412 -0.250 -0.212
0.415 -0.225 -0.103
-0.053 -0.243 -0.103
-0.053 -0.252 -0.214
0.442 -0.399 -0.162
0.032 -0.254 -0.210
0.501 -0.350 -0.128
0.501 -0.350 -0.183
0.502 -0.398 -0.210
0.501 -0.447 -0.183
0.501 -0.447 -0.128
0.501 -0.398 -0.101
0.426 -0.348 -0.128
0.426 -0.348 -0.183
0.426 -0.398 -0.210
0.426 -0.449 -0.183
0.426 -0.449 -0.128
0.426 -0.398 -0.101
-0.264 0.550 -1.076
0.158 -0.493 1.994
0.257 -0.599 0.098
0.249 -0.549 0.328
0.288 -0.572 0.313
0.294 -0.501 0.365
0.291 -0.603 0.112
0.390 -0.638 -0.122
0.290 -0.539 0.351
0.280 -0.568 0.359
0.286 -0.549 0.327
0.229 -0.624 0.085
0.148 0.567 1.456
0.341 -0.542 -0.209
0.326 -0.568 -0.205
0.269 -0.502 0.365
0.280 -0.596 0.312
-0.181 0.251 2.198
0.175 0.493 1.994
0.291 -0.537 0.370
0.258 -0.568 0.357
0.238 -0.572 0.322
0.048 0.954 -1.078
0.391 -0.638 -0.142
0.227 -0.571 0.350
0.423 -0.571 -0.123
0.227 -0.642 0.090
0.227 -0.562 0.353
0.389 -0.579 -0.216
0.278 -0.656 0.118
0.239 -0.502 0.359
0.288 -0.561 0.364
0.238 -0.596 0.322
0.416 -0.605 -0.122
0.244 -0.537 0.348
0.291 -0.621 0.118
0.412 -0.547 -0.212
0.248 -0.678 0.090
0.257 -0.195 0.098
0.249 -0.244 0.328
0.288 -0.221 0.313
0.294 -0.293 0.365
0.291 -0.191 0.112
0.390 -0.156 -0.122
0.290 -0.255 0.351
0.280 -0.226 0.359
0.229 -0.170 0.085
0.209 0.569 1.328
0.341 -0.257 -0.209
0.326 -0.225 -0.205
0.269 -0.292 0.365
0.280 -0.198 0.313
0.326 -0.213 -0.195
0.158 0.493 1.994
0.291 -0.257 0.370
0.244 0.589 1.814
0.238 -0.221 0.322
0.171 0.969 -1.163
0.391 -0.156 -0.142
0.227 -0.223 0.350
0.423 -0.227 -0.123
0.227 -0.152 0.090
0.227 -0.232 0.353
0.286 -0.244 0.327
0.389 -0.215 -0.216
0.278 -0.138 0.118
0.239 -0.292 0.359
0.288 -0.233 0.365
0.238 -0.198 0.322
0.416 -0.189 -0.122
0.244 -0.257 0.348
0.291 -0.173 0.118
0.412 -0.250 -0.212
0.248 -0.116 0.090
-0.229 0.777 -0.972
-0.240 0.777 0.742
0.076 0.777 0.793
0.157 0.777 0.526
0.333 0.782 0.335
0.371 0.771 -0.180
0.403 0.748 -0.601
0.424 0.717 -0.891
0.319 0.777 0.526
-0.229 -0.777 -0.972
-0.240 -0.777 0.742
0.076 -0.777 0.793
0.157 -0.777 0.526
0.333 -0.782 0.335
0.371 -0.771 -0.180
0.403 -0.748 -0.601
0.424 -0.717 -0.891
0.319 -0.777 0.526
-0.183 0.491 -1.020
0.296 0.491 -0.891
0.424 0.717 -0.891
-0.229 0.777 -0.972
-0.183 -0.491 -1.020
0.296 -0.491 -0.891
0.424 -0.717 -0.891
-0.229 -0.777 -0.972
0.516 0.116 -1.819
0.515 0.241 -1.809
0.445 0.584 -1.661
0.479 0.644 -1.661
0.515 0.507 -1.724
0.514 0.332 -1.791
0.516 -0.116 -1.819
0.515 -0.241 -1.809
0.445 -0.584 -1.661
0.479 -0.644 -1.661
0.515 -0.507 -1.724
0.514 -0.332 -1.791
0.516 0.000 -1.818
-0.183 -0.491 -1.657
-0.183 0.491 -1.657
0.318 0.491 -1.661
0.318 -0.491 -1.661
-0.183 0.491 -1.204
-0.183 -0.491 -1.020
-0.183 0.491 -1.020
-0.183 0.491 -1.441
-0.183 -0.491 -1.204
-0.183 -0.491 -1.441
-0.183 -0.491 -1.657
-0.183 0.491 -1.657
-0.229 0.000 -0.972
-0.229 0.777 -0.972
-0.229 -0.777 -0.972
-0.240 0.777 0.742
-0.240 -0.777 0.742
0.339 0.809 0.787
-0.183 -0.491 -1.657
-0.183 -0.491 -1.441
-0.183 -0.491 -1.204
0.317 -0.491 -1.443
0.318 -0.491 -1.661
0.312 -0.491 -1.204
0.296 -0.491 -0.891
-0.183 0.491 -1.657
-0.183 0.491 -1.441
-0.183 0.491 -1.204
-0.183 0.491 -1.020
0.317 0.491 -1.443
0.318 0.491 -1.661
0.312 0.491 -1.204
0.296 0.491 -0.891
0.306 0.000 0.717
0.306 -0.772 0.717
0.333 -0.782 0.335
0.371 -0.771 -0.180
0.403 -0.748 -0.601
0.444 -0.628 -1.443
0.445 -0.584 -1.661
0.479 -0.644 -1.661
0.478 -0.688 -1.443
0.473 -0.731 -1.204
0.458 -0.777 -0.891
0.436 -0.808 -0.601
0.405 -0.831 -0.180
0.366 -0.843 0.335
0.340 -0.832 0.717
0.319 -0.777 0.526
0.306 0.772 0.717
0.333 0.782 0.335
0.371 0.771 -0.180
0.403 0.748 -0.601
0.444 0.628 -1.443
0.445 0.584 -1.661
0.479 0.644 -1.661
0.478 0.688 -1.443
0.473 0.731 -1.204
0.458 0.777 -0.891
0.436 0.808 -0.601
0.405 0.831 -0.180
0.366 0.843 0.335
0.340 0.832 0.717
0.319 0.777 0.526
0.364 0.000 1.136
0.364 -0.174 1.133
0.363 -0.298 1.119
0.361 -0.421 1.091
0.355 -0.653 0.972
0.340 -0.798 0.801
0.339 -0.809 0.787
0.364 0.174 1.133
0.363 0.298 1.119
0.361 0.421 1.091
0.355 0.653 0.972
0.340 0.798 0.801
0.112 -0.366 0.314
0.112 -0.412 0.314
0.275 -0.270 0.329
0.226 -0.270 0.324
0.226 -0.507 0.324
0.274 -0.507 0.328
0.280 -0.425 0.329
0.210 -0.425 0.323
0.210 -0.354 0.323
0.280 -0.354 0.329
0.174 -0.394 0.488
0.259 -0.110 0.496
0.174 -0.132 0.488
0.174 -0.656 0.488
0.259 -0.678 0.496
0.327 -0.656 0.502
0.385 -0.595 0.507
0.423 -0.503 0.510
0.437 -0.394 0.511
0.423 -0.286 0.510
0.385 -0.193 0.507
0.327 -0.132 0.502
0.238 -0.199 1.031
0.296 -0.245 1.031
0.335 -0.313 1.031
0.349 -0.394 1.031
0.335 -0.475 1.031
0.296 -0.543 0.984
0.238 -0.589 0.877
0.170 -0.605 0.747
0.101 -0.199 1.031
0.170 -0.183 1.031
0.327 -0.132 0.502
0.385 -0.193 0.507
0.423 -0.286 0.510
0.437 -0.394 0.511
0.423 -0.503 0.510
0.385 -0.595 0.507
0.327 -0.656 0.502
0.259 -0.678 0.496
0.174 -0.656 0.488
0.174 -0.132 0.488
0.259 -0.110 0.496
-0.173 -0.125 2.213
0.141 -0.741 1.998
-0.173 0.125 2.213
0.137 0.679 1.754
0.362 -0.816 0.640
0.451 -0.765 0.573
0.527 -0.716 0.449
0.688 -0.570 -0.430
0.673 -0.568 -0.608
0.449 -0.795 -0.547
0.421 -0.816 -0.168
0.386 -0.826 0.296
0.573 -0.675 0.359
0.622 -0.630 0.250
0.662 -0.599 0.166
0.682 -0.579 0.071
0.689 -0.570 -0.087
0.692 -0.570 -0.249
0.558 -0.673 -0.804
0.604 -0.625 -0.789
0.637 -0.594 -0.752
0.660 -0.575 -0.691
0.461 -0.774 -0.665
0.483 -0.750 -0.745
0.516 -0.718 -0.791
0.366 -0.843 0.335
0.436 -0.808 -0.601
0.405 -0.831 -0.180
0.662 -0.474 -0.881
0.652 -0.520 -0.925
0.640 -0.557 -0.978
0.670 -0.410 -0.859
0.683 -0.263 -0.834
0.509 -0.157 -2.178
0.492 -0.155 -2.147
0.516 -0.116 -1.819
0.499 -0.213 -1.918
0.340 -0.832 0.717
0.515 -0.241 -1.809
0.514 -0.332 -1.791
0.499 -0.375 -2.168
0.489 -0.395 -2.131
0.478 -0.484 -2.155
-0.284 -0.839 1.961
0.477 -0.534 -2.034
0.477 -0.595 -1.858
0.515 -0.507 -1.724
0.479 -0.644 -1.661
0.536 -0.534 -1.575
0.478 -0.688 -1.443
0.589 -0.557 -1.262
0.703 -0.166 0.255
0.473 -0.731 -1.204
0.458 -0.777 -0.891
0.657 -0.557 -0.883
0.148 -0.521 1.902
0.715 -0.309 0.125
0.695 -0.558 0.085
0.164 0.857 1.853
0.701 -0.548 -0.471
0.734 -0.267 -0.218
0.138 0.606 1.952
0.672 -0.553 0.214
0.683 -0.500 0.217
0.673 -0.580 0.191
0.523 -0.720 0.505
0.439 -0.774 0.643
0.339 -0.809 0.787
0.340 -0.798 0.801
0.402 -0.768 0.724
0.515 -0.697 0.539
0.630 -0.600 0.290
0.574 -0.650 0.418
0.653 -0.582 0.244
0.688 0.000 -0.825
0.508 0.000 -2.181
0.487 0.000 -2.110
0.705 0.000 0.259
0.722 0.000 0.201
0.197 -0.878 1.777
0.745 0.000 -0.105
0.734 0.000 -0.461
0.516 0.000 -1.818
0.362 0.816 0.640
0.451 0.765 0.573
0.527 0.716 0.449
0.688 0.570 -0.430
0.673 0.568 -0.608
0.449 0.795 -0.547
0.421 0.816 -0.168
0.386 0.826 0.296
0.573 0.675 0.359
0.622 0.630 0.250
0.662 0.599 0.166
0.682 0.579 0.071
0.689 0.570 -0.087
0.692 0.570 -0.249
0.558 0.673 -0.804
0.604 0.625 -0.789
0.637 0.594 -0.752
0.660 0.575 -0.691
0.461 0.774 -0.665
0.483 0.750 -0.745
0.516 0.718 -0.791
0.366 0.843 0.335
0.436 0.808 -0.601
0.405 0.831 -0.180
0.662 0.474 -0.881
0.652 0.520 -0.925
0.640 0.557 -0.978
0.670 0.410 -0.859
0.683 0.263 -0.834
0.509 0.157 -2.178
0.492 0.155 -2.147
0.516 0.116 -1.819
0.143 0.535 2.084
0.499 0.213 -1.918
0.340 0.832 0.717
0.515 0.241 -1.809
0.514 0.332 -1.791
0.499 0.375 -2.168
0.489 0.395 -2.131
0.478 0.484 -2.155
-0.270 -0.706 2.045
0.477 0.534 -2.034
0.164 -0.857 1.853
0.477 0.595 -1.858
0.515 0.507 -1.724
0.479 0.644 -1.661
0.536 0.534 -1.575
0.478 0.688 -1.443
0.589 0.557 -1.262
0.703 0.166 0.255
0.473 0.731 -1.204
0.458 0.777 -0.891
0.657 0.557 -0.883
0.156 -0.498 2.071
0.692 0.338 0.241
0.715 0.309 0.125
0.695 0.558 0.085
0.143 -0.535 2.084
0.137 0.679 1.754
0.701 0.548 -0.471
0.734 0.267 -0.218
0.136 0.638 2.053
0.672 0.553 0.214
0.673 0.580 0.191
0.523 0.720 0.505
0.439 0.774 0.643
0.339 0.809 0.787
0.340 0.798 0.801
0.402 0.768 0.724
0.515 0.697 0.539
0.630 0.600 0.290
0.574 0.650 0.418
0.653 0.582 0.244
-0.240 -0.777 0.742
-0.240 0.777 0.742
0.157 -0.777 0.526
0.157 0.777 0.526
-0.218 0.538 -2.105
-0.271 0.964 -0.606
0.224 -0.992 1.210
0.206 -0.389 -2.211
0.275 -0.679 1.754
0.207 -0.713 -2.142
0.207 -0.817 -2.099
0.209 -0.936 -1.986
0.208 -0.889 -2.046
-0.278 0.968 -0.136
0.159 0.841 1.736
0.206 0.389 -2.211
0.158 -0.493 1.994
0.207 0.713 -2.142
0.207 0.817 -2.099
0.209 0.936 -1.986
0.208 0.889 -2.046
0.138 -0.606 1.952
0.162 0.262 -2.233
0.000 0.278 -2.233
0.205 -0.988 1.088
0.162 -0.262 -2.233
0.000 -0.278 -2.233
0.171 -0.549 -1.689
0.461 0.822 -2.060
0.197 0.878 1.777
0.433 0.888 -2.024
0.224 -0.563 1.209
0.152 0.807 1.933
0.168 -0.986 0.991
0.284 0.855 -2.060
-0.265 0.940 -1.791
0.197 0.878 1.777
0.252 0.559 -1.569
0.451 0.854 -2.043
-0.305 -0.563 1.605
0.168 0.568 0.991
-0.108 -0.425 -2.191
0.472 0.717 -2.103
0.478 0.484 -2.155
0.008 0.565 0.856
-0.188 0.979 1.610
0.148 -0.562 1.456
-0.218 -0.538 -2.105
0.208 -0.988 1.328
-0.079 -0.373 -2.211
0.171 0.554 -1.689
0.209 -0.563 1.328
0.171 0.555 -1.163
0.499 0.375 -2.168
0.509 0.157 -2.178
0.508 0.000 -2.181
0.398 0.913 -2.005
0.339 0.929 -1.994
0.051 -0.542 -1.770
0.461 -0.822 -2.060
0.328 -0.867 -2.048
0.433 -0.888 -2.024
-0.013 -0.562 1.572
-0.201 0.360 2.178
0.148 -0.985 1.456
-0.292 0.975 0.803
-0.292 -0.563 0.803
0.279 0.772 1.732
-0.121 0.565 0.815
0.145 -0.772 1.732
0.451 -0.854 -2.043
-0.121 -0.563 0.815
0.107 0.567 0.922
0.252 -0.554 -1.284
0.472 -0.717 -2.103
0.478 -0.484 -2.155
-0.305 0.564 1.605
-0.265 -0.941 -1.791
-0.292 0.562 0.803
-0.188 -0.979 1.610
0.171 -0.549 -1.163
0.048 -0.542 -1.079
0.252 0.559 -1.284
-0.013 -0.979 1.573
0.279 0.559 -1.426
0.499 -0.375 -2.168
0.509 -0.157 -2.178
0.398 -0.913 -2.005
0.339 -0.929 -1.994
-0.253 0.895 -1.981
-0.245 0.751 -2.028
-0.079 0.373 -2.211
-0.108 0.425 -2.191
-0.218 0.538 -2.105
-0.238 0.607 -2.075
0.139 0.589 1.814
0.147 0.765 -2.104
-0.278 -0.968 -0.136
-0.126 0.805 -2.032
-0.286 -0.971 0.334
-0.108 0.425 -2.191
-0.151 0.557 -2.115
-0.093 0.489 -2.162
0.137 -0.679 1.754
0.252 -0.975 -1.568
0.145 0.574 -2.168
-0.060 0.301 -2.226
-0.045 0.916 -1.981
0.108 0.929 -1.985
-0.253 -0.895 -1.981
-0.245 -0.751 -2.028
-0.079 -0.373 -2.211
-0.108 -0.425 -2.191
-0.218 -0.538 -2.105
-0.238 -0.607 -2.075
0.275 0.679 1.754
0.147 -0.765 -2.104
-0.286 0.971 0.334
-0.126 -0.805 -2.032
-0.165 0.000 2.220
-0.079 0.373 -2.211
0.632 -0.419 -0.174
-0.093 -0.489 -2.162
0.279 -0.772 1.732
0.171 -0.968 -1.689
0.145 -0.574 -2.168
-0.060 -0.301 -2.226
-0.051 0.000 -2.238
-0.045 -0.916 -1.981
0.108 -0.929 -1.985
-0.271 0.964 -0.606
-0.278 0.968 -0.136
-0.165 0.000 2.220
-0.173 0.125 2.213
0.683 0.500 0.217
-0.181 0.251 2.198
-0.130 0.956 -1.060
-0.093 -0.940 -1.798
0.098 0.815 1.978
0.279 0.772 1.732
0.251 0.841 1.736
0.164 0.857 1.853
0.152 0.807 1.933
0.148 0.984 1.456
0.051 0.955 -1.770
-0.013 0.979 1.573
0.121 0.938 1.691
0.107 0.892 1.825
0.209 0.936 -1.986
0.171 0.968 -1.689
0.108 0.929 -1.985
0.051 0.955 -1.770
-0.045 0.916 -1.981
-0.093 0.940 -1.798
-0.253 0.895 -1.981
-0.265 0.940 -1.791
0.252 0.975 -1.568
0.339 0.929 -1.994
0.389 0.963 -1.850
0.398 0.913 -2.005
0.382 0.991 -1.711
0.370 1.000 -1.512
0.279 0.975 -1.426
0.345 0.999 -1.207
0.252 0.976 -1.283
0.171 0.969 -1.163
0.048 0.954 -1.078
0.292 0.986 -0.612
-0.130 0.956 -1.060
-0.264 0.960 -1.076
-0.007 0.962 -0.603
0.251 0.985 -0.098
0.168 0.986 0.991
0.107 0.984 0.923
0.008 0.980 0.856
-0.121 0.980 0.815
-0.188 0.979 1.610
-0.305 0.979 1.606
0.148 0.521 1.902
-0.286 0.971 0.334
0.145 0.772 1.732
-0.292 0.975 0.803
-0.218 0.980 0.803
0.212 0.984 0.457
0.461 0.822 -2.060
0.451 0.854 -2.043
0.216 0.903 1.625
-0.234 -0.434 2.158
0.346 0.793 1.444
0.281 0.928 1.328
-0.192 -0.327 2.185
0.297 0.942 1.095
0.051 0.548 -1.770
0.290 0.941 0.960
0.339 0.863 0.919
0.208 0.988 1.328
0.224 0.992 1.210
0.205 0.988 1.088
-0.093 0.940 -1.798
0.320 0.950 0.393
0.156 0.498 2.071
0.396 0.944 -0.580
0.423 0.938 -0.897
0.244 -0.589 1.814
0.454 0.951 -1.438
0.462 0.940 -1.651
0.469 0.907 -1.855
0.433 0.888 -2.024
0.504 0.800 -1.699
0.357 0.892 0.408
0.438 0.881 -0.576
0.235 0.468 1.689
0.364 0.174 1.133
0.363 0.298 1.119
-0.130 -0.543 -1.061
0.303 0.540 1.364
0.361 0.421 1.091
0.348 0.604 1.067
0.125 0.333 2.093
-0.305 0.979 1.606
0.279 -0.975 -1.426
0.141 0.741 1.998
0.136 0.638 2.053
0.143 0.535 2.084
0.175 0.493 1.994
0.107 0.082 2.160
0.340 0.798 0.801
0.251 0.841 1.736
0.244 0.589 1.814
0.203 0.521 1.902
-0.192 0.327 2.185
0.175 -0.493 1.994
0.251 -0.841 1.736
-0.305 -0.979 1.606
0.355 0.653 0.972
0.365 0.813 1.278
0.366 0.831 1.139
0.136 -0.638 2.053
0.337 0.876 0.824
0.340 0.832 0.717
0.366 0.843 0.335
0.405 0.831 -0.180
0.396 0.893 -0.124
0.436 0.808 -0.601
0.458 0.777 -0.891
0.478 0.858 -0.906
0.473 0.731 -1.204
0.502 0.844 -1.136
0.139 -0.589 1.814
0.478 0.688 -1.443
0.514 0.823 -1.530
0.479 0.644 -1.661
0.477 0.595 -1.858
0.485 0.761 -1.884
0.477 0.534 -2.034
0.472 0.717 -2.103
0.478 0.484 -2.155
0.339 0.809 0.787
0.021 0.831 1.992
0.340 -0.798 0.801
-0.284 0.839 1.961
0.089 0.712 2.041
-0.270 0.706 2.045
0.158 0.493 1.994
-0.262 0.616 2.089
0.081 0.538 2.121
-0.250 0.498 2.137
-0.244 0.462 2.150
-0.234 0.434 2.158
0.075 0.435 2.159
-0.201 0.360 2.178
-0.192 0.327 2.185
0.073 0.330 2.185
0.148 0.984 1.456
0.137 -0.679 1.754
-0.262 -0.616 2.089
0.251 0.906 1.531
0.274 0.849 1.597
0.314 0.857 1.449
0.008 0.980 0.856
0.348 0.722 1.432
0.349 0.674 1.335
0.308 0.919 1.257
0.336 0.871 1.297
-0.292 -0.975 0.803
0.365 0.748 1.260
-0.244 -0.462 2.150
0.252 0.975 -1.568
-0.244 0.462 2.150
-0.238 -0.607 -2.075
0.148 0.521 1.902
0.343 0.882 1.171
-0.121 0.980 0.815
0.308 0.936 1.027
0.148 -0.789 1.839
0.279 -0.553 -1.426
-0.121 -0.980 0.815
-0.245 -0.751 -2.028
-0.130 0.548 -1.061
-0.271 -0.964 -0.606
0.279 0.975 -1.426
-0.060 0.301 -2.226
0.107 -0.564 0.922
0.224 0.992 1.210
0.206 -0.563 1.088
-0.130 -0.956 -1.060
0.331 0.900 0.997
0.168 0.986 0.991
0.065 0.000 2.238
-0.173 -0.125 2.213
-0.181 -0.251 2.198
-0.264 0.960 -1.076
0.051 -0.955 -1.770
0.098 -0.815 1.978
0.279 -0.772 1.732
0.251 -0.841 1.736
0.164 -0.857 1.853
0.152 -0.807 1.933
0.148 -0.985 1.456
-0.013 -0.979 1.573
0.121 -0.938 1.691
0.107 -0.892 1.825
0.209 -0.936 -1.986
0.171 -0.968 -1.689
0.108 -0.929 -1.985
0.051 -0.955 -1.770
-0.045 -0.916 -1.981
-0.093 -0.940 -1.798
-0.253 -0.895 -1.981
-0.265 -0.941 -1.791
0.252 -0.975 -1.568
0.339 -0.929 -1.994
0.389 -0.963 -1.850
0.398 -0.913 -2.005
0.382 -0.991 -1.711
0.370 -1.000 -1.512
0.279 -0.975 -1.426
0.345 -0.999 -1.207
0.252 -0.977 -1.283
0.171 -0.969 -1.163
0.292 -0.986 -0.612
0.020 -0.958 -0.843
0.251 -0.985 -0.098
0.168 -0.986 0.991
0.107 -0.984 0.923
0.008 -0.980 0.856
-0.121 -0.980 0.815
-0.188 -0.979 1.610
-0.305 -0.979 1.606
-0.286 -0.971 0.334
0.159 0.841 1.736
-0.292 -0.975 0.803
-0.218 -0.980 0.803
0.212 -0.984 0.457
0.461 -0.822 -2.060
0.451 -0.854 -2.043
0.216 -0.903 1.625
-0.201 -0.360 2.178
0.346 -0.793 1.444
0.281 -0.928 1.328
-0.284 0.839 1.961
0.297 -0.942 1.095
-0.093 0.539 -1.798
0.290 -0.941 0.960
0.339 -0.863 0.919
0.208 -0.988 1.328
0.224 -0.992 1.210
0.205 -0.988 1.088
0.320 -0.950 0.393
0.159 -0.841 1.736
0.396 -0.944 -0.580
0.423 -0.938 -0.897
0.203 -0.521 1.902
0.454 -0.951 -1.438
0.462 -0.940 -1.651
0.469 -0.907 -1.855
0.197 -0.878 1.777
0.433 -0.888 -2.024
0.504 -0.800 -1.699
0.357 -0.892 0.408
0.438 -0.881 -0.576
0.364 0.000 1.136
0.264 0.000 1.605
0.235 -0.468 1.689
0.141 0.741 1.998
0.364 -0.174 1.133
0.363 -0.298 1.119
-0.265 0.539 -1.791
0.303 -0.540 1.364
0.361 -0.421 1.091
0.348 -0.604 1.067
-0.060 -0.301 -2.226
0.125 -0.333 2.093
0.107 -0.984 0.923
0.252 -0.977 -1.283
0.141 -0.741 1.998
0.136 -0.638 2.053
0.143 -0.535 2.084
0.175 -0.493 1.994
0.107 -0.082 2.160
0.145 0.772 1.732
0.244 -0.589 1.814
0.203 -0.521 1.902
-0.181 -0.251 2.198
0.156 -0.498 2.071
0.145 -0.772 1.732
-0.253 0.895 -1.981
0.355 -0.653 0.972
0.365 -0.813 1.278
0.366 -0.831 1.139
0.139 -0.589 1.814
0.337 -0.876 0.824
0.340 -0.832 0.717
0.366 -0.843 0.335
0.405 -0.831 -0.180
0.396 -0.893 -0.124
0.436 -0.808 -0.601
0.478 -0.858 -0.906
0.473 -0.731 -1.204
0.502 -0.844 -1.136
0.148 -0.521 1.902
0.478 -0.688 -1.443
0.514 -0.823 -1.530
0.479 -0.644 -1.661
0.477 -0.595 -1.858
0.485 -0.761 -1.884
0.477 -0.534 -2.034
0.472 -0.717 -2.103
0.478 -0.484 -2.155
0.339 -0.809 0.787
0.021 -0.831 1.992
-0.284 -0.839 1.961
0.089 -0.712 2.041
-0.270 -0.706 2.045
0.156 0.498 2.071
-0.262 -0.616 2.089
0.081 -0.538 2.121
-0.250 -0.498 2.137
-0.244 -0.462 2.150
-0.234 -0.434 2.158
0.075 -0.435 2.159
-0.201 -0.360 2.178
-0.192 -0.327 2.185
0.073 -0.330 2.185
-0.013 0.979 1.573
-0.250 -0.498 2.137
0.251 -0.906 1.531
0.274 -0.849 1.597
0.314 -0.857 1.449
0.107 0.984 0.923
0.348 -0.722 1.432
0.349 -0.674 1.335
0.308 -0.919 1.257
0.336 -0.871 1.297
-0.218 0.980 0.803
0.365 -0.748 1.260
-0.250 0.498 2.137
0.171 0.968 -1.689
-0.234 0.434 2.158
-0.253 -0.895 -1.981
0.203 0.521 1.902
0.343 -0.882 1.171
-0.218 -0.980 0.803
0.308 -0.936 1.027
0.159 -0.841 1.736
0.252 -0.553 -1.569
0.205 0.988 1.088
-0.271 -0.964 -0.606
0.048 0.547 -1.079
0.252 0.976 -1.283
-0.051 0.000 -2.238
0.008 -0.563 0.856
0.208 0.988 1.328
0.168 -0.564 0.991
-0.264 -0.960 -1.076
0.331 -0.900 0.997
0.008 -0.980 0.856
-0.187 0.564 1.610
-0.172 0.437 2.148
0.224 0.572 1.209
-0.208 0.598 2.091
-0.199 0.734 2.019
0.692 -0.338 0.241
-0.265 -0.534 -1.791
0.171 -0.969 -1.163
0.022 0.610 2.086
-0.238 0.607 -2.075
0.015 0.481 2.136
-0.270 0.706 2.045
-0.264 -0.545 -1.076
-0.013 0.564 1.572
-0.172 -0.437 2.148
0.206 0.569 1.088
-0.208 -0.598 2.091
0.152 -0.807 1.933
-0.199 -0.734 2.019
-0.093 -0.533 -1.798
0.048 -0.955 -1.078
0.022 -0.610 2.086
-0.245 0.751 -2.028
0.015 -0.481 2.136
-0.262 0.616 2.089
-0.187 -0.563 1.610
0.139 0.589 1.814
-0.007 -0.962 -0.603
-0.264 -0.960 -1.076
-0.130 -0.956 -1.060
0.048 -0.955 -1.078
-0.278 -0.968 -0.136
0.703 -0.166 0.255
0.355 -0.653 0.972
0.692 -0.338 0.241
0.574 0.650 0.418
0.460 0.524 0.791
0.692 0.338 0.241
0.402 0.768 0.724
0.402 -0.768 0.724
0.515 0.697 0.539
0.355 0.653 0.972
0.653 0.582 0.244
0.460 -0.524 0.791
0.363 -0.298 1.119
0.361 0.421 1.091
0.672 0.553 0.214
0.643 0.368 0.353
0.703 0.166 0.255
0.340 -0.798 0.801
0.630 0.600 0.290
0.340 0.798 0.801
0.364 0.000 1.136
0.364 0.174 1.133
0.683 0.500 0.217
0.515 -0.697 0.539
0.630 -0.600 0.290
0.458 0.000 0.901
0.361 -0.421 1.091
0.364 -0.174 1.133
0.363 0.298 1.119
0.643 -0.368 0.353
0.672 -0.553 0.214
0.705 0.000 0.259
0.683 -0.500 0.217
0.574 -0.650 0.418
0.653 -0.582 0.244
0.516 -0.718 -0.791
0.483 -0.750 -0.745
0.461 -0.774 -0.665
0.449 -0.795 -0.547
0.673 -0.568 -0.608
0.660 -0.575 -0.691
0.637 -0.594 -0.752
0.604 -0.625 -0.789
0.558 -0.673 -0.804
0.692 -0.570 -0.249
0.682 -0.579 0.071
0.662 -0.599 0.166
0.622 -0.630 0.250
0.573 -0.675 0.359
0.386 -0.826 0.296
0.421 -0.816 -0.168
0.688 -0.570 -0.430
0.527 -0.716 0.449
0.451 -0.765 0.573
0.362 -0.816 0.640
0.689 -0.570 -0.087
0.516 0.718 -0.791
0.483 0.750 -0.745
0.461 0.774 -0.665
0.449 0.795 -0.547
0.673 0.568 -0.608
0.660 0.575 -0.691
0.637 0.594 -0.752
0.604 0.625 -0.789
0.558 0.673 -0.804
0.692 0.570 -0.249
0.689 0.570 -0.087
0.682 0.579 0.071
0.662 0.599 0.166
0.622 0.630 0.250
0.573 0.675 0.359
0.386 0.826 0.296
0.421 0.816 -0.168
0.688 0.570 -0.430
0.527 0.716 0.449
0.451 0.765 0.573
0.362 0.816 0.640
0.589 0.557 -1.262
0.536 0.534 -1.575
0.515 0.507 -1.724
0.514 0.332 -1.791
0.515 0.241 -1.809
0.516 0.116 -1.819
0.683 0.263 -0.834
0.670 0.410 -0.859
0.640 0.557 -0.978
0.652 0.520 -0.925
0.662 0.474 -0.881
0.516 0.000 -1.818
0.688 0.000 -0.825
0.589 -0.557 -1.262
0.536 -0.534 -1.575
0.515 -0.507 -1.724
0.514 -0.332 -1.791
0.515 -0.241 -1.809
0.516 -0.116 -1.819
0.599 -0.268 -1.309
0.683 -0.263 -0.834
0.670 -0.410 -0.859
0.640 -0.557 -0.978
0.652 -0.520 -0.925
0.662 -0.474 -0.881
0.153 -0.741 0.090
0.202 -0.606 0.044
0.257 -0.589 -0.093
0.216 -0.521 -0.006
0.148 -0.638 0.145
0.156 -0.535 0.176
0.169 -0.498 0.163
0.187 -0.493 0.086
0.177 -0.857 -0.055
0.264 -0.841 -0.172
0.235 -0.789 -0.069
0.210 -0.878 -0.131
0.291 -0.772 -0.176
0.288 -0.679 -0.154
0.164 -0.807 0.025
0.148 0.638 0.145
0.169 0.498 0.163
0.291 0.772 -0.176
0.264 0.841 -0.172
0.177 0.857 -0.055
0.156 0.535 0.176
0.216 0.521 -0.006
0.257 0.589 -0.093
0.210 0.878 -0.131
0.164 0.807 0.025
0.288 0.679 -0.154
0.202 0.606 0.044
0.235 0.789 -0.069
0.187 0.493 0.086
0.153 0.741 0.090
f 959 521 618
f 618 598 959
f 714 959 598
f 959 714 789
f 969 905 858
f 824 829 830
f 884 883 882
f 893 719 802
f 812 853 940
f 905 969 857
f 880 882 883
f 951 638 686
f 844 31 674
f 31 844 523
f 396 31 523
f 31 396 526
f 31 479 674
f 479 31 878
f 665 661 664
f 664 625 665
f 482 399 878
f 399 482 453
f 526 878 31
f 399 479 878
f 479 399 997
f 672 997 399
f 928 399 453
f 399 928 757
f 757 672 399
f 563 788 958
f 870 958 788
f 870 788 463
f 988 463 788
f 563 768 788
f 339 788 768
f 900 993 529
f 881 529 993
f 339 515 731
f 478 731 515
f 788 339 988
f 339 768 515
f 904 515 768
f 515 904 393
f 478 515 474
f 107 474 515
f 515 393 107
f 508 721 530
f 508 894 721
f 561 721 894
f 894 341 561
f 561 341 609
f 341 589 609
f 609 589 161
f 784 161 589
f 954 161 784
f 159 954 784
f 124 954 159
f 124 159 694
f 417 726 863
f 726 899 863
f 899 726 617
f 617 597 899
f 502 597 617
f 502 742 597
f 697 742 502
f 742 697 914
f 914 697 866
f 914 866 510
f 510 866 725
f 898 510 725
f 50 51 61
f 61 60 50
f 50 60 59
f 59 49 50
f 48 49 59
f 59 58 48
f 48 58 57
f 57 47 48
f 46 47 57
f 57 56 46
f 46 56 55
f 55 45 46
f 44 45 55
f 55 54 44
f 44 54 53
f 53 43 44
f 42 43 53
f 53 52 42
f 42 52 61
f 61 51 42
f 2 11 1
f 50 40 51
f 39 40 50
f 50 49 39
f 39 49 48
f 48 38 39
f 37 38 48
f 48 47 37
f 37 47 46
f 46 36 37
f 35 36 46
f 46 45 35
f 35 45 44
f 44 34 35
f 33 34 44
f 44 43 33
f 33 43 42
f 42 32 33
f 51 32 42
f 4 3 1
f 30 21 51
f 51 40 30
f 30 40 39
f 39 29 30
f 28 29 39
f 39 38 28
f 28 38 37
f 37 27 28
f 26 27 37
f 37 36 26
f 26 36 35
f 35 25 26
f 24 25 35
f 35 34 24
f 24 34 33
f 33 23 24
f 22 23 33
f 33 32 22
f 22 32 51
f 51 21 22
f 813 814 815
f 30 20 21
f 19 20 30
f 30 29 19
f 19 29 28
f 28 18 19
f 17 18 28
f 28 27 17
f 17 27 26
f 26 16 17
f 15 16 26
f 26 25 15
f 15 25 24
f 24 14 15
f 13 14 24
f 24 23 13
f 13 23 22
f 22 12 13
f 21 12 22
f 831 830 829
f 10 11 21
f 21 20 10
f 10 20 19
f 19 9 10
f 8 9 19
f 19 18 8
f 8 18 17
f 17 7 8
f 6 7 17
f 17 16 6
f 6 16 15
f 15 5 6
f 4 5 15
f 15 14 4
f 4 14 13
f 13 3 4
f 2 3 13
f 13 12 2
f 2 12 21
f 21 11 2
f 1 11 10
f 1 3 2
f 1 5 4
f 10 9 1
f 1 9 8
f 8 615 1
f 5 1 41
f 8 7 615
f 615 7 6
f 6 5 615
f 1 615 41
f 577 540 558
f 798 540 967
f 615 5 41
f 99 100 105
f 100 99 94
f 98 105 104
f 105 98 99
f 98 103 97
f 103 98 104
f 96 103 102
f 103 96 97
f 95 102 101
f 102 95 96
f 100 95 101
f 95 100 94
f 552 521 574
f 567 574 521
f 105 103 104
f 105 102 103
f 105 101 102
f 105 100 101
f 96 94 99
f 96 99 98
f 96 98 97
f 977 990 708
f 575 708 990
f 96 95 94
f 65 72 68
f 72 65 69
f 93 78 91
f 73 65 63
f 65 73 69
f 71 92 66
f 92 71 75
f 92 70 62
f 70 92 75
f 64 75 74
f 75 64 70
f 69 64 74
f 69 76 64
f 76 69 73
f 72 67 79
f 69 67 72
f 67 69 74
f 67 71 81
f 67 75 71
f 75 67 74
f 70 64 62
f 82 77 80
f 66 89 82
f 78 93 86
f 80 79 67
f 80 72 79
f 72 80 68
f 82 71 66
f 82 81 71
f 80 81 82
f 81 80 67
f 89 77 82
f 64 76 73
f 87 90 80
f 68 80 90
f 63 86 73
f 63 91 78
f 87 80 77
f 86 64 73
f 68 90 65
f 84 65 90
f 78 86 63
f 63 65 91
f 84 91 65
f 66 92 89
f 83 89 92
f 62 88 92
f 83 92 88
f 85 83 86
f 88 86 83
f 85 86 84
f 86 93 84
f 91 84 93
f 64 86 88
f 90 87 84
f 85 84 87
f 77 89 87
f 89 83 87
f 85 87 83
f 62 64 88
f 141 139 132
f 132 139 120
f 134 120 139
f 119 134 120
f 119 117 120
f 139 142 131
f 117 120 132
f 112 110 141
f 137 115 110
f 128 163 546
f 112 109 116
f 133 137 127
f 546 962 128
f 112 139 131
f 133 140 109
f 121 137 125
f 121 126 137
f 903 923 884
f 116 125 137
f 127 117 132
f 129 120 134
f 992 934 994
f 934 992 930
f 132 120 143
f 110 141 127
f 143 138 132
f 127 132 138
f 538 984 566
f 138 130 127
f 133 127 130
f 115 137 126
f 118 566 984
f 133 130 126
f 137 122 115
f 139 112 141
f 141 110 135
f 135 113 141
f 139 141 113
f 113 129 139
f 134 139 129
f 126 130 115
f 130 138 115
f 115 138 122
f 142 139 134
f 127 141 132
f 122 138 135
f 138 143 135
f 135 143 113
f 113 143 129
f 120 129 143
f 117 127 109
f 817 816 824
f 125 114 111
f 136 126 121
f 121 125 111
f 116 137 110
f 133 126 136
f 109 114 116
f 134 119 142
f 122 135 115
f 110 115 135
f 114 109 140
f 140 111 114
f 133 109 127
f 112 116 110
f 121 140 136
f 140 133 136
f 111 140 121
f 137 110 127
f 114 125 116
f 108 109 112
f 109 108 117
f 117 131 119
f 142 131 119
f 131 108 112
f 117 108 131
f 167 175 177
f 155 175 167
f 175 155 170
f 155 170 154
f 154 152 155
f 166 178 175
f 167 155 152
f 461 769 533
f 177 146 148
f 146 151 173
f 792 128 962
f 169 145 148
f 162 173 168
f 128 792 630
f 166 175 148
f 168 176 145
f 160 173 156
f 985 933 932
f 786 562 538
f 173 160 169
f 167 152 162
f 170 158 164
f 158 170 155
f 155 179 158
f 179 155 167
f 162 177 146
f 167 174 179
f 174 167 162
f 984 562 971
f 162 165 174
f 165 162 168
f 972 979 974
f 984 538 562
f 173 165 168
f 173 157 151
f 177 148 175
f 171 146 177
f 177 149 171
f 149 177 175
f 175 164 149
f 164 175 170
f 151 165 173
f 151 174 165
f 157 174 151
f 170 175 178
f 162 177 167
f 171 174 157
f 171 179 174
f 149 179 171
f 164 179 149
f 179 164 158
f 145 162 152
f 778 956 560
f 147 150 160
f 156 173 172
f 147 160 156
f 146 173 169
f 172 173 168
f 145 150 169
f 178 154 170
f 151 171 157
f 171 151 146
f 150 145 176
f 176 147 150
f 168 145 162
f 146 169 148
f 156 176 172
f 176 168 172
f 147 176 156
f 162 146 173
f 150 160 169
f 148 145 144
f 152 144 145
f 154 166 152
f 154 166 178
f 148 144 166
f 166 144 152
f 183 181 180
f 181 183 182
f 183 180 188
f 184 188 180
f 185 184 180
f 180 186 185
f 186 180 187
f 189 190 192
f 191 192 190
f 197 189 192
f 189 197 193
f 189 193 194
f 194 195 189
f 196 189 195
f 201 198 199
f 200 201 199
f 203 202 205
f 203 205 204
f 207 221 206
f 221 218 206
f 208 210 209
f 208 221 210
f 221 211 210
f 207 211 221
f 212 222 213
f 212 218 222
f 215 216 214
f 216 222 214
f 216 217 222
f 222 217 213
f 221 222 218
f 221 220 219
f 221 219 222
f 231 224 225
f 233 224 231
f 232 231 225
f 225 224 223
f 223 227 226
f 224 227 223
f 227 228 226
f 228 229 226
f 229 230 226
f 235 231 232
f 231 235 233
f 235 232 234
f 236 294 268
f 268 281 236
f 241 237 240
f 238 240 237
f 240 238 242
f 239 242 238
f 239 202 242
f 243 242 202
f 241 240 258
f 257 258 240
f 240 242 257
f 261 257 242
f 242 243 261
f 204 261 243
f 248 244 249
f 244 248 245
f 250 245 248
f 245 250 246
f 250 247 246
f 247 250 251
f 273 248 249
f 248 273 272
f 272 250 248
f 250 272 276
f 276 251 250
f 251 276 200
f 252 253 267
f 268 252 282
f 282 252 267
f 253 252 283
f 268 283 252
f 254 266 265
f 254 264 255
f 264 254 265
f 255 263 256
f 263 255 264
f 256 262 204
f 262 256 263
f 906 923 905
f 261 204 262
f 261 260 257
f 884 901 883
f 257 259 258
f 259 257 260
f 267 266 254
f 266 267 253
f 280 281 269
f 270 279 269
f 280 269 279
f 271 278 270
f 279 270 278
f 200 277 271
f 278 271 277
f 892 896 886
f 277 200 276
f 272 275 276
f 877 886 896
f 273 274 272
f 275 272 274
f 269 281 282
f 268 282 281
f 283 284 253
f 284 285 253
f 285 286 253
f 286 287 253
f 287 288 253
f 253 289 266
f 288 289 253
f 268 290 283
f 268 291 290
f 268 292 291
f 268 293 292
f 268 294 293
f 301 304 302
f 304 303 302
f 299 300 302
f 300 301 302
f 297 298 304
f 298 303 304
f 295 296 303
f 296 302 303
f 305 306 316
f 305 307 306
f 305 309 308
f 305 310 309
f 305 311 310
f 305 312 311
f 305 313 312
f 305 314 313
f 305 315 314
f 305 316 315
f 328 317 318
f 317 328 327
f 329 318 319
f 318 329 328
f 329 320 330
f 320 329 319
f 330 321 331
f 321 330 320
f 331 322 332
f 322 331 321
f 332 323 333
f 323 332 322
f 323 334 333
f 334 323 324
f 324 335 334
f 325 337 336
f 337 325 326
f 326 327 337
f 327 326 317
f 847 1002 836
f 911 865 913
f 865 911 864
f 912 391 911
f 874 911 391
f 995 570 950
f 920 921 922
f 846 845 843
f 874 864 911
f 942 853 947
f 858 955 969
f 955 858 903
f 572 971 562
f 930 992 926
f 402 411 409
f 841 924 925
f 410 402 409
f 410 403 402
f 408 403 410
f 857 837 862
f 407 403 408
f 407 404 403
f 406 404 407
f 404 406 405
f 411 402 400
f 401 400 402
f 397 369 370
f 397 366 369
f 397 392 366
f 881 964 977
f 398 419 418
f 419 398 397
f 850 942 941
f 940 814 812
f 395 394 401
f 976 401 394
f 814 850 417
f 394 398 418
f 398 394 397
f 395 397 394
f 370 412 419
f 885 977 964
f 397 370 419
f 392 391 390
f 889 807 811
f 873 862 909
f 862 873 857
f 810 815 417
f 395 401 402
f 976 394 389
f 416 389 394
f 389 416 415
f 418 416 394
f 387 388 390
f 388 387 386
f 385 386 387
f 386 385 384
f 383 384 385
f 882 949 884
f 382 384 383
f 384 382 379
f 380 379 382
f 937 802 804
f 378 379 380
f 896 895 877
f 376 377 384
f 405 375 404
f 374 414 420
f 414 374 372
f 379 372 374
f 578 576 963
f 420 373 374
f 376 374 373
f 374 376 384
f 384 379 374
f 902 942 947
f 834 998 835
f 541 977 535
f 836 864 847
f 372 371 413
f 841 925 842
f 378 372 379
f 372 378 371
f 821 820 819
f 837 843 847
f 1002 847 843
f 390 368 392
f 392 367 366
f 367 392 368
f 361 360 391
f 361 391 362
f 359 397 346
f 391 360 347
f 395 355 397
f 355 395 354
f 917 872 918
f 354 395 353
f 395 352 353
f 352 395 402
f 402 351 352
f 837 857 861
f 402 350 351
f 350 402 403
f 403 344 350
f 909 864 874
f 403 343 344
f 343 403 404
f 404 342 343
f 342 404 375
f 349 375 363
f 375 349 342
f 348 363 365
f 363 348 349
f 347 365 364
f 365 347 348
f 391 347 364
f 937 886 802
f 346 397 345
f 852 941 942
f 345 397 355
f 391 392 356
f 391 356 362
f 392 358 357
f 392 359 358
f 397 359 392
f 357 356 392
f 368 390 388
f 491 493 484
f 859 853 812
f 491 484 492
f 484 485 492
f 492 485 490
f 861 855 860
f 490 485 489
f 485 486 489
f 489 486 488
f 487 488 486
f 483 484 493
f 484 483 628
f 449 448 480
f 448 445 480
f 445 473 480
f 868 828 869
f 418 419 481
f 480 481 419
f 941 852 808
f 849 848 919
f 628 476 477
f 476 628 475
f 809 417 850
f 418 481 476
f 480 476 481
f 476 480 477
f 419 412 449
f 898 892 886
f 419 449 480
f 471 472 473
f 881 498 594
f 905 857 873
f 868 869 872
f 814 417 815
f 484 628 477
f 470 476 475
f 476 470 416
f 415 416 470
f 476 416 418
f 471 469 468
f 467 468 469
f 468 467 466
f 465 466 467
f 466 465 464
f 859 946 853
f 464 465 462
f 459 462 465
f 462 459 460
f 926 924 807
f 460 459 458
f 898 934 930
f 465 457 456
f 486 455 487
f 420 414 454
f 451 454 414
f 454 451 459
f 804 936 937
f 454 452 420
f 452 454 456
f 465 456 454
f 454 459 465
f 912 916 915
f 849 869 871
f 372 451 414
f 451 372 450
f 413 450 372
f 827 871 869
f 459 451 458
f 450 458 451
f 338 533 897
f 840 846 843
f 843 837 840
f 473 447 471
f 445 446 473
f 447 473 446
f 472 439 440
f 441 472 440
f 425 480 438
f 426 439 472
f 480 434 477
f 433 477 434
f 921 919 848
f 432 477 433
f 432 431 477
f 484 477 431
f 431 430 484
f 872 917 916
f 430 429 484
f 485 484 429
f 429 423 485
f 860 946 859
f 423 422 485
f 486 485 422
f 422 421 486
f 455 486 421
f 442 455 428
f 421 428 455
f 444 442 427
f 428 427 442
f 443 444 426
f 427 426 444
f 443 426 472
f 934 886 937
f 424 480 425
f 106 630 792
f 434 480 424
f 435 473 472
f 441 435 472
f 436 437 473
f 437 438 473
f 473 438 480
f 473 435 436
f 469 471 447
f 182 496 191
f 496 182 497
f 182 494 495
f 494 182 191
f 188 496 497
f 496 188 197
f 546 686 962
f 565 996 560
f 990 552 575
f 531 578 794
f 793 998 1002
f 527 796 887
f 518 967 527
f 500 798 518
f 965 556 565
f 962 856 792
f 576 544 546
f 790 565 956
f 540 556 796
f 881 795 964
f 938 767 118
f 801 943 566
f 1002 998 836
f 782 950 570
f 727 996 573
f 792 881 106
f 566 534 801
f 998 999 1000
f 824 825 826
f 837 839 840
f 995 982 570
f 983 708 799
f 978 567 888
f 861 957 855
f 118 984 938
f 521 959 567
f 943 773 538
f 993 980 881
f 864 834 865
f 862 847 864
f 865 831 867
f 708 575 991
f 888 789 714
f 880 875 882
f 984 971 539
f 886 893 802
f 814 940 850
f 809 941 808
f 886 877 876
f 919 872 869
f 517 519 520
f 519 517 516
f 505 506 582
f 581 582 506
f 581 506 555
f 580 509 549
f 509 580 501
f 987 931 929
f 580 579 501
f 558 545 542
f 579 569 501
f 686 546 544
f 996 565 556
f 793 999 998
f 796 527 967
f 965 796 556
f 856 962 686
f 873 909 908
f 798 500 525
f 967 518 798
f 949 852 902
f 574 575 552
f 794 781 531
f 934 898 886
f 503 569 568
f 503 501 569
f 919 918 872
f 983 799 968
f 554 564 555
f 553 554 568
f 381 533 727
f 567 978 574
f 539 938 984
f 998 1000 1001
f 839 837 838
f 827 826 825
f 944 945 895
f 998 834 836
f 506 504 554
f 503 554 504
f 555 506 554
f 540 577 556
f 960 801 534
f 566 118 534
f 789 567 959
f 564 554 553
f 568 554 503
f 551 514 513
f 514 551 550
f 524 514 550
f 549 509 548
f 974 979 975
f 987 929 927
f 509 547 548
f 540 798 545
f 509 537 547
f 544 576 531
f 796 967 540
f 989 992 987
f 560 956 565
f 996 727 533
f 881 792 856
f 570 724 557
f 338 613 533
f 661 660 664
f 910 908 909
f 565 790 970
f 795 881 614
f 895 882 877
f 536 537 511
f 537 509 511
f 957 969 855
f 991 799 708
f 524 532 528
f 533 560 996
f 813 815 924
f 789 888 567
f 713 539 971
f 778 559 593
f 847 862 837
f 834 864 836
f 831 865 834
f 498 881 980
f 528 512 514
f 512 528 511
f 528 514 524
f 536 511 522
f 538 566 943
f 877 882 875
f 511 528 522
f 522 528 532
f 578 531 576
f 505 623 506
f 622 506 623
f 506 622 603
f 516 509 501
f 621 517 520
f 621 520 620
f 501 620 520
f 620 501 605
f 516 501 519
f 931 987 985
f 944 808 852
f 520 519 501
f 941 809 850
f 610 503 504
f 825 824 816
f 506 610 504
f 924 989 925
f 506 612 610
f 612 506 603
f 153 118 767
f 604 612 603
f 612 608 616
f 608 612 604
f 880 879 875
f 607 616 608
f 791 953 571
f 606 616 607
f 963 794 578
f 605 616 606
f 616 501 619
f 501 616 605
f 619 501 503
f 638 692 856
f 947 903 902
f 503 610 619
f 514 602 513
f 602 514 601
f 583 601 514
f 767 966 153
f 875 876 877
f 600 517 621
f 517 600 509
f 585 509 600
f 869 849 919
f 807 924 815
f 971 570 713
f 509 516 517
f 552 618 521
f 512 511 590
f 855 955 946
f 512 590 514
f 989 927 925
f 590 592 514
f 583 514 592
f 924 992 989
f 583 592 584
f 595 588 592
f 584 592 588
f 106 881 983
f 588 595 587
f 596 586 595
f 587 595 586
f 947 946 955
f 586 596 585
f 599 509 596
f 585 596 509
f 511 509 599
f 529 881 856
f 572 560 570
f 599 590 511
f 856 686 638
f 946 947 853
f 985 932 931
f 616 619 610
f 907 906 905
f 612 616 610
f 992 924 926
f 855 969 955
f 992 994 985
f 529 856 692
f 903 947 955
f 595 599 596
f 590 599 595
f 913 867 916
f 590 595 592
f 780 681 533
f 533 381 461
f 927 989 987
f 901 923 753
f 882 895 945
f 624 625 664
f 663 624 664
f 664 662 663
f 660 662 664
f 818 819 820
f 709 779 775
f 804 802 803
f 593 611 591
f 611 593 559
f 591 507 961
f 985 935 933
f 573 556 577
f 525 545 798
f 708 983 977
f 796 965 970
f 123 570 340
f 815 810 811
f 570 123 724
f 787 800 687
f 685 800 787
f 860 855 946
f 565 970 965
f 556 573 996
f 800 785 688
f 730 688 785
f 618 552 806
f 785 800 685
f 776 785 685
f 939 533 769
f 533 939 780
f 923 858 905
f 828 868 829
f 990 631 806
f 688 730 751
f 823 822 821
f 968 961 805
f 864 909 862
f 786 538 773
f 711 751 730
f 820 821 822
f 779 730 729
f 730 779 711
f 630 106 805
f 783 791 977
f 819 818 817
f 854 713 570
f 571 977 791
f 948 572 786
f 854 570 982
f 985 936 935
f 562 786 572
f 683 777 776
f 785 776 777
f 785 777 730
f 729 730 777
f 729 682 779
f 774 779 682
f 779 774 775
f 937 994 934
f 972 981 979
f 853 942 940
f 533 570 560
f 797 960 986
f 977 571 990
f 570 533 613
f 391 910 874
f 631 990 571
f 770 772 683
f 777 683 772
f 777 772 729
f 682 729 772
f 833 832 831
f 812 814 813
f 829 824 828
f 830 831 832
f 770 680 772
f 771 772 680
f 772 771 682
f 633 682 771
f 686 544 951
f 944 502 808
f 682 633 774
f 977 885 543
f 543 535 977
f 926 891 930
f 891 926 890
f 722 775 774
f 816 817 818
f 977 541 783
f 775 722 709
f 898 930 891
f 633 609 774
f 722 774 609
f 687 691 787
f 685 787 691
f 923 903 858
f 776 685 690
f 534 986 960
f 683 776 689
f 909 874 910
f 770 683 637
f 687 800 732
f 688 732 800
f 826 828 824
f 680 770 640
f 680 634 771
f 633 771 634
f 990 806 552
f 711 728 751
f 684 897 533
f 970 887 796
f 710 728 711
f 636 632 715
f 802 712 766
f 977 983 881
f 766 712 763
f 851 533 681
f 163 963 576
f 802 719 712
f 908 907 873
f 991 574 978
f 531 951 544
f 755 715 632
f 715 755 716
f 502 944 895
f 716 755 717
f 759 717 755
f 717 759 694
f 759 763 694
f 712 694 763
f 542 525 500
f 712 718 694
f 869 826 827
f 750 749 748
f 747 748 749
f 748 747 746
f 702 746 747
f 746 702 745
f 744 745 702
f 745 744 743
f 852 949 944
f 743 744 740
f 741 740 744
f 740 741 739
f 739 738 740
f 738 739 704
f 704 737 738
f 737 704 736
f 736 735 737
f 735 736 703
f 703 734 735
f 734 703 732
f 732 733 734
f 835 1001 834
f 732 751 733
f 923 901 884
f 712 723 718
f 723 712 705
f 705 709 722
f 613 340 570
f 711 779 709
f 705 722 723
f 857 969 957
f 807 889 926
f 890 926 889
f 921 920 919
f 987 992 985
f 574 991 575
f 533 851 684
f 594 614 881
f 525 542 545
f 712 719 876
f 709 710 711
f 710 709 707
f 709 875 707
f 875 709 705
f 826 869 828
f 719 893 886
f 875 706 707
f 815 811 807
f 876 705 712
f 705 876 875
f 632 636 641
f 636 635 641
f 530 641 635
f 641 530 640
f 702 699 744
f 698 744 699
f 945 944 949
f 937 985 994
f 744 698 741
f 696 741 698
f 741 696 739
f 695 739 696
f 739 695 704
f 902 903 949
f 704 695 736
f 693 736 695
f 736 693 703
f 687 703 693
f 703 687 732
f 702 700 699
f 700 702 747
f 747 679 700
f 701 700 679
f 700 701 653
f 831 834 1001
f 915 916 917
f 653 652 700
f 654 700 652
f 700 654 699
f 655 699 654
f 699 655 698
f 657 698 655
f 986 534 118
f 916 912 913
f 698 657 696
f 661 696 657
f 696 661 695
f 665 695 661
f 884 949 903
f 677 695 665
f 695 677 693
f 666 693 677
f 693 666 687
f 916 868 872
f 942 850 940
f 691 687 666
f 690 685 691
f 689 776 690
f 637 683 689
f 867 829 868
f 530 680 640
f 680 530 634
f 637 640 770
f 918 919 920
f 747 678 679
f 678 747 749
f 673 676 669
f 669 666 673
f 677 673 666
f 673 677 625
f 665 625 677
f 673 675 676
f 942 902 852
f 1001 833 831
f 671 754 670
f 754 752 670
f 545 558 540
f 670 752 639
f 752 641 639
f 641 752 632
f 669 668 666
f 667 666 668
f 868 916 867
f 660 661 657
f 657 659 660
f 911 913 912
f 657 658 659
f 658 657 656
f 655 656 657
f 656 655 650
f 654 650 655
f 650 654 652
f 651 652 653
f 652 651 650
f 642 650 651
f 650 642 643
f 647 648 649
f 648 647 646
f 645 646 647
f 646 645 644
f 643 644 645
f 644 643 642
f 641 640 639
f 829 867 831
f 639 640 637
f 951 531 781
f 632 752 755
f 766 765 629
f 629 802 766
f 576 546 163
f 627 802 629
f 905 873 907
f 626 802 627
f 559 572 948
f 720 751 728
f 966 797 973
f 764 765 972
f 986 973 797
f 765 766 972
f 981 972 766
f 803 802 626
f 763 981 766
f 981 763 979
f 759 979 763
f 557 952 570
f 755 979 759
f 782 570 952
f 957 861 857
f 973 153 966
f 755 752 979
f 975 979 752
f 876 719 886
f 754 975 752
f 867 913 865
f 754 756 975
f 974 975 756
f 756 758 974
f 813 924 841
f 758 760 974
f 972 974 760
f 760 761 972
f 971 572 570
f 761 762 972
f 118 153 986
f 762 764 972
f 973 986 153
f 732 688 751
f 507 591 611
f 945 949 882
f 985 937 936
f 499 805 961
f 499 961 507
f 1032 1003 1034
f 1003 1032 1005
f 1035 1005 1032
f 1029 1014 1015
f 1028 1015 1014
f 1028 1030 1015
f 1030 1028 1023
f 1014 1032 1028
f 1034 1028 1032
f 1010 1026 1014
f 1014 1026 1032
f 1026 1036 1032
f 1036 1027 1032
f 1014 1029 1004
f 1014 1004 1010
f 1004 1020 1010
f 1033 1035 1032
f 1037 1033 1032
f 1027 1037 1032
f 1034 1019 1018
f 1008 1018 1019
f 1018 1008 1025
f 1031 1007 1016
f 1007 1031 1028
f 1031 1024 1028
f 1023 1028 1024
f 1028 1018 1007
f 1018 1028 1034
f 1007 1011 1009
f 1018 1011 1007
f 1018 1006 1011
f 1018 1021 1006
f 1012 1016 1007
f 1009 1012 1007
f 1009 1022 1012
f 1018 1025 1017
f 1018 1017 1013
f 1018 1013 1021
f 1045 1038 1046
f 1038 1045 1039
f 1039 1045 1044
f 1039 1044 1043
f 1039 1043 1040
f 1040 1043 1042
f 1040 1042 1041
f 1041 1042 1054
f 1041 1054 1053
f 1053 1054 1047
f 1053 1047 1058
f 1053 1058 1052
f 1052 1058 1048
f 1052 1048 1049
f 1052 1049 1050
f 1052 1050 1051
f 1052 1051 1055
f 1052 1055 1056
f 1052 1056 1057
f 1067 1059 1066
f 1060 1066 1059
f 1065 1066 1060
f 1064 1065 1060
f 1061 1064 1060
f 1063 1064 1061
f 1062 1063 1061
f 1076 1063 1062
f 1075 1076 1062
f 1068 1076 1075
f 1069 1068 1075
f 1074 1069 1075
f 1070 1069 1074
f 1071 1070 1074
f 1072 1071 1074
f 1073 1072 1074
f 1077 1073 1074
f 1078 1077 1074
f 1079 1078 1074
f 1088 1087 1086
f 1088 1090 1087
f 1088 1089 1090
f 1080 1088 1086
f 1084 1082 1081
f 1082 1084 1083
f 1086 1092 1099
f 1086 1081 1080
f 1081 1086 1084
f 1099 1084 1086
f 1084 1099 1091
f 1091 1085 1084
f 1100 1101 1102
f 1101 1104 1102
f 1104 1103 1102
f 1099 1102 1093
f 1102 1099 1100
f 1094 1095 1097
f 1096 1097 1095
f 1100 1099 1092
f 1093 1094 1099
f 1097 1099 1094
f 1091 1099 1097
f 1097 1098 1091
f 1106 1108 1112
f 1112 1111 1106
f 1110 1106 1111
f 1106 1107 1108
f 1107 1106 1118
f 1115 1118 1106
f 1115 1105 1119
f 1110 1109 1106
f 1105 1106 1109
f 1106 1105 1115
f 1117 1118 1115
f 1119 1113 1115
f 1116 1115 1113
f 1116 1114 1115
f 1117 1115 1114
f 1133 1126 1131
f 1131 1121 1133
f 1121 1131 1125
f 1126 1127 1131
f 1130 1131 1127
f 1131 1130 1132
f 1129 1134 1132
f 1131 1120 1125
f 1120 1131 1134
f 1132 1134 1131
f 1132 1130 1122
f 1132 1124 1129
f 1124 1132 1128
f 1132 1123 1128
f 1123 1132 1122
