19
1 12 180 40 50
13 18 240 240 200
19 20 180 40 50
21 35 240 240 200
36 37 180 40 50
38 70 240 240 200
71 130 40 40 120
131 131 180 40 50
132 149 40 40 120
150 151 180 40 50
152 181 40 40 120
182 183 180 40 50
184 196 40 40 120
197 1372 180 40 50
1373 1410 40 50 120
1411 1429 40 50 120
1430 1448 40 50 120
1449 1472 40 50 120
1473 1502 40 50 120
