2049 3092
0.653 -0.062 -0.564
0.626 -0.051 -0.572
0.549 -0.169 -0.592
0.645 -0.026 -0.567
0.679 -0.032 -0.558
0.650 0.000 -0.565
0.687 0.000 -0.555
0.679 0.032 -0.558
0.645 0.026 -0.567
0.653 0.062 -0.564
0.626 0.051 -0.572
0.549 0.169 -0.592
0.550 0.000 -0.592
0.179 0.315 -0.388
0.138 0.295 -0.633
0.140 0.317 -0.608
0.278 0.312 -0.608
0.282 0.290 -0.633
0.239 0.313 -0.388
0.436 0.000 0.265
0.433 0.000 0.264
0.429 0.142 0.264
0.432 0.147 0.265
0.415 0.214 0.221
0.416 0.221 0.223
0.410 0.235 0.128
0.410 0.244 0.128
0.424 0.237 -0.134
0.424 0.246 -0.134
0.437 0.234 -0.294
0.437 0.242 -0.294
0.461 0.217 -0.502
0.461 0.225 -0.502
0.549 0.169 -0.502
0.549 0.000 -0.503
0.140 -0.317 -0.608
0.138 -0.295 -0.633
0.179 -0.315 -0.388
0.239 -0.313 -0.388
0.267 -0.290 -0.633
0.278 -0.312 -0.608
0.429 -0.142 0.264
0.432 -0.147 0.265
0.415 -0.214 0.221
0.416 -0.221 0.223
0.410 -0.235 0.128
0.410 -0.244 0.128
0.424 -0.237 -0.134
0.424 -0.246 -0.134
0.437 -0.234 -0.294
0.437 -0.242 -0.294
0.461 -0.217 -0.502
0.461 -0.225 -0.502
0.549 -0.169 -0.502
0.108 0.052 -2.009
0.102 0.047 -1.997
0.086 0.058 -2.009
0.114 0.042 -1.997
0.123 0.039 -2.009
0.123 0.032 -1.997
0.132 0.020 -2.009
0.128 0.016 -1.997
0.137 0.000 -2.009
0.131 0.000 -1.997
0.137 0.000 -2.009
0.128 -0.016 -1.997
0.131 0.000 -1.997
0.132 -0.020 -2.009
0.123 -0.032 -1.997
0.123 -0.039 -2.009
0.114 -0.042 -1.997
0.108 -0.052 -2.009
0.102 -0.047 -1.997
0.086 -0.058 -2.009
0.095 -0.061 -1.925
0.081 -0.098 -1.817
0.095 0.061 -1.925
0.081 0.098 -1.817
0.086 0.058 -2.009
0.095 0.061 -1.925
0.385 -0.052 0.265
0.391 -0.062 0.260
0.383 -0.058 0.260
0.394 -0.057 0.265
0.397 -0.067 0.260
0.402 -0.063 0.265
0.402 -0.074 0.260
0.407 -0.072 0.265
0.404 -0.082 0.260
0.410 -0.081 0.265
0.404 -0.091 0.260
0.410 -0.091 0.265
0.407 -0.101 0.265
0.402 -0.099 0.260
0.402 -0.110 0.265
0.397 -0.106 0.260
0.394 -0.116 0.265
0.391 -0.111 0.260
0.385 -0.120 0.265
0.383 -0.115 0.260
0.375 -0.122 0.265
0.375 -0.116 0.260
0.366 -0.115 0.260
0.365 -0.120 0.265
0.359 -0.111 0.260
0.355 -0.116 0.265
0.352 -0.106 0.260
0.347 -0.110 0.265
0.348 -0.099 0.260
0.342 -0.101 0.265
0.345 -0.091 0.260
0.339 -0.091 0.265
0.345 -0.082 0.260
0.339 -0.081 0.265
0.342 -0.072 0.265
0.348 -0.074 0.260
0.347 -0.063 0.265
0.352 -0.067 0.260
0.355 -0.057 0.265
0.359 -0.062 0.260
0.365 -0.052 0.265
0.366 -0.058 0.260
0.375 -0.051 0.265
0.375 -0.057 0.260
0.375 -0.086 0.260
0.383 0.058 0.260
0.375 0.057 0.260
0.375 0.086 0.260
0.366 0.058 0.260
0.359 0.062 0.260
0.352 0.067 0.260
0.348 0.074 0.260
0.345 0.082 0.260
0.345 0.091 0.260
0.348 0.099 0.260
0.352 0.106 0.260
0.359 0.111 0.260
0.366 0.115 0.260
0.375 0.116 0.260
0.383 0.115 0.260
0.391 0.111 0.260
0.397 0.106 0.260
0.402 0.099 0.260
0.404 0.091 0.260
0.404 0.082 0.260
0.402 0.074 0.260
0.397 0.067 0.260
0.391 0.062 0.260
0.385 0.052 0.265
0.375 0.051 0.265
0.365 0.052 0.265
0.355 0.057 0.265
0.347 0.063 0.265
0.342 0.072 0.265
0.339 0.081 0.265
0.339 0.091 0.265
0.342 0.101 0.265
0.347 0.110 0.265
0.355 0.116 0.265
0.365 0.120 0.265
0.375 0.122 0.265
0.385 0.120 0.265
0.394 0.116 0.265
0.402 0.110 0.265
0.407 0.101 0.265
0.410 0.091 0.265
0.410 0.081 0.265
0.407 0.072 0.265
0.402 0.063 0.265
0.394 0.057 0.265
0.069 0.118 -2.013
0.087 0.107 -2.053
0.089 0.097 -2.049
0.071 0.109 -2.009
0.047 0.122 -2.000
0.051 0.106 -1.994
-0.059 0.190 -1.761
-0.054 0.174 -1.755
-0.053 0.197 -1.737
-0.050 0.188 -1.733
-0.084 0.217 -1.668
-0.082 0.208 -1.665
-0.097 0.228 -1.631
-0.095 0.218 -1.628
-0.108 0.239 -1.586
-0.105 0.230 -1.584
-0.135 0.276 -1.436
-0.132 0.266 -1.434
-0.166 0.325 -1.118
-0.163 0.316 -1.117
-0.176 0.350 -0.791
-0.173 0.340 -0.791
0.096 0.091 -2.045
0.078 0.103 -2.005
0.063 0.095 -1.985
-0.043 0.163 -1.747
-0.044 0.182 -1.729
-0.075 0.201 -1.660
-0.088 0.212 -1.625
-0.098 0.223 -1.582
-0.125 0.259 -1.433
-0.156 0.308 -1.116
-0.165 0.332 -0.791
0.105 0.090 -2.040
0.087 0.101 -2.000
0.079 0.092 -1.977
-0.027 0.161 -1.739
-0.035 0.181 -1.724
-0.066 0.200 -1.656
-0.078 0.209 -1.622
-0.089 0.221 -1.580
-0.115 0.256 -1.432
-0.146 0.306 -1.116
-0.154 0.330 -0.791
0.114 0.094 -2.037
0.096 0.105 -1.997
0.095 0.098 -1.972
-0.011 0.167 -1.733
-0.026 0.184 -1.721
-0.057 0.203 -1.653
-0.068 0.213 -1.620
-0.079 0.223 -1.579
-0.105 0.259 -1.432
-0.136 0.308 -1.116
-0.142 0.332 -0.791
0.120 0.101 -2.037
0.103 0.113 -1.997
0.107 0.112 -1.971
0.001 0.181 -1.732
-0.019 0.192 -1.721
-0.051 0.211 -1.652
-0.061 0.220 -1.620
-0.072 0.231 -1.579
-0.098 0.266 -1.432
-0.129 0.316 -1.117
-0.134 0.340 -0.791
0.123 0.111 -2.038
0.105 0.122 -1.998
0.111 0.129 -1.974
0.006 0.198 -1.735
-0.017 0.202 -1.722
-0.048 0.221 -1.653
-0.059 0.230 -1.621
-0.069 0.241 -1.580
-0.095 0.276 -1.434
-0.127 0.325 -1.118
-0.131 0.350 -0.791
0.120 0.120 -2.042
0.103 0.132 -2.002
0.107 0.146 -1.981
0.001 0.214 -1.742
-0.019 0.211 -1.726
-0.051 0.230 -1.657
-0.061 0.239 -1.624
-0.072 0.250 -1.582
-0.098 0.286 -1.435
-0.129 0.335 -1.119
-0.134 0.359 -0.791
0.114 0.126 -2.047
0.096 0.138 -2.007
0.095 0.156 -1.989
-0.011 0.225 -1.750
-0.026 0.217 -1.731
-0.057 0.236 -1.661
-0.068 0.246 -1.627
-0.079 0.257 -1.585
-0.105 0.293 -1.437
-0.136 0.342 -1.119
-0.142 0.366 -0.791
0.105 0.128 -2.051
0.087 0.139 -2.011
0.079 0.159 -1.997
-0.027 0.228 -1.758
-0.035 0.218 -1.735
-0.066 0.238 -1.666
-0.078 0.248 -1.630
-0.089 0.259 -1.587
-0.115 0.295 -1.437
-0.146 0.345 -1.119
-0.154 0.369 -0.791
0.096 0.124 -2.054
0.078 0.136 -2.014
0.063 0.153 -2.002
-0.043 0.221 -1.763
-0.044 0.215 -1.738
-0.075 0.234 -1.669
-0.088 0.245 -1.632
-0.098 0.257 -1.588
-0.125 0.293 -1.438
-0.156 0.342 -1.119
-0.165 0.366 -0.791
0.089 0.116 -2.055
0.071 0.128 -2.015
0.051 0.139 -2.003
-0.054 0.208 -1.764
-0.050 0.207 -1.739
-0.082 0.227 -1.670
-0.095 0.237 -1.632
-0.105 0.249 -1.588
-0.132 0.286 -1.437
-0.163 0.335 -1.119
-0.173 0.359 -0.791
0.087 0.107 -2.053
0.069 0.118 -2.013
0.047 0.122 -2.000
-0.059 0.190 -1.761
-0.053 0.197 -1.737
-0.084 0.217 -1.668
-0.097 0.228 -1.631
-0.108 0.239 -1.586
-0.135 0.276 -1.436
-0.166 0.325 -1.118
-0.176 0.350 -0.791
-0.061 -0.312 -0.948
-0.088 -0.312 -0.933
-0.077 -0.312 -0.944
-0.092 -0.312 -0.918
-0.088 -0.312 -0.902
-0.077 -0.312 -0.891
-0.061 -0.312 -0.887
-0.046 -0.312 -0.891
-0.034 -0.312 -0.902
-0.030 -0.312 -0.918
-0.034 -0.312 -0.933
-0.046 -0.312 -0.944
-0.061 -0.286 -0.967
-0.085 -0.256 -0.961
-0.061 -0.256 -0.967
-0.085 -0.286 -0.961
-0.061 -0.293 -0.948
-0.077 -0.293 -0.944
-0.061 -0.312 -0.948
-0.103 -0.256 -0.943
-0.103 -0.286 -0.943
-0.088 -0.293 -0.933
-0.110 -0.256 -0.919
-0.110 -0.286 -0.919
-0.092 -0.293 -0.918
-0.103 -0.256 -0.895
-0.103 -0.286 -0.895
-0.088 -0.293 -0.902
-0.085 -0.256 -0.877
-0.085 -0.286 -0.877
-0.077 -0.293 -0.891
-0.061 -0.256 -0.870
-0.061 -0.286 -0.870
-0.061 -0.293 -0.887
-0.037 -0.256 -0.877
-0.037 -0.286 -0.877
-0.046 -0.293 -0.891
-0.019 -0.256 -0.895
-0.019 -0.286 -0.895
-0.034 -0.293 -0.902
-0.013 -0.256 -0.919
-0.013 -0.286 -0.919
-0.030 -0.293 -0.918
-0.019 -0.256 -0.943
-0.019 -0.286 -0.943
-0.034 -0.293 -0.933
-0.037 -0.256 -0.961
-0.037 -0.286 -0.961
-0.046 -0.293 -0.944
-0.061 -0.256 -0.967
-0.061 -0.286 -0.967
-0.061 -0.293 -0.948
-0.077 0.312 -0.944
-0.088 0.312 -0.933
-0.061 0.312 -0.948
-0.092 0.312 -0.918
-0.088 0.312 -0.902
-0.077 0.312 -0.891
-0.061 0.312 -0.887
-0.046 0.312 -0.891
-0.034 0.312 -0.902
-0.030 0.312 -0.918
-0.034 0.312 -0.933
-0.046 0.312 -0.944
-0.061 0.256 -0.967
-0.085 0.256 -0.961
-0.061 0.286 -0.967
-0.085 0.286 -0.961
-0.061 0.293 -0.948
-0.077 0.293 -0.944
-0.061 0.312 -0.948
-0.103 0.256 -0.943
-0.103 0.286 -0.943
-0.088 0.293 -0.933
-0.110 0.256 -0.919
-0.110 0.286 -0.919
-0.092 0.293 -0.918
-0.103 0.256 -0.895
-0.103 0.286 -0.895
-0.088 0.293 -0.902
-0.085 0.256 -0.877
-0.085 0.286 -0.877
-0.077 0.293 -0.891
-0.061 0.256 -0.870
-0.061 0.286 -0.870
-0.061 0.293 -0.887
-0.037 0.256 -0.877
-0.037 0.286 -0.877
-0.046 0.293 -0.891
-0.019 0.256 -0.895
-0.019 0.286 -0.895
-0.034 0.293 -0.902
-0.013 0.256 -0.919
-0.013 0.286 -0.919
-0.030 0.293 -0.918
-0.019 0.256 -0.943
-0.019 0.286 -0.943
-0.034 0.293 -0.933
-0.037 0.256 -0.961
-0.037 0.286 -0.961
-0.046 0.293 -0.944
-0.061 0.256 -0.967
-0.061 0.286 -0.967
-0.061 0.293 -0.948
0.449 -0.258 0.335
0.449 -0.261 0.334
0.430 -0.261 0.334
0.430 -0.258 0.335
0.418 -0.257 0.334
0.419 -0.253 0.335
0.408 -0.246 0.334
0.410 -0.243 0.335
0.385 -0.187 0.330
0.389 -0.186 0.331
0.449 -0.255 0.337
0.430 -0.255 0.337
0.420 -0.251 0.337
0.412 -0.242 0.337
0.391 -0.185 0.334
0.449 -0.254 0.341
0.430 -0.254 0.341
0.420 -0.250 0.341
0.413 -0.241 0.341
0.392 -0.184 0.337
0.449 -0.255 0.345
0.430 -0.255 0.345
0.420 -0.251 0.345
0.412 -0.242 0.345
0.391 -0.185 0.341
0.449 -0.258 0.347
0.430 -0.258 0.347
0.419 -0.253 0.347
0.410 -0.243 0.347
0.389 -0.186 0.343
0.449 -0.261 0.348
0.430 -0.261 0.348
0.418 -0.257 0.348
0.408 -0.246 0.348
0.385 -0.187 0.344
0.449 -0.265 0.347
0.430 -0.265 0.347
0.417 -0.260 0.347
0.405 -0.248 0.347
0.382 -0.189 0.343
0.449 -0.268 0.345
0.430 -0.268 0.345
0.417 -0.262 0.345
0.403 -0.250 0.345
0.380 -0.190 0.341
0.449 -0.269 0.341
0.430 -0.269 0.341
0.416 -0.263 0.341
0.402 -0.250 0.341
0.379 -0.190 0.337
0.449 -0.268 0.337
0.430 -0.268 0.337
0.417 -0.262 0.337
0.403 -0.250 0.337
0.380 -0.190 0.334
0.449 -0.265 0.335
0.430 -0.265 0.335
0.417 -0.260 0.335
0.405 -0.248 0.335
0.382 -0.189 0.331
0.449 -0.261 0.334
0.430 -0.261 0.334
0.418 -0.257 0.334
0.408 -0.246 0.334
0.385 -0.187 0.330
0.430 0.261 0.334
0.449 0.261 0.334
0.449 0.258 0.335
0.430 0.258 0.335
0.418 0.257 0.334
0.419 0.253 0.335
0.408 0.246 0.334
0.410 0.243 0.335
0.385 0.187 0.330
0.389 0.186 0.331
0.449 0.255 0.337
0.430 0.255 0.337
0.420 0.251 0.337
0.412 0.242 0.337
0.391 0.185 0.334
0.449 0.254 0.341
0.430 0.254 0.341
0.420 0.250 0.341
0.413 0.241 0.341
0.392 0.184 0.337
0.449 0.255 0.345
0.430 0.255 0.345
0.420 0.251 0.345
0.412 0.242 0.345
0.391 0.185 0.341
0.449 0.258 0.347
0.430 0.258 0.347
0.419 0.253 0.347
0.410 0.243 0.347
0.389 0.186 0.343
0.449 0.261 0.348
0.430 0.261 0.348
0.418 0.257 0.348
0.408 0.246 0.348
0.385 0.187 0.344
0.449 0.265 0.347
0.430 0.265 0.347
0.417 0.260 0.347
0.405 0.248 0.347
0.382 0.189 0.343
0.449 0.268 0.345
0.430 0.268 0.345
0.417 0.262 0.345
0.403 0.250 0.345
0.380 0.190 0.341
0.449 0.269 0.341
0.430 0.269 0.341
0.416 0.263 0.341
0.402 0.250 0.341
0.379 0.190 0.337
0.449 0.268 0.337
0.430 0.268 0.337
0.417 0.262 0.337
0.403 0.250 0.337
0.380 0.190 0.334
0.449 0.265 0.335
0.430 0.265 0.335
0.417 0.260 0.335
0.405 0.248 0.335
0.382 0.189 0.331
0.449 0.261 0.334
0.430 0.261 0.334
0.418 0.257 0.334
0.408 0.246 0.334
0.385 0.187 0.330
0.034 -0.166 1.405
0.029 -0.156 1.474
0.034 -0.155 1.474
0.029 -0.168 1.405
0.035 -0.180 1.308
0.030 -0.182 1.308
0.034 -0.278 0.723
0.029 -0.280 0.723
0.033 -0.320 0.488
0.029 -0.321 0.489
0.027 -0.160 1.474
0.027 -0.171 1.406
0.027 -0.188 1.309
0.026 -0.286 0.724
0.026 -0.325 0.489
0.028 -0.164 1.475
0.029 -0.175 1.407
0.028 -0.193 1.309
0.027 -0.292 0.725
0.028 -0.329 0.490
0.032 -0.167 1.475
0.033 -0.178 1.407
0.032 -0.196 1.310
0.031 -0.294 0.725
0.032 -0.331 0.490
0.037 -0.165 1.475
0.037 -0.176 1.407
0.037 -0.194 1.310
0.036 -0.292 0.725
0.037 -0.330 0.490
0.039 -0.161 1.475
0.040 -0.172 1.406
0.040 -0.189 1.309
0.039 -0.287 0.724
0.039 -0.326 0.490
0.038 -0.157 1.474
0.038 -0.168 1.406
0.039 -0.183 1.308
0.038 -0.281 0.723
0.038 -0.322 0.489
0.034 0.155 1.474
0.029 0.156 1.474
0.034 0.166 1.405
0.029 0.168 1.405
0.035 0.180 1.308
0.030 0.182 1.308
0.034 0.278 0.723
0.029 0.280 0.723
0.033 0.320 0.488
0.029 0.321 0.489
0.027 0.160 1.474
0.027 0.171 1.406
0.027 0.188 1.309
0.026 0.286 0.724
0.026 0.325 0.489
0.028 0.164 1.475
0.029 0.175 1.407
0.028 0.193 1.309
0.027 0.292 0.725
0.028 0.329 0.490
0.032 0.167 1.475
0.033 0.178 1.407
0.032 0.196 1.310
0.031 0.294 0.725
0.032 0.331 0.490
0.037 0.165 1.475
0.037 0.176 1.407
0.037 0.194 1.310
0.036 0.292 0.725
0.037 0.330 0.490
0.039 0.161 1.475
0.040 0.172 1.406
0.040 0.189 1.309
0.039 0.287 0.724
0.039 0.326 0.490
0.038 0.157 1.474
0.038 0.168 1.406
0.039 0.183 1.308
0.038 0.281 0.723
0.038 0.322 0.489
0.488 0.218 0.346
0.445 0.301 0.315
0.488 0.301 0.315
0.445 0.218 0.346
0.488 -0.301 0.315
0.445 -0.301 0.315
0.488 -0.218 0.346
0.445 -0.218 0.346
0.493 -0.220 0.342
0.484 -0.292 0.340
0.493 -0.297 0.313
0.484 -0.243 0.358
0.482 -0.238 0.359
0.490 -0.213 0.344
0.478 -0.237 0.360
0.484 -0.211 0.345
0.456 -0.237 0.360
0.449 -0.211 0.345
0.452 -0.238 0.359
0.444 -0.213 0.344
0.450 -0.243 0.358
0.441 -0.220 0.342
0.441 -0.297 0.313
0.450 -0.292 0.340
0.444 -0.304 0.311
0.452 -0.296 0.338
0.449 -0.306 0.310
0.456 -0.298 0.338
0.484 -0.306 0.310
0.478 -0.298 0.338
0.482 -0.296 0.338
0.490 -0.304 0.311
0.488 -0.218 0.346
0.488 -0.301 0.315
0.445 -0.301 0.315
0.445 -0.218 0.346
0.476 -0.288 0.347
0.457 -0.288 0.347
0.457 -0.251 0.361
0.476 -0.251 0.361
0.493 0.297 0.313
0.484 0.292 0.340
0.493 0.220 0.342
0.484 0.243 0.358
0.482 0.238 0.359
0.490 0.213 0.344
0.478 0.237 0.360
0.484 0.211 0.345
0.456 0.237 0.360
0.449 0.211 0.345
0.452 0.238 0.359
0.444 0.213 0.344
0.450 0.243 0.358
0.441 0.220 0.342
0.441 0.297 0.313
0.450 0.292 0.340
0.444 0.304 0.311
0.452 0.296 0.338
0.449 0.306 0.310
0.456 0.298 0.338
0.484 0.306 0.310
0.478 0.298 0.338
0.482 0.296 0.338
0.490 0.304 0.311
0.488 0.218 0.346
0.488 0.301 0.315
0.445 0.301 0.315
0.445 0.218 0.346
0.476 0.288 0.347
0.457 0.288 0.347
0.457 0.251 0.361
0.476 0.251 0.361
0.549 -0.092 -0.592
0.549 -0.092 -0.502
0.735 -0.043 -0.541
0.734 -0.043 -0.500
0.776 -0.025 -0.532
0.774 -0.025 -0.484
0.788 0.000 -0.528
0.786 0.000 -0.484
0.808 0.000 -0.523
0.806 0.000 -0.484
0.798 -0.032 -0.484
0.800 -0.032 -0.525
0.772 -0.062 -0.485
0.774 -0.062 -0.532
0.549 -0.169 -0.502
0.549 -0.169 -0.592
0.735 0.043 -0.541
0.549 0.092 -0.502
0.549 0.092 -0.592
0.734 0.043 -0.500
0.776 0.025 -0.532
0.774 0.025 -0.484
0.788 0.000 -0.528
0.786 0.000 -0.484
0.798 0.032 -0.484
0.800 0.032 -0.525
0.772 0.062 -0.485
0.774 0.062 -0.532
0.549 0.169 -0.502
0.549 0.169 -0.592
-0.182 0.000 0.587
-0.181 0.000 0.313
-0.189 -0.327 0.330
-0.190 -0.304 0.587
-0.147 -0.063 1.730
-0.144 0.000 1.730
-0.175 -0.141 1.460
-0.180 0.000 1.460
-0.187 -0.258 0.920
-0.187 0.000 0.920
-0.193 -0.327 -0.086
-0.185 0.000 -0.086
-0.187 0.000 -0.428
-0.195 -0.327 -0.428
-0.192 -0.327 -0.796
-0.183 0.000 -0.796
-0.189 -0.442 0.326
-0.189 -0.482 0.280
-0.189 -0.513 0.214
-0.193 -0.603 -0.088
-0.195 -0.661 -0.428
-0.192 -0.664 -0.767
-0.192 -0.661 -0.799
-0.189 0.327 0.330
-0.190 0.304 0.587
-0.175 0.141 1.460
-0.147 0.063 1.730
-0.187 0.258 0.920
-0.193 0.327 -0.086
-0.195 0.327 -0.428
-0.192 0.327 -0.796
-0.189 0.442 0.326
-0.189 0.482 0.280
-0.189 0.513 0.214
-0.193 0.603 -0.088
-0.195 0.661 -0.428
-0.192 0.664 -0.767
-0.192 0.661 -0.799
0.036 -0.145 1.473
0.028 -0.146 1.476
0.037 -0.190 1.444
0.028 -0.191 1.447
0.038 -0.252 1.400
0.029 -0.254 1.404
0.036 -0.641 1.160
0.027 -0.643 1.164
0.036 -0.799 1.068
0.027 -0.801 1.070
0.023 -0.150 1.483
0.024 -0.195 1.454
0.024 -0.260 1.414
0.022 -0.649 1.174
0.023 -0.804 1.077
0.026 -0.154 1.491
0.027 -0.199 1.462
0.026 -0.265 1.425
0.024 -0.655 1.185
0.026 -0.808 1.085
0.034 -0.156 1.495
0.035 -0.201 1.466
0.033 -0.268 1.431
0.031 -0.657 1.191
0.033 -0.811 1.090
0.042 -0.154 1.492
0.043 -0.200 1.464
0.042 -0.266 1.426
0.040 -0.655 1.187
0.042 -0.809 1.087
0.047 -0.151 1.485
0.048 -0.196 1.457
0.048 -0.260 1.416
0.046 -0.650 1.176
0.047 -0.805 1.080
0.044 -0.147 1.477
0.045 -0.192 1.449
0.046 -0.255 1.405
0.044 -0.644 1.165
0.044 -0.802 1.072
0.036 0.120 1.473
0.028 0.122 1.476
0.037 0.165 1.444
0.028 0.167 1.447
0.038 0.228 1.400
0.029 0.230 1.404
0.036 0.617 1.160
0.027 0.619 1.164
0.036 0.775 1.068
0.027 0.776 1.070
0.023 0.125 1.483
0.024 0.170 1.454
0.024 0.235 1.414
0.022 0.624 1.174
0.023 0.780 1.077
0.026 0.129 1.491
0.027 0.175 1.462
0.026 0.241 1.425
0.024 0.630 1.185
0.026 0.784 1.085
0.034 0.132 1.495
0.035 0.177 1.466
0.033 0.244 1.431
0.031 0.633 1.191
0.033 0.786 1.090
0.042 0.130 1.492
0.043 0.175 1.464
0.042 0.241 1.426
0.040 0.631 1.187
0.042 0.785 1.087
0.047 0.126 1.485
0.048 0.171 1.457
0.048 0.236 1.416
0.046 0.625 1.176
0.047 0.781 1.080
0.044 0.122 1.477
0.045 0.168 1.449
0.046 0.230 1.405
0.044 0.619 1.165
0.044 0.777 1.072
0.069 -0.804 -1.567
0.069 -0.630 -1.581
0.071 -0.196 -1.610
0.070 -0.124 -1.611
0.069 -0.073 -1.614
0.072 -0.803 -1.559
0.071 -0.629 -1.570
0.073 -0.195 -1.599
0.073 -0.123 -1.603
0.072 -0.073 -1.606
0.067 -0.803 -1.551
0.065 -0.629 -1.560
0.067 -0.195 -1.588
0.068 -0.123 -1.596
0.067 -0.072 -1.599
0.058 -0.803 -1.549
0.056 -0.629 -1.555
0.058 -0.195 -1.584
0.059 -0.123 -1.593
0.059 -0.072 -1.596
0.050 -0.803 -1.553
0.049 -0.629 -1.561
0.051 -0.195 -1.590
0.052 -0.123 -1.597
0.051 -0.072 -1.600
0.047 -0.803 -1.561
0.047 -0.630 -1.572
0.049 -0.196 -1.601
0.049 -0.124 -1.605
0.048 -0.073 -1.608
0.052 -0.804 -1.568
0.061 -0.804 -1.571
0.052 -0.630 -1.582
0.061 -0.630 -1.587
0.054 -0.196 -1.611
0.063 -0.197 -1.615
0.053 -0.124 -1.613
0.062 -0.124 -1.615
0.052 -0.073 -1.615
0.061 -0.073 -1.618
0.069 0.793 -1.567
0.069 0.619 -1.581
0.071 0.185 -1.610
0.070 0.113 -1.611
0.069 0.062 -1.614
0.072 0.792 -1.559
0.071 0.618 -1.570
0.073 0.184 -1.599
0.073 0.112 -1.603
0.072 0.062 -1.606
0.067 0.792 -1.551
0.065 0.618 -1.560
0.067 0.184 -1.588
0.068 0.112 -1.596
0.067 0.061 -1.599
0.058 0.791 -1.549
0.056 0.618 -1.555
0.058 0.184 -1.584
0.059 0.112 -1.593
0.059 0.061 -1.596
0.050 0.792 -1.553
0.049 0.618 -1.561
0.051 0.184 -1.590
0.052 0.112 -1.597
0.051 0.061 -1.600
0.047 0.792 -1.561
0.047 0.618 -1.572
0.049 0.185 -1.601
0.049 0.112 -1.605
0.048 0.062 -1.608
0.052 0.793 -1.568
0.061 0.793 -1.571
0.052 0.619 -1.582
0.061 0.619 -1.587
0.054 0.185 -1.611
0.063 0.185 -1.615
0.053 0.113 -1.613
0.062 0.113 -1.615
0.052 0.062 -1.615
0.061 0.062 -1.618
0.052 -0.207 -0.948
0.053 -0.248 -0.982
0.054 -0.304 -1.031
0.052 -0.655 -1.311
0.052 -0.797 -1.421
0.048 -0.212 -0.942
0.049 -0.252 -0.975
0.049 -0.311 -1.022
0.047 -0.662 -1.302
0.047 -0.802 -1.415
0.051 -0.216 -0.935
0.052 -0.257 -0.968
0.051 -0.317 -1.012
0.049 -0.668 -1.292
0.050 -0.807 -1.408
0.059 -0.219 -0.931
0.059 -0.259 -0.964
0.058 -0.320 -1.007
0.056 -0.672 -1.287
0.058 -0.809 -1.404
0.067 -0.217 -0.933
0.068 -0.258 -0.967
0.067 -0.318 -1.011
0.065 -0.669 -1.291
0.067 -0.807 -1.406
0.072 -0.213 -0.940
0.073 -0.253 -0.973
0.073 -0.311 -1.020
0.071 -0.662 -1.300
0.072 -0.803 -1.413
0.069 -0.208 -0.947
0.061 -0.206 -0.951
0.070 -0.249 -0.980
0.062 -0.246 -0.984
0.071 -0.305 -1.030
0.063 -0.301 -1.035
0.069 -0.656 -1.310
0.069 -0.798 -1.420
0.061 -0.796 -1.423
0.061 -0.652 -1.315
0.052 0.196 -0.948
0.053 0.237 -0.982
0.054 0.293 -1.031
0.052 0.644 -1.311
0.052 0.786 -1.421
0.048 0.200 -0.942
0.049 0.241 -0.975
0.049 0.299 -1.022
0.047 0.650 -1.302
0.047 0.791 -1.415
0.051 0.205 -0.935
0.052 0.246 -0.968
0.051 0.306 -1.012
0.049 0.657 -1.292
0.050 0.795 -1.408
0.059 0.208 -0.931
0.059 0.248 -0.964
0.058 0.309 -1.007
0.056 0.660 -1.287
0.058 0.798 -1.404
0.067 0.206 -0.933
0.068 0.247 -0.967
0.067 0.307 -1.011
0.065 0.658 -1.291
0.067 0.796 -1.406
0.072 0.202 -0.940
0.073 0.242 -0.973
0.073 0.300 -1.020
0.071 0.651 -1.300
0.072 0.792 -1.413
0.069 0.197 -0.947
0.061 0.194 -0.951
0.070 0.238 -0.980
0.062 0.235 -0.984
0.071 0.294 -1.030
0.063 0.290 -1.035
0.069 0.645 -1.310
0.069 0.787 -1.420
0.061 0.785 -1.423
0.061 0.641 -1.315
-0.000 -0.142 -1.508
-0.000 -0.800 -1.508
-0.006 -0.142 -1.495
-0.006 -0.800 -1.495
-0.000 -0.142 -1.483
-0.000 -0.800 -1.483
0.013 -0.142 -1.477
0.013 -0.800 -1.477
0.025 -0.142 -1.483
0.025 -0.800 -1.483
0.031 -0.142 -1.495
0.031 -0.800 -1.495
0.025 -0.142 -1.508
0.025 -0.800 -1.508
0.013 -0.800 -1.514
0.013 -0.142 -1.514
-0.000 0.131 -1.508
-0.000 0.789 -1.508
-0.006 0.131 -1.495
-0.006 0.789 -1.495
-0.000 0.131 -1.483
-0.000 0.789 -1.483
0.013 0.131 -1.477
0.013 0.789 -1.477
0.025 0.131 -1.483
0.025 0.789 -1.483
0.031 0.131 -1.495
0.031 0.789 -1.495
0.025 0.131 -1.508
0.025 0.789 -1.508
0.013 0.789 -1.514
0.013 0.131 -1.514
0.029 -0.152 1.473
0.032 -0.197 1.441
0.035 -0.259 1.392
0.048 -0.644 1.119
0.054 -0.799 1.013
0.024 -0.156 1.481
0.027 -0.201 1.448
0.030 -0.265 1.403
0.042 -0.649 1.130
0.049 -0.803 1.020
0.028 -0.160 1.489
0.030 -0.205 1.457
0.032 -0.271 1.415
0.045 -0.655 1.142
0.052 -0.807 1.029
0.035 -0.162 1.494
0.038 -0.207 1.462
0.039 -0.273 1.421
0.052 -0.658 1.148
0.060 -0.809 1.034
0.044 -0.161 1.491
0.046 -0.205 1.459
0.048 -0.271 1.416
0.061 -0.655 1.144
0.069 -0.807 1.031
0.049 -0.157 1.483
0.051 -0.201 1.451
0.054 -0.265 1.405
0.066 -0.649 1.132
0.073 -0.803 1.023
0.046 -0.153 1.475
0.038 -0.151 1.470
0.048 -0.197 1.442
0.040 -0.195 1.438
0.051 -0.259 1.393
0.044 -0.256 1.387
0.064 -0.643 1.120
0.070 -0.799 1.014
0.062 -0.797 1.010
0.057 -0.641 1.115
0.029 0.128 1.473
0.032 0.172 1.441
0.035 0.235 1.392
0.048 0.619 1.119
0.054 0.775 1.013
0.024 0.132 1.481
0.027 0.176 1.448
0.030 0.240 1.403
0.042 0.625 1.130
0.049 0.779 1.020
0.028 0.136 1.489
0.030 0.181 1.457
0.032 0.246 1.415
0.045 0.631 1.142
0.052 0.783 1.029
0.035 0.138 1.494
0.038 0.182 1.462
0.039 0.249 1.421
0.052 0.633 1.148
0.060 0.785 1.034
0.044 0.136 1.491
0.046 0.181 1.459
0.048 0.246 1.416
0.061 0.631 1.144
0.069 0.783 1.031
0.049 0.132 1.483
0.051 0.177 1.451
0.054 0.240 1.405
0.066 0.625 1.132
0.073 0.779 1.023
0.046 0.128 1.475
0.038 0.126 1.470
0.048 0.173 1.442
0.040 0.171 1.438
0.051 0.235 1.393
0.044 0.232 1.387
0.064 0.619 1.120
0.070 0.775 1.014
0.062 0.773 1.010
0.057 0.617 1.115
0.028 -0.288 0.445
0.028 -0.324 0.484
0.029 -0.378 0.536
0.027 -0.683 0.871
0.027 -0.804 1.007
0.023 -0.283 0.451
0.024 -0.319 0.489
0.024 -0.370 0.545
0.022 -0.676 0.879
0.023 -0.799 1.013
0.026 -0.278 0.457
0.027 -0.314 0.495
0.026 -0.363 0.553
0.024 -0.668 0.888
0.026 -0.793 1.019
0.034 -0.275 0.460
0.035 -0.311 0.499
0.033 -0.359 0.558
0.031 -0.664 0.892
0.033 -0.790 1.022
0.042 -0.277 0.458
0.043 -0.313 0.496
0.042 -0.362 0.554
0.040 -0.667 0.889
0.042 -0.792 1.020
0.047 -0.282 0.452
0.048 -0.318 0.491
0.048 -0.369 0.546
0.046 -0.674 0.880
0.047 -0.797 1.014
0.044 -0.287 0.446
0.036 -0.290 0.443
0.045 -0.323 0.485
0.037 -0.326 0.481
0.046 -0.377 0.537
0.038 -0.381 0.533
0.044 -0.682 0.872
0.044 -0.803 1.008
0.036 -0.806 1.005
0.036 -0.686 0.867
0.028 0.264 0.445
0.028 0.300 0.484
0.029 0.353 0.536
0.027 0.659 0.871
0.027 0.779 1.007
0.023 0.259 0.451
0.024 0.295 0.489
0.024 0.346 0.545
0.022 0.651 0.879
0.023 0.774 1.013
0.026 0.253 0.457
0.027 0.290 0.495
0.026 0.338 0.553
0.024 0.644 0.888
0.026 0.769 1.019
0.034 0.250 0.460
0.035 0.287 0.499
0.033 0.334 0.558
0.031 0.640 0.892
0.033 0.766 1.022
0.042 0.252 0.458
0.043 0.288 0.496
0.042 0.337 0.554
0.040 0.643 0.889
0.042 0.768 1.020
0.047 0.257 0.452
0.048 0.293 0.491
0.048 0.345 0.546
0.046 0.650 0.880
0.047 0.773 1.014
0.044 0.263 0.446
0.036 0.266 0.443
0.045 0.299 0.485
0.037 0.302 0.481
0.046 0.352 0.537
0.038 0.356 0.533
0.044 0.658 0.872
0.044 0.778 1.008
0.036 0.781 1.005
0.036 0.662 0.867
0.263 -0.181 0.968
0.187 -0.327 0.993
0.163 -0.374 0.991
0.015 -0.648 1.039
-0.060 -0.793 1.074
0.259 -0.177 0.978
0.183 -0.324 1.003
0.159 -0.369 1.011
0.011 -0.643 1.059
-0.065 -0.789 1.084
0.263 -0.178 0.988
0.187 -0.324 1.014
0.163 -0.368 1.031
0.015 -0.642 1.079
-0.060 -0.790 1.095
0.272 -0.181 0.993
0.196 -0.327 1.019
0.172 -0.371 1.041
0.025 -0.645 1.089
-0.051 -0.793 1.100
0.281 -0.186 0.989
0.205 -0.332 1.015
0.181 -0.376 1.033
0.034 -0.650 1.080
-0.042 -0.797 1.096
0.286 -0.189 0.980
0.210 -0.335 1.005
0.186 -0.381 1.013
0.038 -0.655 1.061
-0.038 -0.801 1.086
0.281 -0.189 0.969
0.272 -0.185 0.964
0.205 -0.335 0.994
0.196 -0.331 0.989
0.181 -0.382 0.993
0.172 -0.379 0.983
0.034 -0.656 1.041
-0.042 -0.800 1.076
-0.051 -0.797 1.070
0.025 -0.653 1.031
0.263 0.156 0.968
0.187 0.302 0.993
0.163 0.350 0.991
0.015 0.624 1.039
-0.060 0.768 1.074
0.259 0.153 0.978
0.183 0.299 1.003
0.159 0.345 1.011
0.011 0.619 1.059
-0.065 0.765 1.084
0.263 0.153 0.988
0.187 0.299 1.014
0.163 0.344 1.031
0.015 0.618 1.079
-0.060 0.765 1.095
0.272 0.157 0.993
0.196 0.303 1.019
0.172 0.346 1.041
0.025 0.621 1.089
-0.051 0.768 1.100
0.281 0.161 0.989
0.205 0.307 1.015
0.181 0.352 1.033
0.034 0.626 1.080
-0.042 0.773 1.096
0.286 0.164 0.980
0.210 0.310 1.005
0.186 0.356 1.013
0.038 0.630 1.061
-0.038 0.776 1.086
0.281 0.164 0.969
0.272 0.161 0.964
0.205 0.310 0.994
0.196 0.307 0.989
0.181 0.357 0.993
0.172 0.355 0.983
0.034 0.631 1.041
-0.042 0.776 1.076
-0.051 0.773 1.070
0.025 0.629 1.031
0.151 0.294 -0.633
0.138 0.295 -0.633
0.179 0.315 -0.388
0.267 0.290 -0.633
0.282 0.290 -0.633
0.140 0.317 -0.608
0.150 0.317 -0.625
0.123 0.324 -0.777
0.132 0.327 -0.436
0.114 0.327 -0.098
0.239 0.313 -0.388
0.315 0.307 -0.134
0.312 0.307 -0.502
0.278 0.312 -0.608
0.296 0.312 -0.835
0.266 0.312 -0.625
0.086 0.058 -2.009
0.081 0.098 -1.817
0.108 0.052 -2.009
0.117 0.089 -1.817
0.123 0.039 -2.009
0.143 0.066 -1.817
0.132 0.020 -2.009
0.158 0.034 -1.817
0.137 0.000 -2.009
0.165 0.000 -1.817
0.247 0.000 -1.515
0.231 0.051 -1.514
0.205 0.099 -1.514
0.171 0.133 -1.514
0.125 0.170 -1.514
0.081 0.189 -1.514
0.198 0.232 -1.260
0.077 0.276 -1.258
0.242 0.186 -1.260
0.301 0.075 -1.260
0.324 0.030 -1.260
0.344 0.000 -1.260
0.369 0.000 -1.211
0.035 0.667 -0.769
0.035 0.664 -0.802
0.026 0.683 -0.770
0.026 0.680 -0.803
0.009 0.690 -0.771
0.009 0.687 -0.804
0.038 0.461 0.326
0.038 0.322 0.326
0.055 0.372 0.128
0.038 0.488 0.281
0.038 0.520 0.215
0.094 0.327 0.128
0.313 0.299 0.265
-0.189 0.327 0.330
-0.190 0.304 0.587
0.038 0.322 0.326
0.313 0.251 0.584
0.069 0.347 0.127
0.069 0.347 0.127
-0.176 0.680 -0.767
-0.192 0.664 -0.767
-0.195 0.661 -0.428
-0.181 0.677 -0.428
-0.193 0.603 -0.088
-0.178 0.629 -0.088
-0.189 0.513 0.214
-0.174 0.552 0.214
-0.174 0.517 0.280
-0.189 0.482 0.280
-0.174 0.470 0.326
-0.189 0.442 0.326
-0.154 0.690 -0.767
-0.158 0.687 -0.428
-0.156 0.645 -0.088
-0.152 0.574 0.214
-0.152 0.538 0.280
-0.152 0.486 0.326
-0.176 0.677 -0.799
-0.192 0.661 -0.799
-0.154 0.687 -0.799
0.028 0.687 -0.430
0.019 0.645 -0.092
0.011 0.574 0.207
0.011 0.538 0.273
0.011 0.486 0.318
0.028 0.558 0.211
0.028 0.523 0.277
0.028 0.474 0.322
0.028 0.558 0.211
0.028 0.523 0.277
0.028 0.474 0.322
0.037 0.633 -0.091
0.046 0.607 -0.090
0.037 0.633 -0.091
0.045 0.680 -0.429
0.054 0.664 -0.428
0.054 0.664 -0.428
0.035 0.667 -0.769
0.041 0.400 -0.778
0.059 0.404 -0.438
0.053 0.369 -0.778
0.072 0.373 -0.438
0.084 0.344 -0.779
0.100 0.348 -0.438
0.084 0.344 -0.779
0.100 0.348 -0.438
0.053 0.403 -0.099
0.063 0.372 -0.099
0.087 0.347 -0.100
0.087 0.347 -0.100
0.348 0.301 -0.836
0.424 0.246 -0.134
0.373 0.279 -0.502
0.375 0.279 -0.134
0.410 0.244 0.128
0.373 0.266 0.265
0.414 0.109 0.584
0.391 0.000 0.902
0.422 0.000 0.584
0.382 0.091 0.902
0.398 0.170 0.584
0.353 0.158 0.902
0.353 0.158 0.902
0.398 0.170 0.584
0.367 0.220 0.584
0.295 0.212 0.902
-0.187 0.258 0.920
-0.068 0.000 2.014
-0.147 0.063 1.730
-0.144 0.000 1.730
-0.061 0.014 2.011
-0.058 0.000 2.024
-0.043 0.016 1.997
-0.027 0.000 1.997
-0.126 0.101 1.730
0.072 0.079 1.767
0.105 0.050 1.767
-0.027 0.000 1.997
0.111 0.000 1.767
0.105 0.050 1.767
0.242 0.000 1.454
0.235 0.061 1.454
0.210 0.120 1.454
0.210 0.120 1.454
0.169 0.146 1.454
-0.166 0.171 1.460
-0.175 0.141 1.460
0.432 0.147 0.265
0.436 0.000 0.265
0.425 0.179 0.265
0.415 0.211 0.265
0.416 0.221 0.223
0.404 0.237 0.266
0.404 0.237 0.266
0.410 0.244 0.128
0.437 0.242 -0.294
0.461 0.225 -0.502
0.677 0.000 -0.831
0.651 0.000 -0.895
0.643 0.032 -0.895
0.668 0.032 -0.830
0.687 0.000 -0.555
0.679 0.032 -0.558
0.616 0.062 -0.895
0.641 0.062 -0.829
0.653 0.062 -0.564
0.549 0.169 -0.592
0.472 0.225 -0.836
0.549 0.169 -0.502
0.397 0.276 -0.836
0.035 0.664 -0.802
0.041 0.400 -0.814
0.050 0.364 -0.822
0.069 0.336 -0.842
0.069 0.336 -0.842
0.081 0.323 -0.875
0.079 0.312 -0.954
0.465 0.202 -0.912
0.391 0.265 -0.901
0.343 0.292 -0.893
0.292 0.303 -0.884
0.249 0.208 0.958
0.266 0.206 0.964
0.273 0.203 0.981
0.265 0.201 0.997
0.249 0.201 1.004
0.232 0.203 0.998
0.225 0.206 0.981
0.232 0.208 0.965
0.179 -0.315 -0.388
0.138 -0.295 -0.633
0.151 -0.294 -0.633
0.267 -0.290 -0.633
0.267 -0.290 -0.633
0.123 -0.324 -0.777
0.150 -0.317 -0.625
0.140 -0.317 -0.608
0.132 -0.327 -0.436
0.114 -0.327 -0.098
0.239 -0.313 -0.388
0.315 -0.307 -0.134
0.312 -0.307 -0.502
0.278 -0.312 -0.608
0.296 -0.312 -0.835
0.266 -0.312 -0.625
0.108 -0.052 -2.009
0.081 -0.098 -1.817
0.086 -0.058 -2.009
0.117 -0.089 -1.817
0.123 -0.039 -2.009
0.143 -0.066 -1.817
0.132 -0.020 -2.009
0.158 -0.034 -1.817
0.137 0.000 -2.009
0.165 0.000 -1.817
0.231 -0.051 -1.514
0.247 0.000 -1.515
0.205 -0.099 -1.514
0.171 -0.133 -1.514
0.125 -0.170 -1.514
0.081 -0.189 -1.514
0.198 -0.232 -1.260
0.077 -0.276 -1.258
0.242 -0.186 -1.260
0.301 -0.075 -1.260
0.324 -0.030 -1.260
0.344 0.000 -1.260
0.369 0.000 -1.211
0.026 -0.683 -0.770
0.035 -0.664 -0.802
0.035 -0.667 -0.769
0.026 -0.680 -0.803
0.009 -0.687 -0.804
0.009 -0.690 -0.771
0.055 -0.372 0.128
0.038 -0.322 0.326
0.038 -0.461 0.326
0.038 -0.488 0.281
0.038 -0.520 0.215
0.094 -0.327 0.128
0.313 -0.299 0.265
0.038 -0.322 0.326
-0.190 -0.304 0.587
-0.189 -0.327 0.330
0.313 -0.251 0.584
0.069 -0.347 0.127
0.069 -0.347 0.127
-0.195 -0.661 -0.428
-0.192 -0.664 -0.767
-0.176 -0.680 -0.767
-0.181 -0.677 -0.428
-0.193 -0.603 -0.088
-0.178 -0.629 -0.088
-0.189 -0.513 0.214
-0.174 -0.552 0.214
-0.174 -0.517 0.280
-0.189 -0.482 0.280
-0.174 -0.470 0.326
-0.189 -0.442 0.326
-0.154 -0.690 -0.767
-0.158 -0.687 -0.428
-0.156 -0.645 -0.088
-0.152 -0.574 0.214
-0.152 -0.538 0.280
-0.152 -0.486 0.326
-0.192 -0.661 -0.799
-0.176 -0.677 -0.799
-0.154 -0.687 -0.799
0.028 -0.687 -0.430
0.019 -0.645 -0.092
0.011 -0.574 0.207
0.011 -0.538 0.273
0.011 -0.486 0.318
0.028 -0.558 0.211
0.028 -0.523 0.277
0.028 -0.474 0.322
0.028 -0.523 0.277
0.028 -0.558 0.211
0.028 -0.474 0.322
0.037 -0.633 -0.091
0.037 -0.633 -0.091
0.046 -0.607 -0.090
0.045 -0.680 -0.429
0.054 -0.664 -0.428
0.054 -0.664 -0.428
0.041 -0.400 -0.778
0.035 -0.667 -0.769
0.059 -0.404 -0.438
0.053 -0.369 -0.778
0.072 -0.373 -0.438
0.084 -0.344 -0.779
0.100 -0.348 -0.438
0.100 -0.348 -0.438
0.084 -0.344 -0.779
0.053 -0.403 -0.099
0.063 -0.372 -0.099
0.087 -0.347 -0.100
0.087 -0.347 -0.100
0.348 -0.301 -0.836
0.375 -0.279 -0.134
0.373 -0.279 -0.502
0.424 -0.246 -0.134
0.410 -0.244 0.128
0.373 -0.266 0.265
0.414 -0.109 0.584
0.382 -0.091 0.902
0.398 -0.170 0.584
0.353 -0.158 0.902
0.367 -0.220 0.584
0.398 -0.170 0.584
0.353 -0.158 0.902
0.295 -0.212 0.902
-0.187 -0.258 0.920
-0.144 0.000 1.730
-0.147 -0.063 1.730
-0.068 0.000 2.014
-0.061 -0.014 2.011
-0.058 0.000 2.024
-0.043 -0.016 1.997
-0.027 0.000 1.997
-0.126 -0.101 1.730
0.072 -0.079 1.767
0.105 -0.050 1.767
0.105 -0.050 1.767
0.235 -0.061 1.454
0.210 -0.120 1.454
0.210 -0.120 1.454
-0.166 -0.171 1.460
0.169 -0.146 1.454
-0.175 -0.141 1.460
0.432 -0.147 0.265
0.425 -0.179 0.265
0.415 -0.211 0.265
0.416 -0.221 0.223
0.404 -0.237 0.266
0.404 -0.237 0.266
0.410 -0.244 0.128
0.437 -0.242 -0.294
0.461 -0.225 -0.502
0.643 -0.032 -0.895
0.651 0.000 -0.895
0.677 0.000 -0.831
0.668 -0.032 -0.830
0.687 0.000 -0.555
0.679 -0.032 -0.558
0.616 -0.062 -0.895
0.641 -0.062 -0.829
0.653 -0.062 -0.564
0.549 -0.169 -0.592
0.472 -0.225 -0.836
0.549 -0.169 -0.502
0.397 -0.276 -0.836
0.041 -0.400 -0.814
0.035 -0.664 -0.802
0.050 -0.364 -0.822
0.069 -0.336 -0.842
0.081 -0.323 -0.875
0.069 -0.336 -0.842
0.079 -0.312 -0.954
0.465 -0.202 -0.912
0.391 -0.265 -0.901
0.343 -0.292 -0.893
0.292 -0.303 -0.884
0.266 -0.206 0.964
0.249 -0.208 0.958
0.273 -0.203 0.981
0.265 -0.201 0.997
0.249 -0.201 1.004
0.232 -0.203 0.998
0.225 -0.206 0.981
0.232 -0.208 0.965
-0.050 -0.220 -0.966
-0.059 -0.223 -0.965
-0.044 -0.260 -1.000
-0.052 -0.263 -0.998
-0.034 -0.315 -1.051
-0.043 -0.319 -1.047
0.014 -0.663 -1.330
0.005 -0.666 -1.327
0.034 -0.804 -1.439
0.025 -0.807 -1.437
-0.063 -0.228 -0.958
-0.056 -0.268 -0.992
-0.048 -0.326 -1.038
-0.000 -0.673 -1.318
0.021 -0.812 -1.431
-0.060 -0.232 -0.951
-0.053 -0.272 -0.984
-0.046 -0.332 -1.028
0.002 -0.680 -1.308
0.024 -0.816 -1.424
-0.052 -0.234 -0.947
-0.045 -0.274 -0.980
-0.038 -0.334 -1.023
0.010 -0.682 -1.303
0.032 -0.818 -1.419
-0.043 -0.231 -0.949
-0.037 -0.271 -0.982
-0.029 -0.331 -1.026
0.019 -0.678 -1.306
0.040 -0.815 -1.422
-0.039 -0.226 -0.955
-0.032 -0.266 -0.988
-0.024 -0.324 -1.036
0.024 -0.671 -1.315
0.045 -0.811 -1.428
-0.042 -0.222 -0.962
-0.036 -0.262 -0.996
-0.027 -0.317 -1.045
0.021 -0.665 -1.325
0.042 -0.806 -1.435
-0.050 0.189 -0.966
-0.059 0.191 -0.965
-0.044 0.229 -1.000
-0.052 0.231 -0.998
-0.034 0.283 -1.051
-0.043 0.287 -1.047
0.014 0.631 -1.330
0.005 0.635 -1.327
0.034 0.773 -1.439
0.025 0.776 -1.437
-0.063 0.196 -0.958
-0.056 0.236 -0.992
-0.048 0.294 -1.038
-0.000 0.642 -1.318
0.021 0.780 -1.431
-0.060 0.200 -0.951
-0.053 0.241 -0.984
-0.046 0.300 -1.028
0.002 0.648 -1.308
0.024 0.785 -1.424
-0.052 0.202 -0.947
-0.045 0.242 -0.980
-0.038 0.303 -1.023
0.010 0.651 -1.303
0.032 0.786 -1.419
-0.043 0.199 -0.949
-0.037 0.240 -0.982
-0.029 0.299 -1.026
0.019 0.647 -1.306
0.040 0.784 -1.422
-0.039 0.195 -0.955
-0.032 0.235 -0.988
-0.024 0.292 -1.036
0.024 0.640 -1.315
0.045 0.779 -1.428
-0.042 0.190 -0.962
-0.036 0.230 -0.996
-0.027 0.286 -1.045
0.021 0.633 -1.325
0.042 0.775 -1.435
0.004 -0.645 -1.583
0.015 -0.819 -1.567
0.022 -0.818 -1.563
0.011 -0.644 -1.577
-0.021 -0.212 -1.612
-0.014 -0.211 -1.606
-0.027 -0.140 -1.612
-0.019 -0.139 -1.607
-0.031 -0.090 -1.614
-0.023 -0.089 -1.610
0.025 -0.817 -1.555
0.013 -0.644 -1.566
-0.012 -0.211 -1.595
-0.016 -0.139 -1.599
-0.020 -0.088 -1.602
0.020 -0.817 -1.548
0.007 -0.643 -1.556
-0.018 -0.210 -1.585
-0.021 -0.138 -1.592
-0.025 -0.088 -1.595
0.011 -0.817 -1.545
-0.002 -0.644 -1.551
-0.027 -0.211 -1.580
-0.030 -0.139 -1.589
-0.034 -0.088 -1.592
0.004 -0.818 -1.549
-0.009 -0.645 -1.557
-0.034 -0.212 -1.586
-0.038 -0.140 -1.594
-0.042 -0.089 -1.597
0.001 -0.819 -1.558
-0.011 -0.646 -1.568
-0.036 -0.212 -1.597
-0.040 -0.140 -1.602
-0.044 -0.090 -1.605
0.006 -0.819 -1.565
-0.005 -0.646 -1.579
-0.030 -0.213 -1.607
-0.036 -0.140 -1.609
-0.040 -0.090 -1.612
0.004 0.622 -1.583
0.015 0.795 -1.567
0.022 0.794 -1.563
0.011 0.621 -1.577
-0.021 0.189 -1.612
-0.014 0.188 -1.606
-0.027 0.116 -1.612
-0.019 0.116 -1.607
-0.031 0.066 -1.614
-0.023 0.065 -1.610
0.025 0.794 -1.555
0.013 0.620 -1.566
-0.012 0.187 -1.595
-0.016 0.115 -1.599
-0.020 0.064 -1.602
0.020 0.793 -1.548
0.007 0.620 -1.556
-0.018 0.187 -1.585
-0.021 0.115 -1.592
-0.025 0.064 -1.595
0.011 0.794 -1.545
-0.002 0.620 -1.551
-0.027 0.187 -1.580
-0.030 0.115 -1.589
-0.034 0.065 -1.592
0.004 0.795 -1.549
-0.009 0.621 -1.557
-0.034 0.188 -1.586
-0.038 0.116 -1.594
-0.042 0.065 -1.597
0.001 0.795 -1.558
-0.011 0.622 -1.568
-0.036 0.189 -1.597
-0.040 0.117 -1.602
-0.044 0.066 -1.605
0.006 0.795 -1.565
-0.005 0.622 -1.579
-0.030 0.189 -1.607
-0.036 0.117 -1.609
-0.040 0.066 -1.612
-0.077 -0.311 0.443
-0.086 -0.311 0.445
-0.068 -0.346 0.481
-0.077 -0.346 0.484
-0.055 -0.399 0.533
-0.065 -0.398 0.536
0.009 -0.698 0.867
-0.001 -0.697 0.871
0.034 -0.815 1.005
0.025 -0.815 1.007
-0.092 -0.307 0.451
-0.083 -0.342 0.489
-0.072 -0.392 0.545
-0.008 -0.691 0.879
0.020 -0.811 1.013
-0.090 -0.301 0.457
-0.081 -0.336 0.495
-0.071 -0.384 0.553
-0.007 -0.683 0.888
0.022 -0.805 1.019
-0.083 -0.297 0.460
-0.074 -0.332 0.499
-0.065 -0.379 0.558
-0.001 -0.678 0.892
0.029 -0.800 1.022
-0.074 -0.297 0.458
-0.065 -0.332 0.496
-0.056 -0.380 0.554
0.009 -0.679 0.889
0.037 -0.800 1.020
-0.068 -0.301 0.452
-0.060 -0.336 0.491
-0.049 -0.386 0.546
0.016 -0.685 0.880
0.043 -0.804 1.014
-0.070 -0.307 0.446
-0.061 -0.342 0.485
-0.049 -0.394 0.537
0.015 -0.693 0.872
0.041 -0.810 1.008
-0.077 0.265 0.443
-0.086 0.265 0.445
-0.068 0.300 0.481
-0.077 0.300 0.484
-0.055 0.353 0.533
-0.065 0.352 0.536
0.009 0.652 0.867
-0.001 0.651 0.871
0.034 0.769 1.005
0.025 0.769 1.007
-0.092 0.261 0.451
-0.083 0.296 0.489
-0.072 0.346 0.545
-0.008 0.645 0.879
0.020 0.765 1.013
-0.090 0.255 0.457
-0.081 0.290 0.495
-0.071 0.338 0.553
-0.007 0.637 0.888
0.022 0.759 1.019
-0.083 0.251 0.460
-0.074 0.286 0.499
-0.065 0.333 0.558
-0.001 0.632 0.892
0.029 0.754 1.022
-0.074 0.251 0.458
-0.065 0.286 0.496
-0.056 0.334 0.554
0.009 0.633 0.889
0.037 0.754 1.020
-0.068 0.255 0.452
-0.060 0.290 0.491
-0.049 0.340 0.546
0.016 0.639 0.880
0.043 0.758 1.014
-0.070 0.261 0.446
-0.061 0.296 0.485
-0.049 0.348 0.537
0.015 0.647 0.872
0.041 0.764 1.008
-0.110 -0.154 1.471
-0.103 -0.199 1.442
-0.092 -0.262 1.400
-0.038 -0.648 1.161
-0.015 -0.804 1.067
-0.115 -0.159 1.477
-0.107 -0.203 1.449
-0.098 -0.268 1.409
-0.044 -0.654 1.171
-0.020 -0.808 1.074
-0.112 -0.162 1.485
-0.105 -0.207 1.457
-0.096 -0.273 1.420
-0.042 -0.659 1.182
-0.017 -0.812 1.082
-0.105 -0.164 1.490
-0.097 -0.208 1.462
-0.089 -0.275 1.427
-0.035 -0.661 1.188
-0.010 -0.813 1.087
-0.096 -0.162 1.489
-0.088 -0.206 1.460
-0.080 -0.272 1.423
-0.026 -0.658 1.184
-0.001 -0.811 1.085
-0.091 -0.157 1.482
-0.084 -0.202 1.454
-0.074 -0.266 1.413
-0.020 -0.652 1.174
0.004 -0.807 1.079
-0.094 -0.154 1.474
-0.101 -0.152 1.469
-0.086 -0.198 1.445
-0.094 -0.197 1.440
-0.076 -0.261 1.402
-0.083 -0.258 1.396
-0.021 -0.646 1.163
0.001 -0.803 1.071
-0.007 -0.801 1.066
-0.029 -0.644 1.157
-0.110 0.122 1.471
-0.103 0.167 1.442
-0.092 0.229 1.400
-0.038 0.615 1.161
-0.015 0.771 1.067
-0.115 0.126 1.477
-0.107 0.171 1.449
-0.098 0.235 1.409
-0.044 0.621 1.171
-0.020 0.775 1.074
-0.112 0.130 1.485
-0.105 0.175 1.457
-0.096 0.240 1.420
-0.042 0.627 1.182
-0.017 0.779 1.082
-0.105 0.131 1.490
-0.097 0.176 1.462
-0.089 0.243 1.427
-0.035 0.629 1.188
-0.010 0.780 1.087
-0.096 0.129 1.489
-0.088 0.174 1.460
-0.080 0.239 1.423
-0.026 0.626 1.184
-0.001 0.778 1.085
-0.091 0.125 1.482
-0.084 0.169 1.454
-0.074 0.233 1.413
-0.020 0.619 1.174
0.004 0.774 1.079
-0.094 0.121 1.474
-0.101 0.120 1.469
-0.086 0.166 1.445
-0.094 0.164 1.440
-0.076 0.228 1.402
-0.083 0.226 1.396
-0.021 0.614 1.163
0.001 0.770 1.071
-0.007 0.769 1.066
-0.029 0.612 1.157
-0.101 -0.176 1.437
-0.102 -0.186 1.371
-0.102 -0.199 1.276
-0.109 -0.287 0.705
-0.111 -0.323 0.477
-0.104 -0.180 1.438
-0.104 -0.190 1.371
-0.105 -0.204 1.276
-0.112 -0.292 0.706
-0.114 -0.327 0.477
-0.102 -0.184 1.439
-0.102 -0.194 1.372
-0.104 -0.210 1.277
-0.111 -0.298 0.707
-0.112 -0.331 0.478
-0.098 -0.186 1.439
-0.098 -0.196 1.372
-0.100 -0.213 1.278
-0.107 -0.301 0.707
-0.108 -0.333 0.478
-0.094 -0.184 1.439
-0.094 -0.194 1.372
-0.095 -0.211 1.277
-0.102 -0.299 0.707
-0.104 -0.332 0.478
-0.091 -0.181 1.438
-0.092 -0.191 1.372
-0.093 -0.205 1.277
-0.099 -0.293 0.706
-0.101 -0.328 0.477
-0.093 -0.177 1.438
-0.097 -0.175 1.437
-0.093 -0.187 1.371
-0.097 -0.184 1.371
-0.094 -0.199 1.276
-0.097 -0.197 1.276
-0.100 -0.287 0.705
-0.103 -0.324 0.477
-0.107 -0.322 0.477
-0.104 -0.285 0.705
-0.101 0.176 1.437
-0.102 0.186 1.371
-0.102 0.199 1.276
-0.109 0.287 0.705
-0.111 0.323 0.477
-0.104 0.180 1.438
-0.104 0.190 1.371
-0.105 0.204 1.276
-0.112 0.292 0.706
-0.114 0.327 0.477
-0.102 0.184 1.439
-0.102 0.194 1.372
-0.104 0.210 1.277
-0.111 0.298 0.707
-0.112 0.331 0.478
-0.098 0.186 1.439
-0.098 0.196 1.372
-0.100 0.213 1.278
-0.107 0.301 0.707
-0.108 0.333 0.478
-0.094 0.184 1.439
-0.094 0.194 1.372
-0.095 0.211 1.277
-0.102 0.299 0.707
-0.104 0.332 0.478
-0.091 0.181 1.438
-0.092 0.191 1.372
-0.093 0.205 1.277
-0.099 0.293 0.706
-0.101 0.328 0.477
-0.093 0.177 1.438
-0.097 0.175 1.437
-0.093 0.187 1.371
-0.097 0.184 1.371
-0.094 0.199 1.276
-0.097 0.197 1.276
-0.100 0.287 0.705
-0.103 0.324 0.477
-0.107 0.322 0.477
-0.104 0.285 0.705
f 78 79 80
f 77 57 56
f 76 75 74
f 75 73 74
f 74 73 72
f 72 73 71
f 70 72 71
f 69 70 71
f 68 70 69
f 68 69 66
f 68 66 65
f 65 66 67
f 63 64 62
f 61 63 62
f 60 61 62
f 61 60 59
f 59 60 58
f 55 59 58
f 58 56 55
f 55 56 57
f 35 54 3
f 3 13 35
f 52 53 54
f 51 53 52
f 52 50 51
f 49 51 50
f 50 48 49
f 48 47 49
f 46 47 48
f 47 46 45
f 46 44 45
f 43 45 44
f 44 42 43
f 20 43 42
f 42 21 20
f 39 40 41
f 36 37 38
f 12 34 35
f 35 13 12
f 34 33 32
f 32 33 31
f 31 30 32
f 30 31 29
f 29 28 30
f 29 27 28
f 28 27 26
f 25 26 27
f 25 24 26
f 24 25 23
f 23 22 24
f 22 23 20
f 20 21 22
f 17 18 19
f 14 15 16
f 3 2 13
f 13 11 12
f 11 10 12
f 9 10 11
f 10 9 8
f 9 6 8
f 7 8 6
f 6 5 7
f 4 5 6
f 4 1 5
f 1 4 2
f 1 2 3
f 125 124 83
f 125 122 124
f 125 120 122
f 125 118 120
f 125 116 118
f 125 113 116
f 125 111 113
f 125 109 111
f 125 107 109
f 125 105 107
f 125 103 105
f 125 102 103
f 125 100 102
f 125 98 100
f 125 96 98
f 125 94 96
f 125 91 94
f 125 89 91
f 125 87 89
f 125 85 87
f 125 82 85
f 125 83 82
f 124 81 83
f 81 124 123
f 122 123 124
f 123 122 121
f 120 121 122
f 121 120 119
f 118 119 120
f 119 118 117
f 116 117 118
f 117 116 115
f 113 115 116
f 115 113 114
f 112 113 111
f 113 112 114
f 110 111 109
f 111 110 112
f 108 109 107
f 109 108 110
f 106 107 105
f 107 106 108
f 104 105 103
f 105 104 106
f 101 103 102
f 103 101 104
f 101 100 99
f 100 101 102
f 99 98 97
f 98 99 100
f 97 96 95
f 96 97 98
f 95 94 93
f 94 95 96
f 93 91 92
f 91 93 94
f 91 90 92
f 90 91 89
f 89 88 90
f 88 89 87
f 87 86 88
f 86 87 85
f 85 84 86
f 84 85 82
f 82 81 84
f 81 82 83
f 126 148 149
f 170 149 148
f 148 147 170
f 169 170 147
f 147 146 169
f 168 169 146
f 146 145 168
f 167 168 145
f 145 144 167
f 166 167 144
f 143 165 144
f 166 144 165
f 142 164 143
f 165 143 164
f 141 163 142
f 164 142 163
f 140 162 141
f 163 141 162
f 139 161 140
f 162 140 161
f 160 161 138
f 139 138 161
f 159 160 137
f 138 137 160
f 158 159 136
f 137 136 159
f 157 158 135
f 136 135 158
f 156 157 134
f 135 134 157
f 155 156 133
f 134 133 156
f 155 133 154
f 132 154 133
f 154 132 153
f 131 153 132
f 153 131 152
f 130 152 131
f 152 130 151
f 129 151 130
f 151 129 150
f 127 150 129
f 150 127 149
f 126 149 127
f 148 126 128
f 147 148 128
f 146 147 128
f 145 146 128
f 144 145 128
f 143 144 128
f 142 143 128
f 141 142 128
f 140 141 128
f 139 140 128
f 138 139 128
f 137 138 128
f 136 137 128
f 135 136 128
f 134 135 128
f 133 134 128
f 132 133 128
f 131 132 128
f 130 131 128
f 129 130 128
f 127 129 128
f 126 127 128
f 313 302 312
f 302 301 312
f 312 301 311
f 301 300 311
f 311 300 310
f 300 299 310
f 310 299 309
f 299 298 309
f 309 298 308
f 298 297 308
f 308 297 307
f 297 296 307
f 307 296 306
f 296 295 306
f 306 295 305
f 295 294 305
f 305 294 304
f 294 293 304
f 304 293 303
f 293 292 303
f 302 291 301
f 291 290 301
f 301 290 300
f 290 289 300
f 300 289 299
f 289 288 299
f 299 288 298
f 288 287 298
f 298 287 297
f 287 286 297
f 297 286 296
f 286 285 296
f 296 285 295
f 285 284 295
f 295 284 294
f 284 283 294
f 294 283 293
f 283 282 293
f 293 282 292
f 282 281 292
f 291 280 290
f 280 279 290
f 290 279 289
f 279 278 289
f 289 278 288
f 278 277 288
f 288 277 287
f 277 276 287
f 287 276 286
f 276 275 286
f 286 275 285
f 275 274 285
f 285 274 284
f 274 273 284
f 284 273 283
f 273 272 283
f 283 272 282
f 272 271 282
f 282 271 281
f 271 270 281
f 280 269 279
f 269 268 279
f 279 268 278
f 268 267 278
f 278 267 277
f 267 266 277
f 277 266 276
f 266 265 276
f 276 265 275
f 265 264 275
f 275 264 274
f 264 263 274
f 274 263 273
f 263 262 273
f 273 262 272
f 262 261 272
f 272 261 271
f 261 260 271
f 271 260 270
f 260 259 270
f 269 258 268
f 258 257 268
f 268 257 267
f 257 256 267
f 267 256 266
f 256 255 266
f 266 255 265
f 255 254 265
f 265 254 264
f 254 253 264
f 264 253 263
f 253 252 263
f 263 252 262
f 252 251 262
f 262 251 261
f 251 250 261
f 261 250 260
f 250 249 260
f 260 249 259
f 249 248 259
f 258 247 257
f 247 246 257
f 257 246 256
f 246 245 256
f 256 245 255
f 245 244 255
f 255 244 254
f 244 243 254
f 254 243 253
f 243 242 253
f 253 242 252
f 242 241 252
f 252 241 251
f 241 240 251
f 251 240 250
f 240 239 250
f 250 239 249
f 239 238 249
f 249 238 248
f 238 237 248
f 247 236 246
f 236 235 246
f 246 235 245
f 235 234 245
f 245 234 244
f 234 233 244
f 244 233 243
f 233 232 243
f 243 232 242
f 232 231 242
f 242 231 241
f 231 230 241
f 241 230 240
f 230 229 240
f 240 229 239
f 229 228 239
f 239 228 238
f 228 227 238
f 238 227 237
f 227 226 237
f 236 225 235
f 225 224 235
f 235 224 234
f 224 223 234
f 234 223 233
f 223 222 233
f 233 222 232
f 222 221 232
f 232 221 231
f 221 220 231
f 231 220 230
f 220 219 230
f 230 219 229
f 219 218 229
f 229 218 228
f 218 217 228
f 228 217 227
f 217 216 227
f 227 216 226
f 216 215 226
f 225 214 224
f 214 213 224
f 224 213 223
f 213 212 223
f 223 212 222
f 212 211 222
f 222 211 221
f 211 210 221
f 221 210 220
f 210 209 220
f 220 209 219
f 209 208 219
f 219 208 218
f 208 207 218
f 218 207 217
f 207 206 217
f 217 206 216
f 206 205 216
f 216 205 215
f 205 204 215
f 214 203 213
f 203 202 213
f 213 202 212
f 202 201 212
f 212 201 211
f 201 200 211
f 211 200 210
f 200 199 210
f 210 199 209
f 199 198 209
f 209 198 208
f 198 197 208
f 208 197 207
f 197 196 207
f 207 196 206
f 196 195 206
f 206 195 205
f 195 194 205
f 205 194 204
f 194 193 204
f 203 192 202
f 192 190 202
f 202 190 201
f 190 188 201
f 201 188 200
f 188 186 200
f 200 186 199
f 186 184 199
f 199 184 198
f 184 182 198
f 198 182 197
f 182 180 197
f 197 180 196
f 180 178 196
f 196 178 195
f 178 176 195
f 195 176 194
f 176 174 194
f 194 174 193
f 174 173 193
f 192 191 190
f 191 189 190
f 190 189 188
f 189 187 188
f 188 187 186
f 187 185 186
f 186 185 184
f 185 183 184
f 184 183 182
f 183 181 182
f 182 181 180
f 181 179 180
f 180 179 178
f 179 177 178
f 178 177 176
f 177 175 176
f 176 175 174
f 175 171 174
f 174 171 173
f 171 172 173
f 417 368 377
f 414 417 377
f 416 417 414
f 413 416 414
f 415 416 413
f 412 415 413
f 414 377 376
f 411 414 376
f 413 414 411
f 410 413 411
f 412 413 410
f 409 412 410
f 411 376 375
f 408 411 375
f 410 411 408
f 407 410 408
f 409 410 407
f 406 409 407
f 408 375 374
f 405 408 374
f 407 408 405
f 404 407 405
f 406 407 404
f 403 406 404
f 405 374 373
f 402 405 373
f 404 405 402
f 401 404 402
f 403 404 401
f 400 403 401
f 402 373 372
f 399 402 372
f 401 402 399
f 398 401 399
f 400 401 398
f 397 400 398
f 399 372 371
f 396 399 371
f 398 399 396
f 395 398 396
f 397 398 395
f 394 397 395
f 396 371 370
f 393 396 370
f 395 396 393
f 392 395 393
f 394 395 392
f 391 394 392
f 393 370 369
f 390 393 369
f 392 393 390
f 389 392 390
f 391 392 389
f 388 391 389
f 390 369 367
f 387 390 367
f 389 390 387
f 386 389 387
f 388 389 386
f 385 388 386
f 387 367 366
f 383 387 366
f 386 387 383
f 381 386 383
f 385 386 381
f 379 385 381
f 383 366 384
f 382 383 384
f 381 383 382
f 380 381 382
f 379 381 380
f 378 379 380
f 376 377 368
f 375 376 368
f 374 375 368
f 373 374 368
f 372 373 368
f 371 372 368
f 370 371 368
f 369 370 368
f 367 369 368
f 366 367 368
f 325 314 365
f 325 365 362
f 362 365 364
f 362 364 361
f 361 364 363
f 361 363 360
f 324 325 362
f 324 362 359
f 359 362 361
f 359 361 358
f 358 361 360
f 358 360 357
f 323 324 359
f 323 359 356
f 356 359 358
f 356 358 355
f 355 358 357
f 355 357 354
f 322 323 356
f 322 356 353
f 353 356 355
f 353 355 352
f 352 355 354
f 352 354 351
f 321 322 353
f 321 353 350
f 350 353 352
f 350 352 349
f 349 352 351
f 349 351 348
f 320 321 350
f 320 350 347
f 347 350 349
f 347 349 346
f 346 349 348
f 346 348 345
f 319 320 347
f 319 347 344
f 344 347 346
f 344 346 343
f 343 346 345
f 343 345 342
f 318 319 344
f 318 344 341
f 341 344 343
f 341 343 340
f 340 343 342
f 340 342 339
f 317 318 341
f 317 341 338
f 338 341 340
f 338 340 337
f 337 340 339
f 337 339 336
f 315 317 338
f 315 338 335
f 335 338 337
f 335 337 334
f 334 337 336
f 334 336 333
f 316 315 335
f 316 335 331
f 331 335 334
f 331 334 329
f 329 334 333
f 329 333 327
f 332 316 331
f 332 331 330
f 330 331 329
f 330 329 326
f 326 329 327
f 326 327 328
f 314 325 324
f 314 324 323
f 314 323 322
f 314 322 321
f 314 321 320
f 314 320 319
f 314 319 318
f 314 318 317
f 314 317 315
f 314 315 316
f 547 542 546
f 542 541 546
f 546 541 545
f 541 540 545
f 545 540 544
f 540 539 544
f 544 539 543
f 539 538 543
f 542 537 541
f 537 536 541
f 541 536 540
f 536 535 540
f 540 535 539
f 535 534 539
f 539 534 538
f 534 533 538
f 537 532 536
f 532 531 536
f 536 531 535
f 531 530 535
f 535 530 534
f 530 529 534
f 534 529 533
f 529 528 533
f 532 527 531
f 527 526 531
f 531 526 530
f 526 525 530
f 530 525 529
f 525 524 529
f 529 524 528
f 524 523 528
f 527 522 526
f 522 521 526
f 526 521 525
f 521 520 525
f 525 520 524
f 520 519 524
f 524 519 523
f 519 518 523
f 522 517 521
f 517 516 521
f 521 516 520
f 516 515 520
f 520 515 519
f 515 514 519
f 519 514 518
f 514 513 518
f 517 512 516
f 512 511 516
f 516 511 515
f 511 510 515
f 515 510 514
f 510 509 514
f 514 509 513
f 509 508 513
f 512 507 511
f 507 506 511
f 511 506 510
f 506 505 510
f 510 505 509
f 505 504 509
f 509 504 508
f 504 503 508
f 507 502 506
f 502 501 506
f 506 501 505
f 501 500 505
f 505 500 504
f 500 499 504
f 504 499 503
f 499 498 503
f 502 497 501
f 497 496 501
f 501 496 500
f 496 495 500
f 500 495 499
f 495 494 499
f 499 494 498
f 494 493 498
f 497 492 496
f 492 490 496
f 496 490 495
f 490 488 495
f 495 488 494
f 488 486 494
f 494 486 493
f 486 485 493
f 492 491 490
f 491 489 490
f 490 489 488
f 489 487 488
f 488 487 486
f 487 483 486
f 486 483 485
f 483 484 485
f 481 477 482
f 481 476 477
f 480 476 481
f 480 475 476
f 479 475 480
f 479 474 475
f 478 474 479
f 478 473 474
f 476 472 477
f 476 471 472
f 475 471 476
f 475 470 471
f 474 470 475
f 474 469 470
f 473 469 474
f 473 468 469
f 471 467 472
f 471 466 467
f 470 466 471
f 470 465 466
f 469 465 470
f 469 464 465
f 468 464 469
f 468 463 464
f 466 462 467
f 466 461 462
f 465 461 466
f 465 460 461
f 464 460 465
f 464 459 460
f 463 459 464
f 463 458 459
f 461 457 462
f 461 456 457
f 460 456 461
f 460 455 456
f 459 455 460
f 459 454 455
f 458 454 459
f 458 453 454
f 456 452 457
f 456 451 452
f 455 451 456
f 455 450 451
f 454 450 455
f 454 449 450
f 453 449 454
f 453 448 449
f 451 447 452
f 451 446 447
f 450 446 451
f 450 445 446
f 449 445 450
f 449 444 445
f 448 444 449
f 448 443 444
f 446 442 447
f 446 441 442
f 445 441 446
f 445 440 441
f 444 440 445
f 444 439 440
f 443 439 444
f 443 438 439
f 441 437 442
f 441 436 437
f 440 436 441
f 440 435 436
f 439 435 440
f 439 434 435
f 438 434 439
f 438 433 434
f 436 432 437
f 436 431 432
f 435 431 436
f 435 430 431
f 434 430 435
f 434 429 430
f 433 429 434
f 433 428 429
f 431 427 432
f 431 425 427
f 430 425 431
f 430 423 425
f 429 423 430
f 429 421 423
f 428 421 429
f 428 418 421
f 425 426 427
f 425 424 426
f 423 424 425
f 423 422 424
f 421 422 423
f 421 420 422
f 418 420 421
f 418 419 420
f 594 596 627
f 626 594 627
f 592 594 626
f 625 592 626
f 590 592 625
f 624 590 625
f 588 590 624
f 623 588 624
f 626 627 622
f 621 626 622
f 625 626 621
f 620 625 621
f 624 625 620
f 619 624 620
f 623 624 619
f 618 623 619
f 621 622 617
f 616 621 617
f 620 621 616
f 615 620 616
f 619 620 615
f 614 619 615
f 618 619 614
f 613 618 614
f 616 617 612
f 611 616 612
f 615 616 611
f 610 615 611
f 614 615 610
f 609 614 610
f 613 614 609
f 608 613 609
f 611 612 607
f 606 611 607
f 610 611 606
f 605 610 606
f 609 610 605
f 604 609 605
f 608 609 604
f 603 608 604
f 606 607 602
f 601 606 602
f 605 606 601
f 600 605 601
f 604 605 600
f 599 604 600
f 603 604 599
f 598 603 599
f 601 602 597
f 595 601 597
f 600 601 595
f 593 600 595
f 599 600 593
f 591 599 593
f 598 599 591
f 589 598 591
f 595 597 596
f 594 595 596
f 593 595 594
f 592 593 594
f 591 593 592
f 590 591 592
f 589 591 590
f 588 589 590
f 587 556 554
f 587 554 586
f 586 554 552
f 586 552 585
f 585 552 548
f 585 548 584
f 584 548 550
f 584 550 583
f 582 587 586
f 582 586 581
f 581 586 585
f 581 585 580
f 580 585 584
f 580 584 579
f 579 584 583
f 579 583 578
f 577 582 581
f 577 581 576
f 576 581 580
f 576 580 575
f 575 580 579
f 575 579 574
f 574 579 578
f 574 578 573
f 572 577 576
f 572 576 571
f 571 576 575
f 571 575 570
f 570 575 574
f 570 574 569
f 569 574 573
f 569 573 568
f 567 572 571
f 567 571 566
f 566 571 570
f 566 570 565
f 565 570 569
f 565 569 564
f 564 569 568
f 564 568 563
f 562 567 566
f 562 566 561
f 561 566 565
f 561 565 560
f 560 565 564
f 560 564 559
f 559 564 563
f 559 563 558
f 557 562 561
f 557 561 555
f 555 561 560
f 555 560 553
f 553 560 559
f 553 559 551
f 551 559 558
f 551 558 549
f 556 557 555
f 556 555 554
f 554 555 553
f 554 553 552
f 552 553 551
f 552 551 548
f 548 551 549
f 548 549 550
f 635 634 633
f 632 633 634
f 629 628 631
f 628 629 630
f 698 696 697
f 696 698 699
f 671 669 696
f 699 671 696
f 672 671 699
f 699 674 672
f 699 676 674
f 676 699 698
f 698 678 676
f 680 678 698
f 698 683 680
f 683 698 697
f 697 685 683
f 687 685 697
f 687 697 696
f 696 689 687
f 689 696 690
f 696 669 690
f 692 675 695
f 695 675 677
f 677 679 695
f 681 695 679
f 695 681 694
f 681 682 694
f 694 682 684
f 686 694 684
f 693 694 686
f 693 686 688
f 693 688 691
f 693 691 668
f 693 668 692
f 668 670 692
f 670 673 692
f 692 673 675
f 668 691 669
f 691 690 669
f 688 690 691
f 688 689 690
f 688 687 689
f 687 688 686
f 686 685 687
f 686 684 685
f 685 684 683
f 684 682 683
f 680 683 682
f 681 680 682
f 681 679 680
f 680 679 678
f 679 677 678
f 677 676 678
f 675 676 677
f 675 674 676
f 674 675 673
f 673 672 674
f 673 670 672
f 672 670 671
f 670 669 671
f 668 669 670
f 665 664 666
f 667 666 664
f 664 637 639
f 664 639 667
f 667 639 640
f 640 642 667
f 642 644 667
f 666 667 644
f 644 646 666
f 666 646 648
f 648 651 666
f 665 666 651
f 651 653 665
f 665 653 655
f 664 665 655
f 655 657 664
f 658 664 657
f 658 637 664
f 663 643 660
f 645 643 663
f 663 647 645
f 647 663 649
f 662 649 663
f 662 650 649
f 652 650 662
f 652 662 654
f 654 662 661
f 656 654 661
f 659 656 661
f 638 659 661
f 660 638 661
f 660 636 638
f 660 641 636
f 643 641 660
f 637 659 638
f 637 658 659
f 659 658 656
f 658 657 656
f 657 655 656
f 654 656 655
f 655 653 654
f 653 652 654
f 651 652 653
f 651 650 652
f 650 651 648
f 650 648 649
f 648 647 649
f 646 647 648
f 646 645 647
f 646 644 645
f 645 644 643
f 644 642 643
f 641 643 642
f 642 640 641
f 640 636 641
f 639 636 640
f 639 637 636
f 636 637 638
f 722 725 708
f 725 722 720
f 725 720 716
f 716 727 725
f 727 716 718
f 718 729 727
f 723 709 724
f 723 724 721
f 721 724 726
f 719 721 726
f 728 719 726
f 728 717 719
f 729 728 727
f 728 726 727
f 726 725 727
f 724 725 726
f 724 708 725
f 724 709 708
f 722 723 721
f 720 722 721
f 719 720 721
f 716 720 719
f 716 719 717
f 716 717 718
f 708 711 706
f 704 706 711
f 702 704 711
f 711 713 702
f 700 702 713
f 713 715 700
f 710 709 707
f 705 710 707
f 712 710 705
f 712 705 703
f 712 703 714
f 703 701 714
f 713 714 715
f 713 712 714
f 713 711 712
f 712 711 710
f 711 708 710
f 708 709 710
f 705 707 706
f 705 706 704
f 705 704 703
f 703 704 702
f 701 703 702
f 700 701 702
f 760 766 767
f 760 765 766
f 765 760 759
f 765 759 764
f 764 759 758
f 763 764 758
f 762 763 758
f 761 762 758
f 758 753 761
f 760 745 742
f 742 759 760
f 758 759 741
f 759 742 741
f 758 741 731
f 753 758 731
f 757 754 739
f 739 754 730
f 757 739 737
f 737 755 757
f 755 737 735
f 755 735 756
f 730 754 753
f 753 731 730
f 752 751 744
f 751 750 744
f 743 744 750
f 749 743 750
f 740 743 749
f 740 749 748
f 740 748 747
f 740 747 746
f 746 732 740
f 742 745 744
f 744 743 742
f 741 743 740
f 741 742 743
f 731 741 740
f 731 740 732
f 739 733 738
f 730 733 739
f 737 739 738
f 738 736 737
f 735 737 736
f 734 735 736
f 732 733 730
f 730 731 732
f 807 776 774
f 807 774 806
f 806 774 772
f 806 772 805
f 805 772 770
f 805 770 804
f 804 770 768
f 804 768 803
f 802 807 806
f 802 806 801
f 801 806 805
f 801 805 800
f 800 805 804
f 800 804 799
f 799 804 803
f 799 803 798
f 797 802 801
f 797 801 796
f 796 801 800
f 796 800 795
f 795 800 799
f 795 799 794
f 794 799 798
f 794 798 793
f 792 797 796
f 792 796 791
f 791 796 795
f 791 795 790
f 790 795 794
f 790 794 789
f 789 794 793
f 789 793 788
f 787 792 791
f 787 791 786
f 786 791 790
f 786 790 785
f 785 790 789
f 785 789 784
f 784 789 788
f 784 788 783
f 782 787 786
f 782 786 781
f 781 786 785
f 781 785 780
f 780 785 784
f 780 784 779
f 779 784 783
f 779 783 778
f 777 782 781
f 777 781 775
f 775 781 780
f 775 780 773
f 773 780 779
f 773 779 771
f 771 779 778
f 771 778 769
f 776 777 775
f 776 775 774
f 774 775 773
f 774 773 772
f 772 773 771
f 772 771 770
f 770 771 769
f 770 769 768
f 814 816 847
f 846 814 847
f 812 814 846
f 845 812 846
f 810 812 845
f 844 810 845
f 808 810 844
f 843 808 844
f 846 847 842
f 841 846 842
f 845 846 841
f 840 845 841
f 844 845 840
f 839 844 840
f 843 844 839
f 838 843 839
f 841 842 837
f 836 841 837
f 840 841 836
f 835 840 836
f 839 840 835
f 834 839 835
f 838 839 834
f 833 838 834
f 836 837 832
f 831 836 832
f 835 836 831
f 830 835 831
f 834 835 830
f 829 834 830
f 833 834 829
f 828 833 829
f 831 832 827
f 826 831 827
f 830 831 826
f 825 830 826
f 829 830 825
f 824 829 825
f 828 829 824
f 823 828 824
f 826 827 822
f 821 826 822
f 825 826 821
f 820 825 821
f 824 825 820
f 819 824 820
f 823 824 819
f 818 823 819
f 821 822 817
f 815 821 817
f 820 821 815
f 813 820 815
f 819 820 813
f 811 819 813
f 818 819 811
f 809 818 811
f 815 817 816
f 814 815 816
f 813 815 814
f 812 813 814
f 811 813 812
f 810 811 812
f 809 811 810
f 808 809 810
f 885 886 887
f 885 884 886
f 883 884 885
f 883 882 884
f 881 882 883
f 881 880 882
f 879 880 881
f 879 878 880
f 884 877 886
f 884 876 877
f 882 876 884
f 882 875 876
f 880 875 882
f 880 874 875
f 878 874 880
f 878 873 874
f 876 872 877
f 876 871 872
f 875 871 876
f 875 870 871
f 874 870 875
f 874 869 870
f 873 869 874
f 873 868 869
f 871 867 872
f 871 866 867
f 870 866 871
f 870 865 866
f 869 865 870
f 869 864 865
f 868 864 869
f 868 863 864
f 866 862 867
f 866 861 862
f 865 861 866
f 865 860 861
f 864 860 865
f 864 859 860
f 863 859 864
f 863 858 859
f 861 857 862
f 861 856 857
f 860 856 861
f 860 855 856
f 859 855 860
f 859 854 855
f 858 854 859
f 858 853 854
f 856 852 857
f 856 851 852
f 855 851 856
f 855 850 851
f 854 850 855
f 854 849 850
f 853 849 854
f 853 848 849
f 851 887 852
f 851 885 887
f 850 885 851
f 850 883 885
f 849 883 850
f 849 881 883
f 848 881 849
f 848 879 881
f 927 926 925
f 926 924 925
f 925 924 923
f 924 922 923
f 923 922 921
f 922 920 921
f 921 920 919
f 920 918 919
f 926 917 924
f 917 916 924
f 924 916 922
f 916 915 922
f 922 915 920
f 915 914 920
f 920 914 918
f 914 913 918
f 917 912 916
f 912 911 916
f 916 911 915
f 911 910 915
f 915 910 914
f 910 909 914
f 914 909 913
f 909 908 913
f 912 907 911
f 907 906 911
f 911 906 910
f 906 905 910
f 910 905 909
f 905 904 909
f 909 904 908
f 904 903 908
f 907 902 906
f 902 901 906
f 906 901 905
f 901 900 905
f 905 900 904
f 900 899 904
f 904 899 903
f 899 898 903
f 902 897 901
f 897 896 901
f 901 896 900
f 896 895 900
f 900 895 899
f 895 894 899
f 899 894 898
f 894 893 898
f 897 892 896
f 892 891 896
f 896 891 895
f 891 890 895
f 895 890 894
f 890 889 894
f 894 889 893
f 889 888 893
f 892 927 891
f 927 925 891
f 891 925 890
f 925 923 890
f 890 923 889
f 923 921 889
f 889 921 888
f 921 919 888
f 965 966 967
f 965 967 964
f 964 967 963
f 964 963 962
f 962 963 961
f 962 961 960
f 960 961 959
f 960 959 958
f 957 965 964
f 957 964 956
f 956 964 962
f 956 962 955
f 955 962 960
f 955 960 954
f 954 960 958
f 954 958 953
f 952 957 956
f 952 956 951
f 951 956 955
f 951 955 950
f 950 955 954
f 950 954 949
f 949 954 953
f 949 953 948
f 947 952 951
f 947 951 946
f 946 951 950
f 946 950 945
f 945 950 949
f 945 949 944
f 944 949 948
f 944 948 943
f 942 947 946
f 942 946 941
f 941 946 945
f 941 945 940
f 940 945 944
f 940 944 939
f 939 944 943
f 939 943 938
f 937 942 941
f 937 941 936
f 936 941 940
f 936 940 935
f 935 940 939
f 935 939 934
f 934 939 938
f 934 938 933
f 932 937 936
f 932 936 931
f 931 936 935
f 931 935 930
f 930 935 934
f 930 934 929
f 929 934 933
f 929 933 928
f 966 932 931
f 966 931 967
f 967 931 930
f 967 930 963
f 963 930 929
f 963 929 961
f 961 929 928
f 961 928 959
f 1007 1006 1005
f 1004 1007 1005
f 1003 1007 1004
f 1002 1003 1004
f 1001 1003 1002
f 1000 1001 1002
f 999 1001 1000
f 998 999 1000
f 1004 1005 997
f 996 1004 997
f 1002 1004 996
f 995 1002 996
f 1000 1002 995
f 994 1000 995
f 998 1000 994
f 993 998 994
f 996 997 992
f 991 996 992
f 995 996 991
f 990 995 991
f 994 995 990
f 989 994 990
f 993 994 989
f 988 993 989
f 991 992 987
f 986 991 987
f 990 991 986
f 985 990 986
f 989 990 985
f 984 989 985
f 988 989 984
f 983 988 984
f 986 987 982
f 981 986 982
f 985 986 981
f 980 985 981
f 984 985 980
f 979 984 980
f 983 984 979
f 978 983 979
f 981 982 977
f 976 981 977
f 980 981 976
f 975 980 976
f 979 980 975
f 974 979 975
f 978 979 974
f 973 978 974
f 976 977 972
f 971 976 972
f 975 976 971
f 970 975 971
f 974 975 970
f 969 974 970
f 973 974 969
f 968 973 969
f 971 972 1006
f 1007 971 1006
f 970 971 1007
f 1003 970 1007
f 969 970 1003
f 1001 969 1003
f 968 969 1001
f 999 968 1001
f 1021 1022 1023
f 1021 1023 1020
f 1019 1021 1020
f 1019 1020 1018
f 1017 1019 1018
f 1017 1018 1016
f 1015 1017 1016
f 1015 1016 1014
f 1013 1015 1014
f 1013 1014 1012
f 1011 1013 1012
f 1011 1012 1010
f 1009 1011 1010
f 1009 1010 1008
f 1022 1009 1008
f 1022 1008 1023
f 1039 1038 1037
f 1036 1039 1037
f 1036 1037 1035
f 1034 1036 1035
f 1034 1035 1033
f 1032 1034 1033
f 1032 1033 1031
f 1030 1032 1031
f 1030 1031 1029
f 1028 1030 1029
f 1028 1029 1027
f 1026 1028 1027
f 1026 1027 1025
f 1024 1026 1025
f 1024 1025 1038
f 1039 1024 1038
f 1077 1078 1079
f 1077 1079 1076
f 1076 1079 1075
f 1076 1075 1074
f 1074 1075 1073
f 1074 1073 1072
f 1072 1073 1071
f 1072 1071 1070
f 1069 1077 1076
f 1069 1076 1068
f 1068 1076 1074
f 1068 1074 1067
f 1067 1074 1072
f 1067 1072 1066
f 1066 1072 1070
f 1066 1070 1065
f 1064 1069 1068
f 1064 1068 1063
f 1063 1068 1067
f 1063 1067 1062
f 1062 1067 1066
f 1062 1066 1061
f 1061 1066 1065
f 1061 1065 1060
f 1059 1064 1063
f 1059 1063 1058
f 1058 1063 1062
f 1058 1062 1057
f 1057 1062 1061
f 1057 1061 1056
f 1056 1061 1060
f 1056 1060 1055
f 1054 1059 1058
f 1054 1058 1053
f 1053 1058 1057
f 1053 1057 1052
f 1052 1057 1056
f 1052 1056 1051
f 1051 1056 1055
f 1051 1055 1050
f 1049 1054 1053
f 1049 1053 1048
f 1048 1053 1052
f 1048 1052 1047
f 1047 1052 1051
f 1047 1051 1046
f 1046 1051 1050
f 1046 1050 1045
f 1044 1049 1048
f 1044 1048 1043
f 1043 1048 1047
f 1043 1047 1042
f 1042 1047 1046
f 1042 1046 1041
f 1041 1046 1045
f 1041 1045 1040
f 1078 1044 1043
f 1078 1043 1079
f 1079 1043 1042
f 1079 1042 1075
f 1075 1042 1041
f 1075 1041 1073
f 1073 1041 1040
f 1073 1040 1071
f 1119 1118 1117
f 1116 1119 1117
f 1115 1119 1116
f 1114 1115 1116
f 1113 1115 1114
f 1112 1113 1114
f 1111 1113 1112
f 1110 1111 1112
f 1116 1117 1109
f 1108 1116 1109
f 1114 1116 1108
f 1107 1114 1108
f 1112 1114 1107
f 1106 1112 1107
f 1110 1112 1106
f 1105 1110 1106
f 1108 1109 1104
f 1103 1108 1104
f 1107 1108 1103
f 1102 1107 1103
f 1106 1107 1102
f 1101 1106 1102
f 1105 1106 1101
f 1100 1105 1101
f 1103 1104 1099
f 1098 1103 1099
f 1102 1103 1098
f 1097 1102 1098
f 1101 1102 1097
f 1096 1101 1097
f 1100 1101 1096
f 1095 1100 1096
f 1098 1099 1094
f 1093 1098 1094
f 1097 1098 1093
f 1092 1097 1093
f 1096 1097 1092
f 1091 1096 1092
f 1095 1096 1091
f 1090 1095 1091
f 1093 1094 1089
f 1088 1093 1089
f 1092 1093 1088
f 1087 1092 1088
f 1091 1092 1087
f 1086 1091 1087
f 1090 1091 1086
f 1085 1090 1086
f 1088 1089 1084
f 1083 1088 1084
f 1087 1088 1083
f 1082 1087 1083
f 1086 1087 1082
f 1081 1086 1082
f 1085 1086 1081
f 1080 1085 1081
f 1083 1084 1118
f 1119 1083 1118
f 1082 1083 1119
f 1115 1082 1119
f 1081 1082 1115
f 1113 1081 1115
f 1080 1081 1113
f 1111 1080 1113
f 1157 1158 1159
f 1157 1159 1156
f 1156 1159 1155
f 1156 1155 1154
f 1154 1155 1153
f 1154 1153 1152
f 1152 1153 1151
f 1152 1151 1150
f 1149 1157 1156
f 1149 1156 1148
f 1148 1156 1154
f 1148 1154 1147
f 1147 1154 1152
f 1147 1152 1146
f 1146 1152 1150
f 1146 1150 1145
f 1144 1149 1148
f 1144 1148 1143
f 1143 1148 1147
f 1143 1147 1142
f 1142 1147 1146
f 1142 1146 1141
f 1141 1146 1145
f 1141 1145 1140
f 1139 1144 1143
f 1139 1143 1138
f 1138 1143 1142
f 1138 1142 1137
f 1137 1142 1141
f 1137 1141 1136
f 1136 1141 1140
f 1136 1140 1135
f 1134 1139 1138
f 1134 1138 1133
f 1133 1138 1137
f 1133 1137 1132
f 1132 1137 1136
f 1132 1136 1131
f 1131 1136 1135
f 1131 1135 1130
f 1129 1134 1133
f 1129 1133 1128
f 1128 1133 1132
f 1128 1132 1127
f 1127 1132 1131
f 1127 1131 1126
f 1126 1131 1130
f 1126 1130 1125
f 1124 1129 1128
f 1124 1128 1123
f 1123 1128 1127
f 1123 1127 1122
f 1122 1127 1126
f 1122 1126 1121
f 1121 1126 1125
f 1121 1125 1120
f 1158 1124 1123
f 1158 1123 1159
f 1159 1123 1122
f 1159 1122 1155
f 1155 1122 1121
f 1155 1121 1153
f 1153 1121 1120
f 1153 1120 1151
f 1199 1198 1197
f 1196 1199 1197
f 1195 1199 1196
f 1194 1195 1196
f 1193 1195 1194
f 1192 1193 1194
f 1191 1193 1192
f 1190 1191 1192
f 1196 1197 1189
f 1188 1196 1189
f 1194 1196 1188
f 1187 1194 1188
f 1192 1194 1187
f 1186 1192 1187
f 1190 1192 1186
f 1185 1190 1186
f 1188 1189 1184
f 1183 1188 1184
f 1187 1188 1183
f 1182 1187 1183
f 1186 1187 1182
f 1181 1186 1182
f 1185 1186 1181
f 1180 1185 1181
f 1183 1184 1179
f 1178 1183 1179
f 1182 1183 1178
f 1177 1182 1178
f 1181 1182 1177
f 1176 1181 1177
f 1180 1181 1176
f 1175 1180 1176
f 1178 1179 1174
f 1173 1178 1174
f 1177 1178 1173
f 1172 1177 1173
f 1176 1177 1172
f 1171 1176 1172
f 1175 1176 1171
f 1170 1175 1171
f 1173 1174 1169
f 1168 1173 1169
f 1172 1173 1168
f 1167 1172 1168
f 1171 1172 1167
f 1166 1171 1167
f 1170 1171 1166
f 1165 1170 1166
f 1168 1169 1164
f 1163 1168 1164
f 1167 1168 1163
f 1162 1167 1163
f 1166 1167 1162
f 1161 1166 1162
f 1165 1166 1161
f 1160 1165 1161
f 1163 1164 1198
f 1199 1163 1198
f 1162 1163 1199
f 1195 1162 1199
f 1161 1162 1195
f 1193 1161 1195
f 1160 1161 1193
f 1191 1160 1193
f 1237 1238 1239
f 1237 1239 1236
f 1236 1239 1235
f 1236 1235 1234
f 1234 1235 1233
f 1234 1233 1232
f 1232 1233 1231
f 1232 1231 1230
f 1229 1237 1236
f 1229 1236 1228
f 1228 1236 1234
f 1228 1234 1227
f 1227 1234 1232
f 1227 1232 1226
f 1226 1232 1230
f 1226 1230 1225
f 1224 1229 1228
f 1224 1228 1223
f 1223 1228 1227
f 1223 1227 1222
f 1222 1227 1226
f 1222 1226 1221
f 1221 1226 1225
f 1221 1225 1220
f 1219 1224 1223
f 1219 1223 1218
f 1218 1223 1222
f 1218 1222 1217
f 1217 1222 1221
f 1217 1221 1216
f 1216 1221 1220
f 1216 1220 1215
f 1214 1219 1218
f 1214 1218 1213
f 1213 1218 1217
f 1213 1217 1212
f 1212 1217 1216
f 1212 1216 1211
f 1211 1216 1215
f 1211 1215 1210
f 1209 1214 1213
f 1209 1213 1208
f 1208 1213 1212
f 1208 1212 1207
f 1207 1212 1211
f 1207 1211 1206
f 1206 1211 1210
f 1206 1210 1205
f 1204 1209 1208
f 1204 1208 1203
f 1203 1208 1207
f 1203 1207 1202
f 1202 1207 1206
f 1202 1206 1201
f 1201 1206 1205
f 1201 1205 1200
f 1238 1204 1203
f 1238 1203 1239
f 1239 1203 1202
f 1239 1202 1235
f 1235 1202 1201
f 1235 1201 1233
f 1233 1201 1200
f 1233 1200 1231
f 1279 1278 1277
f 1276 1279 1277
f 1275 1279 1276
f 1274 1275 1276
f 1273 1275 1274
f 1272 1273 1274
f 1271 1273 1272
f 1270 1271 1272
f 1276 1277 1269
f 1268 1276 1269
f 1274 1276 1268
f 1267 1274 1268
f 1272 1274 1267
f 1266 1272 1267
f 1270 1272 1266
f 1265 1270 1266
f 1268 1269 1264
f 1263 1268 1264
f 1267 1268 1263
f 1262 1267 1263
f 1266 1267 1262
f 1261 1266 1262
f 1265 1266 1261
f 1260 1265 1261
f 1263 1264 1259
f 1258 1263 1259
f 1262 1263 1258
f 1257 1262 1258
f 1261 1262 1257
f 1256 1261 1257
f 1260 1261 1256
f 1255 1260 1256
f 1258 1259 1254
f 1253 1258 1254
f 1257 1258 1253
f 1252 1257 1253
f 1256 1257 1252
f 1251 1256 1252
f 1255 1256 1251
f 1250 1255 1251
f 1253 1254 1249
f 1248 1253 1249
f 1252 1253 1248
f 1247 1252 1248
f 1251 1252 1247
f 1246 1251 1247
f 1250 1251 1246
f 1245 1250 1246
f 1248 1249 1244
f 1243 1248 1244
f 1247 1248 1243
f 1242 1247 1243
f 1246 1247 1242
f 1241 1246 1242
f 1245 1246 1241
f 1240 1245 1241
f 1243 1244 1278
f 1279 1243 1278
f 1242 1243 1279
f 1275 1242 1279
f 1241 1242 1275
f 1273 1241 1275
f 1240 1241 1273
f 1271 1240 1273
f 1590 1643 1649
f 1649 1591 1590
f 1591 1649 1648
f 1591 1648 1647
f 1647 1607 1591
f 1607 1647 1646
f 1646 1605 1607
f 1605 1646 1645
f 1645 1644 1605
f 1590 1605 1644
f 1644 1642 1590
f 1590 1642 1643
f 1478 1468 1472
f 1639 1638 1628
f 1628 1630 1639
f 1640 1639 1630
f 1630 1577 1640
f 1641 1640 1577
f 1577 1482 1641
f 1641 1482 1473
f 1500 1641 1473
f 1641 1500 1640
f 1640 1500 1502
f 1639 1640 1502
f 1503 1639 1502
f 1639 1503 1638
f 1638 1503 1504
f 1504 1506 1638
f 1624 1638 1506
f 1638 1624 1628
f 1624 1625 1628
f 1499 1485 1487
f 1506 1618 1624
f 1619 1618 1506
f 1637 1501 1500
f 1473 1637 1500
f 1473 1635 1637
f 1635 1473 1572
f 1635 1572 1636
f 1634 1569 1567
f 1633 1634 1567
f 1567 1564 1633
f 1631 1633 1564
f 1565 1631 1564
f 1631 1565 1632
f 1579 1480 1577
f 1579 1577 1630
f 1579 1630 1617
f 1617 1630 1628
f 1629 1617 1627
f 1627 1617 1628
f 1625 1627 1628
f 1625 1626 1627
f 1625 1623 1626
f 1621 1623 1625
f 1621 1625 1624
f 1624 1618 1621
f 1622 1623 1621
f 1621 1620 1622
f 1620 1621 1618
f 1618 1619 1620
f 1617 1616 1579
f 1579 1616 1580
f 1613 1612 1611
f 1615 1612 1613
f 1614 1582 1581
f 1614 1587 1582
f 1588 1587 1614
f 1613 1611 1585
f 1610 1611 1612
f 1609 1610 1612
f 1610 1585 1611
f 1610 1583 1585
f 1583 1610 1609
f 1587 1523 1519
f 1582 1587 1519
f 1397 1583 1609
f 1427 1397 1609
f 1602 1604 1603
f 1603 1417 1602
f 1417 1603 1419
f 1605 1601 1607
f 1607 1601 1600
f 1606 1607 1600
f 1600 1599 1606
f 1599 1593 1606
f 1593 1608 1606
f 1591 1606 1608
f 1606 1591 1607
f 1590 1589 1605
f 1603 1604 1586
f 1584 1603 1586
f 1419 1603 1584
f 1584 1396 1419
f 1602 1417 1416
f 1598 1600 1601
f 1598 1597 1600
f 1600 1597 1599
f 1597 1595 1599
f 1595 1593 1599
f 1597 1598 1596
f 1597 1596 1595
f 1596 1594 1595
f 1594 1593 1595
f 1592 1593 1594
f 1521 1590 1591
f 1523 1590 1521
f 1523 1587 1590
f 1590 1587 1589
f 1587 1588 1589
f 1584 1586 1585
f 1585 1583 1584
f 1396 1584 1583
f 1397 1396 1583
f 1578 1581 1582
f 1582 1479 1578
f 1582 1519 1479
f 1581 1578 1580
f 1480 1578 1479
f 1480 1579 1578
f 1578 1579 1580
f 1482 1577 1480
f 1513 1517 1560
f 1560 1573 1513
f 1513 1573 1574
f 1574 1525 1513
f 1525 1574 1575
f 1576 1518 1524
f 1518 1576 1477
f 1476 1477 1576
f 1576 1571 1476
f 1574 1570 1575
f 1570 1574 1568
f 1573 1568 1574
f 1573 1566 1568
f 1566 1573 1560
f 1566 1560 1563
f 1473 1476 1571
f 1571 1572 1473
f 1568 1569 1570
f 1569 1568 1567
f 1566 1567 1568
f 1566 1564 1567
f 1564 1566 1563
f 1564 1563 1565
f 1562 1561 1509
f 1561 1507 1509
f 1547 1507 1561
f 1507 1547 1512
f 1563 1560 1559
f 1558 1561 1562
f 1561 1558 1548
f 1561 1548 1547
f 1556 1560 1517
f 1556 1559 1560
f 1558 1552 1549
f 1558 1549 1548
f 1516 1515 1557
f 1516 1557 1555
f 1555 1517 1516
f 1517 1555 1556
f 1554 1551 1553
f 1551 1550 1553
f 1550 1552 1553
f 1549 1552 1550
f 1550 1551 1543
f 1550 1543 1542
f 1542 1549 1550
f 1549 1542 1541
f 1541 1548 1549
f 1541 1540 1548
f 1548 1540 1547
f 1540 1539 1547
f 1539 1512 1547
f 1538 1512 1539
f 1538 1511 1512
f 1538 1546 1511
f 1546 1538 1528
f 1546 1528 1545
f 1527 1545 1528
f 1527 1544 1545
f 1536 1542 1543
f 1536 1534 1542
f 1542 1534 1541
f 1534 1533 1541
f 1540 1541 1533
f 1531 1540 1533
f 1531 1539 1540
f 1539 1531 1529
f 1529 1538 1539
f 1538 1529 1528
f 1536 1537 1535
f 1535 1534 1536
f 1534 1535 1532
f 1532 1533 1534
f 1533 1532 1531
f 1532 1530 1531
f 1530 1529 1531
f 1526 1529 1530
f 1526 1528 1529
f 1526 1527 1528
f 1513 1525 1514
f 1524 1518 1520
f 1519 1520 1518
f 1519 1523 1520
f 1520 1523 1521
f 1520 1521 1522
f 1479 1519 1518
f 1518 1477 1479
f 1513 1516 1517
f 1516 1513 1515
f 1513 1514 1515
f 1507 1512 1510
f 1511 1510 1512
f 1508 1507 1510
f 1507 1508 1509
f 1504 1505 1506
f 1495 1505 1504
f 1504 1494 1495
f 1503 1494 1504
f 1503 1496 1494
f 1503 1502 1496
f 1496 1502 1497
f 1500 1497 1502
f 1501 1499 1498
f 1500 1501 1498
f 1498 1497 1500
f 1498 1499 1487
f 1487 1497 1498
f 1487 1489 1497
f 1497 1489 1496
f 1491 1496 1489
f 1491 1494 1496
f 1491 1493 1494
f 1494 1493 1495
f 1493 1491 1492
f 1490 1492 1491
f 1491 1489 1490
f 1489 1488 1490
f 1487 1488 1489
f 1487 1484 1488
f 1487 1485 1484
f 1484 1485 1486
f 1483 1474 1473
f 1473 1482 1483
f 1482 1481 1483
f 1480 1481 1482
f 1480 1478 1481
f 1478 1480 1479
f 1478 1479 1477
f 1477 1468 1478
f 1468 1477 1476
f 1476 1475 1468
f 1475 1476 1473
f 1473 1474 1475
f 1468 1471 1472
f 1468 1470 1471
f 1468 1469 1470
f 1467 1460 1404
f 1404 1405 1467
f 1466 1467 1405
f 1465 1466 1405
f 1405 1423 1465
f 1464 1465 1423
f 1423 1422 1464
f 1463 1464 1422
f 1422 1462 1463
f 1462 1422 1404
f 1404 1461 1462
f 1460 1461 1404
f 1284 1282 1290
f 1446 1456 1457
f 1457 1448 1446
f 1448 1457 1458
f 1458 1389 1448
f 1389 1458 1459
f 1459 1294 1389
f 1287 1294 1459
f 1287 1459 1312
f 1458 1312 1459
f 1314 1312 1458
f 1314 1458 1457
f 1314 1457 1315
f 1456 1315 1457
f 1316 1315 1456
f 1456 1318 1316
f 1318 1456 1442
f 1446 1442 1456
f 1446 1443 1442
f 1299 1297 1311
f 1442 1438 1318
f 1318 1438 1437
f 1312 1313 1455
f 1312 1455 1287
f 1455 1454 1287
f 1383 1287 1454
f 1453 1383 1454
f 1379 1381 1452
f 1379 1452 1451
f 1451 1377 1379
f 1377 1451 1450
f 1377 1450 1376
f 1449 1376 1450
f 1389 1292 1391
f 1448 1389 1391
f 1435 1448 1391
f 1446 1448 1435
f 1445 1435 1447
f 1446 1435 1445
f 1446 1445 1443
f 1445 1444 1443
f 1444 1441 1443
f 1443 1441 1439
f 1442 1443 1439
f 1439 1438 1442
f 1439 1441 1440
f 1440 1436 1439
f 1438 1439 1436
f 1436 1437 1438
f 1391 1434 1435
f 1390 1434 1391
f 1429 1430 1431
f 1431 1430 1433
f 1393 1394 1432
f 1394 1403 1432
f 1432 1403 1402
f 1399 1429 1431
f 1430 1429 1428
f 1430 1428 1426
f 1429 1399 1428
f 1399 1395 1428
f 1426 1428 1395
f 1331 1335 1403
f 1331 1403 1394
f 1426 1395 1397
f 1426 1397 1427
f 1420 1421 1418
f 1418 1417 1420
f 1419 1420 1417
f 1423 1415 1422
f 1414 1415 1423
f 1414 1423 1424
f 1424 1413 1414
f 1424 1407 1413
f 1424 1425 1407
f 1425 1424 1405
f 1423 1405 1424
f 1422 1401 1404
f 1400 1421 1420
f 1400 1420 1398
f 1398 1420 1419
f 1419 1396 1398
f 1416 1417 1418
f 1415 1414 1412
f 1414 1411 1412
f 1413 1411 1414
f 1413 1409 1411
f 1413 1407 1409
f 1410 1412 1411
f 1409 1410 1411
f 1409 1406 1410
f 1409 1407 1406
f 1406 1407 1408
f 1405 1404 1333
f 1333 1404 1335
f 1404 1403 1335
f 1401 1403 1404
f 1401 1402 1403
f 1399 1400 1398
f 1398 1395 1399
f 1395 1398 1396
f 1395 1396 1397
f 1394 1393 1392
f 1392 1291 1394
f 1291 1331 1394
f 1390 1392 1393
f 1291 1392 1292
f 1392 1391 1292
f 1390 1391 1392
f 1292 1389 1294
f 1371 1329 1327
f 1327 1385 1371
f 1386 1385 1327
f 1327 1337 1386
f 1387 1386 1337
f 1336 1330 1388
f 1289 1388 1330
f 1388 1289 1288
f 1288 1384 1388
f 1387 1382 1386
f 1380 1386 1382
f 1386 1380 1385
f 1380 1378 1385
f 1371 1385 1378
f 1375 1371 1378
f 1384 1288 1287
f 1287 1383 1384
f 1382 1381 1380
f 1379 1380 1381
f 1380 1379 1378
f 1379 1377 1378
f 1375 1378 1377
f 1376 1375 1377
f 1319 1373 1374
f 1319 1321 1373
f 1373 1321 1359
f 1323 1359 1321
f 1372 1371 1375
f 1374 1373 1370
f 1360 1370 1373
f 1359 1360 1373
f 1329 1371 1367
f 1371 1372 1367
f 1361 1364 1370
f 1360 1361 1370
f 1369 1325 1328
f 1368 1369 1328
f 1328 1329 1368
f 1367 1368 1329
f 1365 1363 1366
f 1365 1362 1363
f 1365 1364 1362
f 1362 1364 1361
f 1355 1363 1362
f 1354 1355 1362
f 1362 1361 1354
f 1353 1354 1361
f 1361 1360 1353
f 1360 1352 1353
f 1359 1352 1360
f 1359 1351 1352
f 1359 1323 1351
f 1351 1323 1350
f 1323 1324 1350
f 1324 1358 1350
f 1338 1350 1358
f 1356 1338 1358
f 1338 1356 1339
f 1356 1357 1339
f 1355 1354 1348
f 1354 1346 1348
f 1353 1346 1354
f 1353 1345 1346
f 1345 1353 1352
f 1345 1352 1343
f 1352 1351 1343
f 1341 1343 1351
f 1351 1350 1341
f 1338 1341 1350
f 1347 1349 1348
f 1348 1346 1347
f 1344 1347 1346
f 1346 1345 1344
f 1343 1344 1345
f 1343 1342 1344
f 1343 1341 1342
f 1342 1341 1340
f 1341 1338 1340
f 1338 1339 1340
f 1326 1337 1327
f 1334 1330 1336
f 1330 1334 1331
f 1334 1335 1331
f 1333 1335 1334
f 1332 1333 1334
f 1330 1331 1291
f 1291 1289 1330
f 1329 1328 1327
f 1325 1327 1328
f 1325 1326 1327
f 1322 1323 1321
f 1323 1322 1324
f 1322 1321 1320
f 1319 1320 1321
f 1318 1317 1316
f 1316 1317 1306
f 1306 1307 1316
f 1316 1307 1315
f 1307 1308 1315
f 1308 1314 1315
f 1309 1314 1308
f 1314 1309 1312
f 1310 1311 1313
f 1310 1313 1312
f 1312 1309 1310
f 1299 1311 1310
f 1310 1309 1299
f 1309 1301 1299
f 1308 1301 1309
f 1301 1308 1303
f 1308 1307 1303
f 1307 1305 1303
f 1306 1305 1307
f 1304 1303 1305
f 1303 1304 1302
f 1302 1301 1303
f 1302 1300 1301
f 1301 1300 1299
f 1300 1298 1299
f 1298 1297 1299
f 1296 1297 1298
f 1287 1286 1295
f 1295 1294 1287
f 1295 1293 1294
f 1294 1293 1292
f 1293 1290 1292
f 1291 1292 1290
f 1289 1291 1290
f 1290 1282 1289
f 1288 1289 1282
f 1282 1285 1288
f 1287 1288 1285
f 1285 1286 1287
f 1284 1283 1282
f 1283 1280 1282
f 1280 1281 1282
f 1689 1658 1656
f 1689 1656 1688
f 1688 1656 1654
f 1688 1654 1687
f 1687 1654 1652
f 1687 1652 1686
f 1686 1652 1650
f 1686 1650 1685
f 1684 1689 1688
f 1684 1688 1683
f 1683 1688 1687
f 1683 1687 1682
f 1682 1687 1686
f 1682 1686 1681
f 1681 1686 1685
f 1681 1685 1680
f 1679 1684 1683
f 1679 1683 1678
f 1678 1683 1682
f 1678 1682 1677
f 1677 1682 1681
f 1677 1681 1676
f 1676 1681 1680
f 1676 1680 1675
f 1674 1679 1678
f 1674 1678 1673
f 1673 1678 1677
f 1673 1677 1672
f 1672 1677 1676
f 1672 1676 1671
f 1671 1676 1675
f 1671 1675 1670
f 1669 1674 1673
f 1669 1673 1668
f 1668 1673 1672
f 1668 1672 1667
f 1667 1672 1671
f 1667 1671 1666
f 1666 1671 1670
f 1666 1670 1665
f 1664 1669 1668
f 1664 1668 1663
f 1663 1668 1667
f 1663 1667 1662
f 1662 1667 1666
f 1662 1666 1661
f 1661 1666 1665
f 1661 1665 1660
f 1659 1664 1663
f 1659 1663 1657
f 1657 1663 1662
f 1657 1662 1655
f 1655 1662 1661
f 1655 1661 1653
f 1653 1661 1660
f 1653 1660 1651
f 1658 1659 1657
f 1658 1657 1656
f 1656 1657 1655
f 1656 1655 1654
f 1654 1655 1653
f 1654 1653 1652
f 1652 1653 1651
f 1652 1651 1650
f 1696 1698 1729
f 1728 1696 1729
f 1694 1696 1728
f 1727 1694 1728
f 1692 1694 1727
f 1726 1692 1727
f 1690 1692 1726
f 1725 1690 1726
f 1728 1729 1724
f 1723 1728 1724
f 1727 1728 1723
f 1722 1727 1723
f 1726 1727 1722
f 1721 1726 1722
f 1725 1726 1721
f 1720 1725 1721
f 1723 1724 1719
f 1718 1723 1719
f 1722 1723 1718
f 1717 1722 1718
f 1721 1722 1717
f 1716 1721 1717
f 1720 1721 1716
f 1715 1720 1716
f 1718 1719 1714
f 1713 1718 1714
f 1717 1718 1713
f 1712 1717 1713
f 1716 1717 1712
f 1711 1716 1712
f 1715 1716 1711
f 1710 1715 1711
f 1713 1714 1709
f 1708 1713 1709
f 1712 1713 1708
f 1707 1712 1708
f 1711 1712 1707
f 1706 1711 1707
f 1710 1711 1706
f 1705 1710 1706
f 1708 1709 1704
f 1703 1708 1704
f 1707 1708 1703
f 1702 1707 1703
f 1706 1707 1702
f 1701 1706 1702
f 1705 1706 1701
f 1700 1705 1701
f 1703 1704 1699
f 1697 1703 1699
f 1702 1703 1697
f 1695 1702 1697
f 1701 1702 1695
f 1693 1701 1695
f 1700 1701 1693
f 1691 1700 1693
f 1697 1699 1698
f 1696 1697 1698
f 1695 1697 1696
f 1694 1695 1696
f 1693 1695 1694
f 1692 1693 1694
f 1691 1693 1692
f 1690 1691 1692
f 1736 1769 1738
f 1736 1768 1769
f 1734 1768 1736
f 1734 1767 1768
f 1730 1767 1734
f 1730 1766 1767
f 1731 1766 1730
f 1731 1765 1766
f 1768 1764 1769
f 1768 1763 1764
f 1767 1763 1768
f 1767 1762 1763
f 1766 1762 1767
f 1766 1761 1762
f 1765 1761 1766
f 1765 1760 1761
f 1763 1759 1764
f 1763 1758 1759
f 1762 1758 1763
f 1762 1757 1758
f 1761 1757 1762
f 1761 1756 1757
f 1760 1756 1761
f 1760 1755 1756
f 1758 1754 1759
f 1758 1753 1754
f 1757 1753 1758
f 1757 1752 1753
f 1756 1752 1757
f 1756 1751 1752
f 1755 1751 1756
f 1755 1750 1751
f 1753 1749 1754
f 1753 1748 1749
f 1752 1748 1753
f 1752 1747 1748
f 1751 1747 1752
f 1751 1746 1747
f 1750 1746 1751
f 1750 1745 1746
f 1748 1744 1749
f 1748 1743 1744
f 1747 1743 1748
f 1747 1742 1743
f 1746 1742 1747
f 1746 1741 1742
f 1745 1741 1746
f 1745 1740 1741
f 1743 1739 1744
f 1743 1737 1739
f 1742 1737 1743
f 1742 1735 1737
f 1741 1735 1742
f 1741 1733 1735
f 1740 1733 1741
f 1740 1732 1733
f 1737 1738 1739
f 1737 1736 1738
f 1735 1736 1737
f 1735 1734 1736
f 1733 1734 1735
f 1733 1730 1734
f 1732 1730 1733
f 1732 1731 1730
f 1778 1809 1776
f 1809 1808 1776
f 1776 1808 1774
f 1808 1807 1774
f 1774 1807 1770
f 1807 1806 1770
f 1770 1806 1771
f 1806 1805 1771
f 1809 1804 1808
f 1804 1803 1808
f 1808 1803 1807
f 1803 1802 1807
f 1807 1802 1806
f 1802 1801 1806
f 1806 1801 1805
f 1801 1800 1805
f 1804 1799 1803
f 1799 1798 1803
f 1803 1798 1802
f 1798 1797 1802
f 1802 1797 1801
f 1797 1796 1801
f 1801 1796 1800
f 1796 1795 1800
f 1799 1794 1798
f 1794 1793 1798
f 1798 1793 1797
f 1793 1792 1797
f 1797 1792 1796
f 1792 1791 1796
f 1796 1791 1795
f 1791 1790 1795
f 1794 1789 1793
f 1789 1788 1793
f 1793 1788 1792
f 1788 1787 1792
f 1792 1787 1791
f 1787 1786 1791
f 1791 1786 1790
f 1786 1785 1790
f 1789 1784 1788
f 1784 1783 1788
f 1788 1783 1787
f 1783 1782 1787
f 1787 1782 1786
f 1782 1781 1786
f 1786 1781 1785
f 1781 1780 1785
f 1784 1779 1783
f 1779 1777 1783
f 1783 1777 1782
f 1777 1775 1782
f 1782 1775 1781
f 1775 1773 1781
f 1781 1773 1780
f 1773 1772 1780
f 1779 1778 1777
f 1778 1776 1777
f 1777 1776 1775
f 1776 1774 1775
f 1775 1774 1773
f 1774 1770 1773
f 1773 1770 1772
f 1770 1771 1772
f 1849 1818 1816
f 1849 1816 1848
f 1848 1816 1814
f 1848 1814 1847
f 1847 1814 1812
f 1847 1812 1846
f 1846 1812 1810
f 1846 1810 1845
f 1844 1849 1848
f 1844 1848 1843
f 1843 1848 1847
f 1843 1847 1842
f 1842 1847 1846
f 1842 1846 1841
f 1841 1846 1845
f 1841 1845 1840
f 1839 1844 1843
f 1839 1843 1838
f 1838 1843 1842
f 1838 1842 1837
f 1837 1842 1841
f 1837 1841 1836
f 1836 1841 1840
f 1836 1840 1835
f 1834 1839 1838
f 1834 1838 1833
f 1833 1838 1837
f 1833 1837 1832
f 1832 1837 1836
f 1832 1836 1831
f 1831 1836 1835
f 1831 1835 1830
f 1829 1834 1833
f 1829 1833 1828
f 1828 1833 1832
f 1828 1832 1827
f 1827 1832 1831
f 1827 1831 1826
f 1826 1831 1830
f 1826 1830 1825
f 1824 1829 1828
f 1824 1828 1823
f 1823 1828 1827
f 1823 1827 1822
f 1822 1827 1826
f 1822 1826 1821
f 1821 1826 1825
f 1821 1825 1820
f 1819 1824 1823
f 1819 1823 1817
f 1817 1823 1822
f 1817 1822 1815
f 1815 1822 1821
f 1815 1821 1813
f 1813 1821 1820
f 1813 1820 1811
f 1818 1819 1817
f 1818 1817 1816
f 1816 1817 1815
f 1816 1815 1814
f 1814 1815 1813
f 1814 1813 1812
f 1812 1813 1811
f 1812 1811 1810
f 1856 1858 1889
f 1888 1856 1889
f 1854 1856 1888
f 1887 1854 1888
f 1852 1854 1887
f 1886 1852 1887
f 1850 1852 1886
f 1885 1850 1886
f 1888 1889 1884
f 1883 1888 1884
f 1887 1888 1883
f 1882 1887 1883
f 1886 1887 1882
f 1881 1886 1882
f 1885 1886 1881
f 1880 1885 1881
f 1883 1884 1879
f 1878 1883 1879
f 1882 1883 1878
f 1877 1882 1878
f 1881 1882 1877
f 1876 1881 1877
f 1880 1881 1876
f 1875 1880 1876
f 1878 1879 1874
f 1873 1878 1874
f 1877 1878 1873
f 1872 1877 1873
f 1876 1877 1872
f 1871 1876 1872
f 1875 1876 1871
f 1870 1875 1871
f 1873 1874 1869
f 1868 1873 1869
f 1872 1873 1868
f 1867 1872 1868
f 1871 1872 1867
f 1866 1871 1867
f 1870 1871 1866
f 1865 1870 1866
f 1868 1869 1864
f 1863 1868 1864
f 1867 1868 1863
f 1862 1867 1863
f 1866 1867 1862
f 1861 1866 1862
f 1865 1866 1861
f 1860 1865 1861
f 1863 1864 1859
f 1857 1863 1859
f 1862 1863 1857
f 1855 1862 1857
f 1861 1862 1855
f 1853 1861 1855
f 1860 1861 1853
f 1851 1860 1853
f 1857 1859 1858
f 1856 1857 1858
f 1855 1857 1856
f 1854 1855 1856
f 1853 1855 1854
f 1852 1853 1854
f 1851 1853 1852
f 1850 1851 1852
f 1927 1928 1929
f 1927 1929 1926
f 1926 1929 1925
f 1926 1925 1924
f 1924 1925 1923
f 1924 1923 1922
f 1922 1923 1921
f 1922 1921 1920
f 1919 1927 1926
f 1919 1926 1918
f 1918 1926 1924
f 1918 1924 1917
f 1917 1924 1922
f 1917 1922 1916
f 1916 1922 1920
f 1916 1920 1915
f 1914 1919 1918
f 1914 1918 1913
f 1913 1918 1917
f 1913 1917 1912
f 1912 1917 1916
f 1912 1916 1911
f 1911 1916 1915
f 1911 1915 1910
f 1909 1914 1913
f 1909 1913 1908
f 1908 1913 1912
f 1908 1912 1907
f 1907 1912 1911
f 1907 1911 1906
f 1906 1911 1910
f 1906 1910 1905
f 1904 1909 1908
f 1904 1908 1903
f 1903 1908 1907
f 1903 1907 1902
f 1902 1907 1906
f 1902 1906 1901
f 1901 1906 1905
f 1901 1905 1900
f 1899 1904 1903
f 1899 1903 1898
f 1898 1903 1902
f 1898 1902 1897
f 1897 1902 1901
f 1897 1901 1896
f 1896 1901 1900
f 1896 1900 1895
f 1894 1899 1898
f 1894 1898 1893
f 1893 1898 1897
f 1893 1897 1892
f 1892 1897 1896
f 1892 1896 1891
f 1891 1896 1895
f 1891 1895 1890
f 1928 1894 1893
f 1928 1893 1929
f 1929 1893 1892
f 1929 1892 1925
f 1925 1892 1891
f 1925 1891 1923
f 1923 1891 1890
f 1923 1890 1921
f 1969 1968 1967
f 1966 1969 1967
f 1965 1969 1966
f 1964 1965 1966
f 1963 1965 1964
f 1962 1963 1964
f 1961 1963 1962
f 1960 1961 1962
f 1966 1967 1959
f 1958 1966 1959
f 1964 1966 1958
f 1957 1964 1958
f 1962 1964 1957
f 1956 1962 1957
f 1960 1962 1956
f 1955 1960 1956
f 1958 1959 1954
f 1953 1958 1954
f 1957 1958 1953
f 1952 1957 1953
f 1956 1957 1952
f 1951 1956 1952
f 1955 1956 1951
f 1950 1955 1951
f 1953 1954 1949
f 1948 1953 1949
f 1952 1953 1948
f 1947 1952 1948
f 1951 1952 1947
f 1946 1951 1947
f 1950 1951 1946
f 1945 1950 1946
f 1948 1949 1944
f 1943 1948 1944
f 1947 1948 1943
f 1942 1947 1943
f 1946 1947 1942
f 1941 1946 1942
f 1945 1946 1941
f 1940 1945 1941
f 1943 1944 1939
f 1938 1943 1939
f 1942 1943 1938
f 1937 1942 1938
f 1941 1942 1937
f 1936 1941 1937
f 1940 1941 1936
f 1935 1940 1936
f 1938 1939 1934
f 1933 1938 1934
f 1937 1938 1933
f 1932 1937 1933
f 1936 1937 1932
f 1931 1936 1932
f 1935 1936 1931
f 1930 1935 1931
f 1933 1934 1968
f 1969 1933 1968
f 1932 1933 1969
f 1965 1932 1969
f 1931 1932 1965
f 1963 1931 1965
f 1930 1931 1963
f 1961 1930 1963
f 2007 2008 2009
f 2007 2009 2006
f 2006 2009 2005
f 2006 2005 2004
f 2004 2005 2003
f 2004 2003 2002
f 2002 2003 2001
f 2002 2001 2000
f 1999 2007 2006
f 1999 2006 1998
f 1998 2006 2004
f 1998 2004 1997
f 1997 2004 2002
f 1997 2002 1996
f 1996 2002 2000
f 1996 2000 1995
f 1994 1999 1998
f 1994 1998 1993
f 1993 1998 1997
f 1993 1997 1992
f 1992 1997 1996
f 1992 1996 1991
f 1991 1996 1995
f 1991 1995 1990
f 1989 1994 1993
f 1989 1993 1988
f 1988 1993 1992
f 1988 1992 1987
f 1987 1992 1991
f 1987 1991 1986
f 1986 1991 1990
f 1986 1990 1985
f 1984 1989 1988
f 1984 1988 1983
f 1983 1988 1987
f 1983 1987 1982
f 1982 1987 1986
f 1982 1986 1981
f 1981 1986 1985
f 1981 1985 1980
f 1979 1984 1983
f 1979 1983 1978
f 1978 1983 1982
f 1978 1982 1977
f 1977 1982 1981
f 1977 1981 1976
f 1976 1981 1980
f 1976 1980 1975
f 1974 1979 1978
f 1974 1978 1973
f 1973 1978 1977
f 1973 1977 1972
f 1972 1977 1976
f 1972 1976 1971
f 1971 1976 1975
f 1971 1975 1970
f 2008 1974 1973
f 2008 1973 2009
f 2009 1973 1972
f 2009 1972 2005
f 2005 1972 1971
f 2005 1971 2003
f 2003 1971 1970
f 2003 1970 2001
f 2049 2048 2047
f 2046 2049 2047
f 2045 2049 2046
f 2044 2045 2046
f 2043 2045 2044
f 2042 2043 2044
f 2041 2043 2042
f 2040 2041 2042
f 2046 2047 2039
f 2038 2046 2039
f 2044 2046 2038
f 2037 2044 2038
f 2042 2044 2037
f 2036 2042 2037
f 2040 2042 2036
f 2035 2040 2036
f 2038 2039 2034
f 2033 2038 2034
f 2037 2038 2033
f 2032 2037 2033
f 2036 2037 2032
f 2031 2036 2032
f 2035 2036 2031
f 2030 2035 2031
f 2033 2034 2029
f 2028 2033 2029
f 2032 2033 2028
f 2027 2032 2028
f 2031 2032 2027
f 2026 2031 2027
f 2030 2031 2026
f 2025 2030 2026
f 2028 2029 2024
f 2023 2028 2024
f 2027 2028 2023
f 2022 2027 2023
f 2026 2027 2022
f 2021 2026 2022
f 2025 2026 2021
f 2020 2025 2021
f 2023 2024 2019
f 2018 2023 2019
f 2022 2023 2018
f 2017 2022 2018
f 2021 2022 2017
f 2016 2021 2017
f 2020 2021 2016
f 2015 2020 2016
f 2018 2019 2014
f 2013 2018 2014
f 2017 2018 2013
f 2012 2017 2013
f 2016 2017 2012
f 2011 2016 2012
f 2015 2016 2011
f 2010 2015 2011
f 2013 2014 2048
f 2049 2013 2048
f 2012 2013 2049
f 2045 2012 2049
f 2011 2012 2045
f 2043 2011 2045
f 2010 2011 2043
f 2041 2010 2043
