1113 2049
0.288 0.182 0.085
0.288 0.182 0.739
0.288 -0.172 0.739
0.288 -0.172 0.085
0.363 -0.132 0.236
0.363 -0.142 0.303
0.363 -0.132 0.371
0.363 -0.103 0.427
0.363 -0.059 0.465
0.363 -0.007 0.479
0.363 0.045 0.465
0.363 0.089 0.427
0.363 0.118 0.371
0.363 0.128 0.303
0.363 0.118 0.236
0.363 0.089 0.179
0.363 0.045 0.141
0.363 -0.007 0.128
0.363 -0.103 0.179
0.363 -0.059 0.141
0.315 -0.094 0.201
0.315 -0.121 0.253
0.315 -0.054 0.166
0.340 -0.057 0.152
0.340 -0.007 0.139
0.340 0.043 0.152
0.340 0.086 0.189
0.340 0.115 0.244
0.340 0.125 0.310
0.340 0.115 0.375
0.340 0.086 0.430
0.340 0.043 0.467
0.340 -0.007 0.480
0.340 -0.057 0.467
0.340 -0.100 0.430
0.340 -0.128 0.375
0.340 -0.139 0.310
0.340 -0.128 0.244
0.340 -0.100 0.189
0.473 -0.091 0.148
0.473 -0.117 0.198
0.473 -0.126 0.257
0.473 -0.117 0.316
0.473 -0.091 0.366
0.473 -0.052 0.399
0.473 -0.007 0.411
0.473 0.038 0.399
0.473 0.077 0.366
0.473 0.103 0.316
0.473 0.112 0.257
0.473 0.103 0.198
0.473 0.077 0.148
0.473 0.038 0.115
0.473 -0.007 0.103
0.473 -0.052 0.115
0.487 -0.050 0.120
0.487 -0.007 0.109
0.487 0.036 0.120
0.487 0.073 0.152
0.487 0.097 0.199
0.487 0.106 0.255
0.487 0.097 0.311
0.487 0.073 0.359
0.487 0.036 0.390
0.487 -0.007 0.401
0.487 -0.050 0.390
0.487 -0.087 0.359
0.487 -0.111 0.311
0.487 -0.120 0.255
0.487 -0.111 0.199
0.487 -0.087 0.152
0.522 -0.073 0.249
0.533 -0.052 0.249
0.540 -0.030 0.249
0.540 -0.028 0.261
0.533 -0.049 0.271
0.522 -0.068 0.282
0.522 -0.053 0.309
0.533 -0.039 0.290
0.540 -0.023 0.270
0.540 -0.016 0.277
0.533 -0.024 0.303
0.522 -0.032 0.328
0.522 -0.007 0.334
0.533 -0.007 0.308
0.540 -0.007 0.279
0.540 0.002 0.277
0.533 0.010 0.303
0.522 0.018 0.328
0.522 0.039 0.309
0.533 0.025 0.290
0.540 0.009 0.270
0.540 0.014 0.261
0.533 0.035 0.271
0.522 0.054 0.282
0.522 0.059 0.249
0.533 0.038 0.249
0.540 0.016 0.249
0.540 0.014 0.238
0.533 0.035 0.227
0.522 0.054 0.216
0.522 0.039 0.189
0.533 0.025 0.208
0.540 0.009 0.228
0.540 0.002 0.221
0.533 0.010 0.195
0.522 0.018 0.170
0.522 -0.007 0.164
0.533 -0.007 0.191
0.540 -0.007 0.219
0.540 -0.016 0.221
0.533 -0.024 0.195
0.522 -0.032 0.170
0.522 -0.053 0.189
0.533 -0.039 0.208
0.540 -0.023 0.228
0.540 -0.028 0.238
0.533 -0.049 0.227
0.522 -0.068 0.216
0.542 -0.007 0.249
0.500 -0.078 0.162
0.500 -0.099 0.204
0.500 -0.107 0.254
0.500 -0.099 0.303
0.500 -0.078 0.345
0.500 -0.045 0.373
0.500 -0.007 0.383
0.500 0.031 0.373
0.500 0.064 0.345
0.500 0.085 0.303
0.500 0.093 0.254
0.500 0.085 0.204
0.500 0.064 0.162
0.500 0.031 0.134
0.500 -0.007 0.124
0.500 -0.045 0.134
0.314 -0.007 0.153
0.314 0.041 0.166
0.314 0.081 0.200
0.314 0.108 0.253
0.314 0.117 0.314
0.314 0.108 0.376
0.314 0.081 0.428
0.314 0.041 0.463
0.314 -0.007 0.475
0.314 -0.054 0.463
0.314 -0.095 0.428
0.314 -0.122 0.376
0.314 -0.131 0.314
0.296 -0.087 0.215
0.296 -0.112 0.262
0.296 -0.120 0.319
0.296 -0.112 0.375
0.296 -0.087 0.423
0.296 -0.050 0.455
0.296 -0.007 0.466
0.296 0.036 0.455
0.296 0.073 0.423
0.296 0.098 0.375
0.296 0.107 0.319
0.296 0.098 0.262
0.296 0.073 0.215
0.296 0.036 0.183
0.296 -0.007 0.172
0.296 -0.050 0.183
0.279 -0.044 0.211
0.279 -0.007 0.201
0.279 0.030 0.211
0.279 0.061 0.238
0.279 0.082 0.278
0.279 0.089 0.326
0.279 0.082 0.373
0.279 0.061 0.414
0.279 0.030 0.441
0.279 -0.007 0.450
0.279 -0.044 0.441
0.279 -0.075 0.414
0.279 -0.096 0.373
0.279 -0.103 0.326
0.279 -0.096 0.278
0.279 -0.075 0.238
0.174 0.612 1.647
0.162 0.612 1.647
0.124 0.612 1.647
0.112 0.612 1.647
0.157 0.612 1.551
0.185 0.612 1.551
0.186 0.612 1.511
0.128 0.612 1.511
0.099 0.612 1.551
0.127 0.612 1.551
0.127 0.651 1.551
0.099 0.651 1.551
0.128 0.651 1.511
0.186 0.651 1.511
0.185 0.651 1.551
0.157 0.651 1.551
0.112 0.651 1.647
0.124 0.651 1.647
0.162 0.651 1.647
0.174 0.651 1.647
0.174 -0.677 1.647
0.162 -0.677 1.647
0.124 -0.677 1.647
0.112 -0.677 1.647
0.157 -0.677 1.551
0.185 -0.677 1.551
0.186 -0.677 1.511
0.128 -0.677 1.511
0.099 -0.677 1.551
0.127 -0.677 1.551
0.291 -0.013 1.445
0.322 -0.013 1.407
0.318 -0.013 1.445
0.127 -0.639 1.551
0.099 -0.639 1.551
-0.020 -0.013 1.151
0.011 -0.013 1.113
0.007 -0.013 1.151
0.128 -0.639 1.511
0.186 -0.639 1.511
0.185 -0.639 1.551
0.198 -0.013 1.151
0.202 -0.013 1.113
0.171 -0.013 1.151
0.157 -0.639 1.551
0.112 -0.639 1.647
0.032 -0.013 1.639
0.049 -0.013 1.476
0.044 -0.013 1.639
0.124 -0.639 1.647
0.162 -0.639 1.647
0.186 -0.013 1.639
0.209 -0.013 1.476
0.198 -0.013 1.639
0.174 -0.639 1.647
-0.025 0.554 2.254
0.099 -0.554 2.132
-0.003 -0.554 2.521
0.116 -0.554 2.288
0.022 -0.554 2.403
-0.127 -0.554 2.622
-0.029 -0.554 2.622
-0.126 -0.554 2.133
0.115 -0.554 2.147
-0.022 -0.554 2.613
-0.126 -0.554 2.378
0.071 -0.554 2.133
0.089 -0.554 2.345
-0.078 -0.554 2.622
-0.071 -0.554 2.373
-0.074 -0.554 2.498
0.026 -0.554 2.133
0.055 -0.554 2.374
-0.025 -0.554 2.254
0.080 -0.554 2.239
0.108 -0.554 2.210
0.041 -0.554 2.254
-0.071 0.554 2.373
-0.074 0.554 2.498
0.080 0.554 2.239
0.108 0.554 2.210
0.041 0.554 2.254
0.059 -0.308 2.148
0.019 -0.304 2.365
0.019 -0.554 2.365
0.102 -0.554 2.148
-0.012 -0.554 2.382
-0.012 -0.304 2.382
-0.017 -0.197 2.381
0.011 -0.197 2.363
0.031 -0.197 2.246
0.008 -0.130 2.232
-0.000 -0.131 2.348
-0.032 -0.132 2.365
-0.032 0.001 2.365
-0.000 0.001 2.348
0.008 0.001 2.232
0.129 -0.054 2.509
0.132 -0.033 2.512
0.132 -0.041 2.448
-0.073 -0.162 2.509
-0.075 -0.161 2.566
-0.067 -0.177 2.564
-0.082 0.001 2.351
-0.099 0.001 2.584
-0.124 0.001 2.609
-0.124 -0.132 2.609
-0.099 -0.131 2.584
-0.082 -0.130 2.351
-0.032 -0.185 2.351
-0.047 -0.194 2.584
-0.068 -0.208 2.609
-0.064 -0.225 2.609
-0.064 -0.554 2.609
-0.021 -0.554 2.351
-0.038 -0.554 2.584
-0.038 -0.225 2.584
-0.021 -0.225 2.351
0.059 0.308 2.148
0.019 0.304 2.365
0.019 0.554 2.365
0.102 0.554 2.148
-0.012 0.554 2.382
-0.012 0.304 2.382
-0.017 0.197 2.381
0.011 0.197 2.363
0.031 0.197 2.246
0.008 0.130 2.232
-0.000 0.131 2.348
-0.032 0.132 2.365
-0.032 -0.001 2.365
-0.000 -0.001 2.348
0.008 -0.001 2.232
0.129 0.054 2.509
0.132 0.033 2.512
0.132 0.041 2.448
-0.073 0.162 2.509
-0.075 0.161 2.566
-0.067 0.177 2.564
-0.082 -0.001 2.351
-0.099 -0.001 2.584
-0.124 -0.001 2.609
-0.124 0.132 2.609
-0.099 0.131 2.584
-0.082 0.130 2.351
-0.032 0.185 2.351
-0.047 0.194 2.584
-0.068 0.208 2.609
-0.064 0.225 2.609
-0.064 0.554 2.609
-0.021 0.554 2.351
-0.038 0.554 2.584
-0.038 0.225 2.584
-0.021 0.225 2.351
0.009 0.612 2.301
0.014 0.570 2.223
-0.065 0.570 2.488
0.014 0.659 2.223
-0.044 0.570 2.295
-0.045 0.612 2.295
-0.022 0.570 2.249
-0.022 0.626 2.249
-0.057 0.570 2.367
-0.057 0.590 2.367
0.029 0.626 2.263
0.058 0.679 2.140
0.041 0.570 2.254
0.108 0.570 2.210
0.080 0.570 2.239
-0.025 0.570 2.254
0.026 0.554 2.133
0.055 0.554 2.374
0.055 0.570 2.374
0.026 0.570 2.133
-0.074 0.570 2.498
-0.071 0.570 2.373
-0.078 0.570 2.622
-0.078 0.554 2.622
0.089 0.570 2.345
0.089 0.554 2.345
0.071 0.570 2.133
0.071 0.554 2.133
-0.126 0.570 2.378
-0.126 0.554 2.378
-0.022 0.570 2.613
-0.022 0.554 2.613
-0.017 0.646 2.140
-0.065 0.626 2.175
-0.112 0.582 2.500
-0.112 0.570 2.500
-0.096 0.604 2.164
-0.096 0.570 2.164
-0.112 0.591 2.206
-0.112 0.570 2.206
-0.065 0.626 2.140
-0.112 0.579 2.622
-0.112 0.570 2.622
-0.065 0.570 2.140
0.115 0.570 2.147
-0.126 0.570 2.133
-0.029 0.570 2.622
-0.127 0.570 2.622
0.022 0.570 2.403
0.116 0.570 2.288
-0.003 0.570 2.521
0.099 0.570 2.132
0.099 0.554 2.132
-0.003 0.554 2.521
0.116 0.554 2.288
0.022 0.554 2.403
-0.127 0.554 2.622
-0.029 0.554 2.622
-0.126 0.554 2.133
0.115 0.554 2.147
0.009 -0.612 2.301
0.014 -0.570 2.223
-0.065 -0.570 2.488
0.014 -0.659 2.223
-0.044 -0.570 2.295
-0.045 -0.612 2.295
-0.022 -0.570 2.249
-0.022 -0.626 2.249
-0.057 -0.570 2.367
-0.057 -0.590 2.367
0.029 -0.626 2.263
0.058 -0.679 2.140
0.041 -0.570 2.254
0.108 -0.570 2.210
0.080 -0.570 2.239
-0.025 -0.570 2.254
0.055 -0.570 2.374
0.026 -0.570 2.133
-0.074 -0.570 2.498
-0.071 -0.570 2.373
-0.078 -0.570 2.622
0.089 -0.570 2.345
0.071 -0.570 2.133
-0.126 -0.570 2.378
-0.022 -0.570 2.613
-0.017 -0.646 2.140
-0.065 -0.626 2.175
-0.112 -0.582 2.500
-0.112 -0.570 2.500
-0.096 -0.604 2.164
-0.096 -0.570 2.164
-0.112 -0.591 2.206
-0.112 -0.570 2.206
-0.065 -0.626 2.140
-0.112 -0.579 2.622
-0.112 -0.570 2.622
-0.065 -0.570 2.140
0.115 -0.570 2.147
-0.126 -0.570 2.133
-0.029 -0.570 2.622
-0.127 -0.570 2.622
0.022 -0.570 2.403
0.116 -0.570 2.288
-0.003 -0.570 2.521
0.099 -0.570 2.132
0.471 -0.526 -1.765
0.471 0.526 -1.765
0.424 -0.526 -1.624
0.424 0.526 -1.624
0.641 -0.521 -1.457
0.254 -0.521 -1.516
0.146 -0.521 -1.884
0.689 -0.521 -1.884
0.149 -0.521 -1.548
0.285 -0.521 -1.457
0.689 -0.521 -1.519
0.665 -0.521 -1.670
0.418 -0.521 -1.884
0.418 -0.536 -1.884
0.665 -0.536 -1.670
0.689 -0.536 -1.519
0.285 -0.536 -1.457
0.149 -0.536 -1.548
0.689 -0.536 -1.884
0.146 -0.536 -1.884
0.254 -0.536 -1.516
0.641 -0.536 -1.457
0.641 0.522 -1.457
0.254 0.522 -1.516
0.146 0.522 -1.884
0.689 0.522 -1.884
0.149 0.522 -1.548
0.285 0.522 -1.457
0.689 0.522 -1.519
0.665 0.522 -1.670
0.418 0.522 -1.884
0.668 -0.526 -1.857
0.668 0.526 -1.857
0.566 0.526 -1.648
0.566 -0.526 -1.648
0.212 -0.526 -1.715
0.212 0.526 -1.715
0.418 0.537 -1.884
0.665 0.537 -1.670
0.689 0.537 -1.519
0.285 0.537 -1.457
0.149 0.537 -1.548
0.689 0.537 -1.884
0.146 0.537 -1.884
0.254 0.537 -1.516
0.641 0.537 -1.457
0.541 -0.526 -1.635
0.519 -0.526 -1.505
0.519 0.526 -1.505
0.541 0.526 -1.635
0.610 0.526 -1.857
0.491 0.526 -1.755
0.491 -0.526 -1.755
0.610 -0.526 -1.857
0.187 -0.526 -1.703
0.165 -0.526 -1.573
0.165 0.526 -1.573
0.187 0.526 -1.703
-0.126 0.405 0.077
-0.126 -0.405 0.077
-0.096 -0.374 0.371
-0.096 -0.444 0.334
-0.096 -0.508 0.263
0.253 -0.515 0.334
0.256 -0.444 0.371
-0.097 -0.289 0.385
0.259 -0.385 0.385
0.259 -0.385 0.342
-0.097 -0.289 0.342
0.256 -0.444 0.328
0.253 -0.515 0.291
-0.096 -0.508 0.220
-0.096 -0.444 0.291
-0.096 -0.374 0.328
0.081 -0.402 0.281
0.081 0.390 0.281
-0.096 0.362 0.328
-0.096 0.432 0.291
-0.096 0.496 0.220
0.253 0.503 0.291
0.256 0.432 0.328
-0.097 0.277 0.342
0.259 0.373 0.342
0.259 0.373 0.385
-0.097 0.277 0.385
0.256 0.432 0.371
0.253 0.503 0.334
-0.096 0.496 0.263
-0.096 0.432 0.334
-0.096 0.362 0.371
0.637 -0.001 0.001
0.704 -0.028 -0.003
0.564 -0.046 0.004
0.575 -0.056 0.004
0.681 -0.044 -0.003
0.681 0.042 -0.003
0.575 0.055 0.004
0.564 0.045 0.004
0.704 0.026 -0.003
0.711 -0.000 -0.003
0.564 -0.000 0.004
0.564 -0.000 0.020
0.711 -0.000 0.012
0.704 0.026 0.012
0.564 0.045 0.020
0.575 0.055 0.020
0.681 0.042 0.012
0.681 -0.044 0.012
0.575 -0.056 0.020
0.564 -0.046 0.020
0.704 -0.028 0.012
-0.127 0.000 -1.066
-0.127 0.258 -1.066
-0.127 -0.257 -1.066
-0.127 -0.257 -0.882
-0.127 0.258 -0.882
-0.127 0.258 -0.675
-0.127 -0.257 -0.675
-0.127 -0.257 -0.468
-0.127 0.258 -0.468
-0.127 0.258 -0.176
-0.127 -0.257 -0.176
-0.127 -0.257 0.077
-0.127 0.258 0.077
-0.121 -0.088 -1.386
-0.121 0.087 -1.386
-0.120 0.087 -1.536
-0.120 -0.088 -1.536
-0.120 0.087 -1.668
-0.120 -0.088 -1.668
-0.118 -0.088 -1.801
-0.118 0.087 -1.801
-0.118 0.099 -1.801
-0.118 -0.101 -1.801
0.039 0.174 -1.801
0.039 -0.175 -1.801
0.039 -0.328 -1.801
0.039 0.326 -1.801
0.037 -0.101 -1.801
0.037 0.099 -1.801
0.037 0.087 -1.801
0.037 -0.088 -1.801
0.052 0.099 -1.801
0.052 -0.101 -1.801
0.054 0.326 -1.801
0.054 -0.328 -1.801
0.050 -0.088 -1.801
0.054 -0.175 -1.801
0.054 0.174 -1.801
0.050 0.087 -1.801
-0.004 0.087 -1.668
-0.010 0.174 -1.655
-0.010 -0.175 -1.655
-0.004 -0.088 -1.668
-0.010 -0.328 -1.668
-0.010 0.326 -1.668
-0.052 0.326 -1.536
-0.052 -0.328 -1.536
-0.048 -0.088 -1.536
-0.052 -0.175 -1.522
-0.052 0.174 -1.522
-0.048 0.087 -1.536
-0.095 0.087 -1.386
-0.096 0.174 -1.373
-0.096 -0.175 -1.373
-0.095 -0.088 -1.386
-0.096 -0.328 -1.386
-0.096 0.326 -1.386
-0.120 0.554 -0.675
-0.120 0.560 -0.467
-0.120 0.326 -1.194
-0.120 0.538 -0.887
-0.120 0.518 -1.137
-0.120 0.516 -1.181
-0.120 0.528 -1.072
-0.120 -0.530 -1.072
-0.120 -0.518 -1.181
-0.120 -0.520 -1.137
-0.120 -0.541 -0.887
-0.120 -0.328 -1.194
-0.120 -0.563 -0.467
-0.120 -0.556 -0.675
0.445 0.164 0.071
0.445 0.229 0.071
0.300 -0.372 0.177
0.322 0.265 0.071
0.298 -0.372 0.075
0.285 -0.440 0.368
0.282 -0.523 0.325
0.288 -0.597 0.242
0.291 -0.631 0.155
0.290 -0.635 0.077
0.294 -0.372 0.280
0.288 -0.522 0.280
0.292 -0.522 0.074
0.294 -0.522 0.176
0.297 -0.440 0.176
0.295 -0.440 0.074
0.291 -0.440 0.280
-0.125 -0.553 0.077
-0.125 -0.549 0.155
-0.125 -0.515 0.242
-0.125 -0.441 0.325
-0.125 -0.359 0.368
0.171 -0.088 -1.455
0.127 -0.491 -0.887
0.220 -0.610 -0.467
0.088 -0.331 -1.248
0.266 -0.634 -0.181
0.173 -0.568 -0.675
0.102 -0.257 -1.382
0.099 -0.413 -1.072
0.083 -0.363 -1.072
0.088 -0.169 -1.181
-0.120 -0.486 -0.675
-0.120 -0.553 -0.181
0.072 -0.269 -1.137
-0.120 -0.529 -0.467
0.106 -0.494 -0.887
0.136 -0.088 -1.194
0.114 -0.322 -1.078
0.138 -0.174 -1.382
0.194 -0.460 -0.675
0.287 -0.526 -0.181
0.111 -0.248 -1.248
0.234 -0.502 -0.467
0.151 -0.382 -0.890
0.171 -0.313 -0.887
0.252 -0.412 -0.467
0.135 -0.179 -1.248
0.299 -0.436 -0.181
0.213 -0.370 -0.675
0.160 -0.122 -1.382
0.140 -0.245 -1.072
0.164 -0.186 -1.072
0.177 -0.089 -1.382
0.239 -0.299 -0.675
0.307 -0.365 -0.181
0.156 -0.130 -1.248
0.271 -0.341 -0.467
0.200 -0.243 -0.887
0.221 -0.156 -0.887
0.297 -0.237 -0.467
0.189 -0.060 -1.248
0.323 -0.261 -0.181
0.255 -0.208 -0.675
0.208 -0.029 -1.382
0.185 -0.100 -1.072
0.199 -0.029 -1.455
-0.119 -0.071 -1.194
0.230 -0.069 -1.072
0.317 -0.177 -0.675
0.422 -0.231 -0.181
0.222 -0.025 -1.305
0.355 -0.207 -0.467
0.275 -0.125 -0.887
0.298 -0.072 -0.887
0.378 -0.159 -0.467
0.443 -0.177 -0.181
0.337 -0.124 -0.675
0.253 -0.028 -1.072
0.710 -0.033 0.012
0.557 -0.055 0.020
0.555 -0.055 -0.007
0.529 -0.032 -0.026
0.516 -0.063 -0.026
0.567 -0.067 -0.007
0.569 -0.067 0.020
0.685 -0.052 0.012
0.508 -0.097 -0.026
0.499 -0.122 -0.026
0.476 -0.155 -0.026
0.685 -0.052 -0.009
0.710 -0.033 -0.009
0.375 -0.069 -0.675
0.472 -0.122 -0.181
0.417 -0.098 -0.467
0.341 -0.037 -0.887
0.443 -0.083 -0.467
0.495 -0.095 -0.178
0.401 -0.060 -0.675
0.712 -0.047 -0.189
0.597 -0.036 -0.548
0.409 -0.017 -0.908
0.667 -0.045 -0.368
0.518 -0.027 -0.728
0.587 -0.064 -0.368
0.565 -0.057 -0.548
0.588 -0.066 -0.189
0.516 -0.075 -0.189
0.481 -0.059 -0.548
0.503 -0.070 -0.368
0.468 -0.047 -0.728
0.215 -0.001 -1.455
0.224 -0.001 -1.382
0.207 -0.001 -1.534
0.199 -0.029 -1.534
0.183 -0.028 -1.194
-0.120 -0.088 -1.194
-0.120 -0.409 -0.887
-0.120 -0.249 -1.137
-0.120 -0.175 -1.181
-0.120 -0.331 -1.072
0.199 -0.029 -1.669
0.207 -0.001 -1.669
0.183 -0.028 -1.382
0.192 -0.045 -1.669
0.192 -0.045 -1.534
-0.031 -0.059 -1.534
0.043 -0.051 -1.669
-0.084 -0.061 -1.382
0.072 -0.041 -1.803
0.194 -0.041 -1.803
-0.084 -0.000 -1.196
-0.031 -0.000 -1.534
0.043 -0.000 -1.669
-0.084 -0.000 -1.382
0.072 0.000 -1.803
0.206 0.000 -1.803
0.194 0.040 -1.803
0.072 0.040 -1.803
-0.084 0.060 -1.382
0.043 0.050 -1.669
-0.031 0.058 -1.534
0.192 0.043 -1.534
0.192 0.043 -1.669
0.183 0.027 -1.382
0.199 0.028 -1.669
-0.120 0.330 -1.072
-0.120 0.174 -1.181
-0.120 0.248 -1.137
-0.120 0.407 -0.887
-0.120 0.087 -1.194
0.183 0.027 -1.194
0.199 0.028 -1.534
0.248 -0.001 -1.305
0.468 0.045 -0.728
0.503 0.069 -0.368
0.481 0.058 -0.548
0.516 0.073 -0.189
0.588 0.065 -0.189
0.565 0.056 -0.548
0.587 0.063 -0.368
0.518 0.026 -0.728
0.667 0.044 -0.368
0.409 0.015 -0.908
0.597 0.034 -0.548
0.712 0.045 -0.189
0.720 -0.000 -0.189
0.604 -0.000 -0.548
0.417 -0.000 -0.908
0.675 -0.000 -0.368
0.334 0.000 -1.087
0.526 -0.000 -0.728
0.401 0.059 -0.675
0.495 0.094 -0.178
0.443 0.081 -0.467
0.341 0.035 -0.887
0.417 0.097 -0.467
0.472 0.121 -0.181
0.375 0.067 -0.675
0.718 -0.000 -0.009
0.710 0.032 -0.009
0.685 0.051 -0.009
0.476 0.153 -0.026
0.499 0.121 -0.026
0.508 0.095 -0.026
0.685 0.051 0.012
0.569 0.065 0.020
0.567 0.065 -0.007
0.516 0.062 -0.026
0.529 0.031 -0.026
0.555 0.054 -0.007
0.557 0.054 0.020
0.710 0.032 0.012
0.718 -0.000 0.012
0.557 -0.000 0.020
0.555 -0.000 -0.007
0.529 -0.000 -0.026
0.477 -0.112 0.056
0.512 -0.061 0.056
0.493 -0.086 0.056
0.525 -0.031 0.056
0.525 0.031 0.056
0.493 0.086 0.056
0.512 0.060 0.056
0.477 0.112 0.056
0.526 -0.000 0.056
0.457 -0.155 0.072
0.465 -0.102 0.072
0.487 -0.061 0.072
0.471 -0.078 0.072
0.500 -0.031 0.072
0.445 -0.103 0.072
0.445 -0.053 0.072
0.445 -0.031 0.072
0.445 -0.075 0.072
0.445 0.000 0.072
0.445 0.075 0.072
0.445 0.031 0.072
0.445 0.053 0.072
0.445 0.102 0.072
0.253 0.027 -1.072
0.337 0.122 -0.675
0.443 0.176 -0.181
0.378 0.158 -0.467
0.298 0.070 -0.887
0.500 0.031 0.072
0.471 0.077 0.072
0.487 0.060 0.072
0.465 0.102 0.072
0.457 0.154 0.072
0.501 -0.000 0.072
0.275 0.124 -0.887
0.355 0.206 -0.467
0.222 0.023 -1.305
0.422 0.230 -0.181
0.317 0.176 -0.675
0.230 0.068 -1.072
-0.119 0.069 -1.194
0.199 0.028 -1.455
0.185 0.098 -1.072
0.208 0.028 -1.382
0.255 0.206 -0.675
0.323 0.260 -0.181
0.189 0.059 -1.248
0.297 0.236 -0.467
0.221 0.154 -0.887
0.200 0.241 -0.887
0.271 0.340 -0.467
0.156 0.128 -1.248
0.307 0.364 -0.181
0.239 0.298 -0.675
0.177 0.088 -1.382
0.164 0.185 -1.072
0.140 0.243 -1.072
0.160 0.121 -1.382
0.213 0.368 -0.675
0.299 0.435 -0.181
0.135 0.178 -1.248
0.252 0.411 -0.467
0.171 0.312 -0.887
0.151 0.381 -0.890
0.234 0.500 -0.467
0.111 0.247 -1.248
0.287 0.524 -0.181
0.194 0.458 -0.675
0.138 0.172 -1.382
0.114 0.320 -1.078
0.136 0.087 -1.194
0.106 0.492 -0.887
-0.120 0.527 -0.467
0.072 0.268 -1.137
-0.120 0.551 -0.181
-0.120 0.485 -0.675
0.088 0.167 -1.181
0.083 0.362 -1.072
0.099 0.412 -1.072
0.102 0.255 -1.382
0.173 0.567 -0.675
0.266 0.633 -0.181
0.088 0.330 -1.248
0.220 0.609 -0.467
0.127 0.489 -0.887
0.171 0.087 -1.455
-0.125 0.357 0.368
-0.125 0.440 0.325
-0.125 0.514 0.242
-0.125 0.548 0.155
-0.125 0.552 0.077
0.291 0.439 0.280
0.295 0.439 0.074
0.297 0.439 0.176
0.294 0.521 0.176
0.292 0.521 0.074
0.288 0.521 0.280
0.294 0.370 0.280
0.290 0.633 0.077
0.291 0.630 0.155
0.288 0.595 0.242
0.282 0.521 0.325
0.285 0.439 0.368
0.298 0.370 0.075
0.322 -0.266 0.071
0.300 0.370 0.177
0.320 0.268 0.203
0.323 -0.266 0.202
0.316 -0.266 0.408
0.316 -0.266 0.482
0.315 0.268 0.482
0.313 0.268 0.409
0.445 -0.230 0.192
0.445 0.230 0.194
0.445 -0.230 0.071
0.445 -0.165 0.071
0.338 -0.165 0.072
0.445 0.164 0.194
0.445 -0.165 0.192
-0.127 0.258 0.384
-0.127 -0.257 0.384
0.291 -0.369 0.384
0.288 0.370 0.384
0.288 0.283 0.591
0.291 -0.281 0.591
-0.127 -0.196 0.591
-0.127 0.197 0.591
-0.127 0.173 0.728
-0.127 -0.172 0.728
0.294 -0.246 0.728
0.291 0.248 0.728
0.162 0.090 2.445
0.228 0.123 2.205
0.273 0.162 1.831
0.294 0.193 1.551
0.299 0.233 0.898
0.301 0.221 1.117
0.300 0.217 1.328
0.164 -0.088 2.445
0.230 -0.121 2.205
0.275 -0.160 1.831
0.296 -0.191 1.551
0.302 -0.231 0.898
0.303 -0.219 1.117
0.302 -0.215 1.328
0.050 0.070 2.445
0.050 -0.069 2.445
0.064 0.101 2.205
0.064 -0.101 2.205
0.062 -0.152 1.831
0.062 0.152 1.831
0.020 0.171 1.551
0.020 -0.170 1.551
-0.127 -0.161 0.898
-0.127 0.162 0.898
-0.051 0.151 1.117
-0.051 -0.150 1.117
-0.010 -0.159 1.328
-0.010 0.162 1.328
0.339 -0.159 1.328
0.339 0.160 1.328
0.339 0.165 1.117
0.339 -0.164 1.117
0.340 -0.176 0.898
0.340 0.177 0.898
0.333 0.147 1.551
0.333 -0.146 1.551
0.315 -0.123 1.831
0.315 0.123 1.831
0.262 0.101 2.205
0.262 -0.101 2.205
0.117 -0.043 2.559
0.117 0.043 2.559
0.189 0.070 2.445
0.038 0.021 2.530
0.038 -0.021 2.530
0.189 -0.069 2.445
0.149 0.001 0.720
0.149 0.165 0.721
0.149 -0.164 0.720
0.149 -0.164 0.641
0.149 0.165 0.642
0.149 0.001 0.642
0.149 0.001 0.425
0.149 0.165 0.426
0.149 -0.164 0.425
0.180 -0.164 0.272
0.180 0.165 0.273
0.180 0.001 0.273
0.252 0.001 0.141
0.252 0.165 0.141
0.252 -0.164 0.140
0.338 -0.104 0.072
0.338 -0.055 0.072
0.338 -0.032 0.072
0.338 -0.077 0.072
0.338 0.000 0.072
0.338 0.077 0.072
0.338 0.032 0.072
0.338 0.054 0.072
0.338 0.104 0.072
0.338 0.165 0.072
0.341 -0.164 0.580
0.341 0.165 0.581
0.338 -0.164 0.192
0.338 0.165 0.194
0.345 -0.165 0.728
0.345 0.164 0.728
0.345 0.164 0.434
0.341 -0.164 0.433
0.338 0.165 0.728
0.338 -0.164 0.728
0.009 -0.430 0.690
-0.112 -0.430 0.690
-0.112 -0.552 0.407
0.009 -0.552 0.407
-0.112 -0.406 1.028
0.009 -0.406 1.028
0.272 -0.428 1.028
0.132 -0.574 0.407
0.154 -0.452 0.690
-0.112 -0.406 0.852
0.009 -0.406 0.852
0.202 -0.428 0.852
0.009 -0.471 0.531
-0.112 -0.471 0.531
0.132 -0.493 0.531
0.132 0.488 0.531
-0.112 0.465 0.531
0.009 0.465 0.531
0.202 0.423 0.852
0.009 0.400 0.852
-0.112 0.400 0.852
0.154 0.447 0.690
0.132 0.569 0.407
0.272 0.423 1.028
0.009 0.400 1.028
-0.112 0.400 1.028
0.009 0.547 0.407
-0.112 0.547 0.407
-0.112 0.425 0.690
0.009 0.425 0.690
0.172 0.612 -1.275
0.160 0.612 -1.275
0.121 0.612 -1.275
0.110 0.612 -1.275
0.155 0.612 -1.371
0.182 0.612 -1.371
0.183 0.612 -1.410
0.125 0.612 -1.410
0.097 0.612 -1.371
0.125 0.612 -1.371
0.125 0.651 -1.371
0.097 0.651 -1.371
0.125 0.651 -1.410
0.183 0.651 -1.410
0.182 0.651 -1.371
0.155 0.651 -1.371
0.110 0.651 -1.275
0.121 0.651 -1.275
0.160 0.651 -1.275
0.172 0.651 -1.275
0.172 -0.677 -1.275
0.160 -0.677 -1.275
0.121 -0.677 -1.275
0.110 -0.677 -1.275
0.155 -0.677 -1.371
0.182 -0.677 -1.371
0.183 -0.677 -1.410
0.125 -0.677 -1.410
0.097 -0.677 -1.371
0.125 -0.677 -1.371
0.125 -0.639 -1.371
0.097 -0.639 -1.371
0.032 -0.013 -1.634
0.064 -0.013 -1.672
0.060 -0.013 -1.634
0.125 -0.639 -1.410
0.183 -0.639 -1.410
0.182 -0.639 -1.371
0.176 -0.013 -1.634
0.180 -0.013 -1.672
0.148 -0.013 -1.634
0.155 -0.639 -1.371
0.110 -0.639 -1.275
-0.057 -0.013 -1.283
-0.040 -0.013 -1.445
-0.045 -0.013 -1.283
0.121 -0.639 -1.275
0.160 -0.639 -1.275
0.077 -0.013 -1.283
0.099 -0.013 -1.445
0.088 -0.013 -1.283
0.172 -0.639 -1.275
f 4 2 3
f 4 1 2
f 20 39 24
f 20 19 39
f 20 25 18
f 20 24 25
f 18 26 17
f 18 25 26
f 17 27 16
f 17 26 27
f 16 28 15
f 16 27 28
f 15 29 14
f 15 28 29
f 13 29 30
f 13 14 29
f 13 31 12
f 13 30 31
f 12 32 11
f 12 31 32
f 11 33 10
f 11 32 33
f 10 34 9
f 10 33 34
f 9 35 8
f 9 34 35
f 8 36 7
f 8 35 36
f 7 37 6
f 7 36 37
f 6 38 5
f 6 37 38
f 5 39 19
f 5 38 39
f 39 23 24
f 39 21 23
f 25 23 137
f 25 24 23
f 26 137 138
f 26 25 137
f 27 138 139
f 27 26 138
f 28 139 140
f 28 27 139
f 29 140 141
f 29 28 140
f 29 142 30
f 29 141 142
f 31 142 143
f 31 30 142
f 32 143 144
f 32 31 143
f 33 144 145
f 33 32 144
f 34 145 146
f 34 33 145
f 35 146 147
f 35 34 146
f 36 147 148
f 36 35 147
f 37 148 149
f 37 36 148
f 38 149 22
f 38 37 149
f 39 22 21
f 39 38 22
f 40 5 19
f 40 41 5
f 41 6 5
f 41 42 6
f 42 7 6
f 42 43 7
f 43 8 7
f 43 44 8
f 44 9 8
f 44 45 9
f 45 10 9
f 45 46 10
f 46 11 10
f 46 47 11
f 47 12 11
f 47 48 12
f 48 13 12
f 48 49 13
f 50 13 49
f 50 14 13
f 50 15 14
f 50 51 15
f 51 16 15
f 51 52 16
f 52 17 16
f 52 53 17
f 53 18 17
f 53 54 18
f 54 20 18
f 54 55 20
f 40 20 55
f 40 19 20
f 71 55 56
f 71 40 55
f 57 55 54
f 57 56 55
f 58 54 53
f 58 57 54
f 59 53 52
f 59 58 53
f 60 52 51
f 60 59 52
f 61 51 50
f 61 60 51
f 61 49 62
f 61 50 49
f 63 49 48
f 63 62 49
f 64 48 47
f 64 63 48
f 65 47 46
f 65 64 47
f 66 46 45
f 66 65 46
f 67 45 44
f 67 66 45
f 68 44 43
f 68 67 44
f 69 43 42
f 69 68 43
f 70 42 41
f 70 69 42
f 71 41 40
f 71 70 41
f 121 70 71
f 121 122 70
f 122 69 70
f 122 123 69
f 123 68 69
f 123 124 68
f 124 67 68
f 124 125 67
f 125 66 67
f 125 126 66
f 126 65 66
f 126 127 65
f 127 64 65
f 127 128 64
f 128 63 64
f 128 129 63
f 129 62 63
f 129 130 62
f 131 62 130
f 131 61 62
f 131 60 61
f 131 132 60
f 132 59 60
f 132 133 59
f 133 58 59
f 133 134 58
f 134 57 58
f 134 135 57
f 135 56 57
f 135 136 56
f 121 56 136
f 121 71 56
f 124 72 77
f 124 123 72
f 77 73 76
f 77 72 73
f 76 74 75
f 76 73 74
f 79 75 80
f 79 76 75
f 78 76 79
f 78 77 76
f 125 77 78
f 125 124 77
f 126 78 83
f 126 125 78
f 83 79 82
f 83 78 79
f 82 80 81
f 82 79 80
f 85 81 86
f 85 82 81
f 84 82 85
f 84 83 82
f 127 83 84
f 127 126 83
f 128 84 89
f 128 127 84
f 89 85 88
f 89 84 85
f 88 86 87
f 88 85 86
f 91 87 92
f 91 88 87
f 90 88 91
f 90 89 88
f 129 89 90
f 129 128 89
f 130 90 95
f 130 129 90
f 95 91 94
f 95 90 91
f 94 92 93
f 94 91 92
f 97 93 98
f 97 94 93
f 96 94 97
f 96 95 94
f 131 95 96
f 131 130 95
f 132 96 101
f 132 131 96
f 101 97 100
f 101 96 97
f 100 98 99
f 100 97 98
f 103 99 104
f 103 100 99
f 102 100 103
f 102 101 100
f 133 101 102
f 133 132 101
f 134 102 107
f 134 133 102
f 107 103 106
f 107 102 103
f 106 104 105
f 106 103 104
f 109 105 110
f 109 106 105
f 108 106 109
f 108 107 106
f 135 107 108
f 135 134 107
f 136 108 113
f 136 135 108
f 113 109 112
f 113 108 109
f 112 110 111
f 112 109 110
f 115 111 116
f 115 112 111
f 114 112 115
f 114 113 112
f 121 113 114
f 121 136 113
f 122 114 119
f 122 121 114
f 119 115 118
f 119 114 115
f 118 116 117
f 118 115 116
f 73 117 74
f 73 118 117
f 72 118 73
f 72 119 118
f 123 119 72
f 123 122 119
f 150 23 21
f 150 165 23
f 165 137 23
f 165 164 137
f 164 138 137
f 164 163 138
f 163 139 138
f 163 162 139
f 162 140 139
f 162 161 140
f 161 141 140
f 161 160 141
f 160 142 141
f 160 159 142
f 159 143 142
f 159 158 143
f 158 144 143
f 158 157 144
f 157 145 144
f 157 156 145
f 156 146 145
f 156 155 146
f 155 147 146
f 155 154 147
f 154 148 147
f 154 153 148
f 153 149 148
f 153 152 149
f 152 22 149
f 152 151 22
f 151 21 22
f 151 150 21
f 180 150 151
f 180 181 150
f 179 151 152
f 179 180 151
f 178 152 153
f 178 179 152
f 177 153 154
f 177 178 153
f 176 154 155
f 176 177 154
f 175 155 156
f 175 176 155
f 174 156 157
f 174 175 156
f 173 157 158
f 173 174 157
f 172 158 159
f 172 173 158
f 171 159 160
f 171 172 159
f 170 160 161
f 170 171 160
f 169 161 162
f 169 170 161
f 168 162 163
f 168 169 162
f 167 163 164
f 167 168 163
f 166 164 165
f 166 167 164
f 181 165 150
f 181 166 165
f 200 192 199
f 200 197 192
f 197 194 192
f 197 195 194
f 187 201 182
f 187 196 201
f 182 200 183
f 182 201 200
f 184 198 185
f 184 199 198
f 188 196 187
f 188 195 196
f 190 198 185
f 190 193 198
f 188 194 189
f 188 195 194
f 184 200 183
f 184 199 200
f 189 212 190
f 189 213 212
f 191 212 214
f 191 190 212
f 189 214 213
f 189 191 214
f 189 217 190
f 189 218 217
f 191 217 219
f 191 190 217
f 189 219 218
f 189 191 219
f 188 225 186
f 188 224 225
f 187 225 223
f 187 186 225
f 188 223 224
f 188 187 223
f 191 230 229
f 191 184 230
f 185 230 184
f 185 228 230
f 191 228 185
f 191 229 228
f 187 233 183
f 187 234 233
f 182 233 235
f 182 183 233
f 235 187 182
f 235 234 187
f 203 211 206
f 203 204 211
f 206 209 208
f 206 211 209
f 222 202 207
f 222 236 202
f 236 203 202
f 236 232 203
f 231 205 204
f 231 227 205
f 221 207 208
f 221 222 207
f 216 205 210
f 216 227 205
f 221 209 208
f 221 220 209
f 231 203 204
f 231 232 203
f 220 212 213
f 220 216 212
f 215 212 216
f 215 214 212
f 220 214 215
f 220 213 214
f 220 217 218
f 220 216 217
f 215 217 216
f 215 219 217
f 220 219 215
f 220 218 219
f 221 225 224
f 221 226 225
f 222 225 226
f 222 223 225
f 221 223 222
f 221 224 223
f 215 230 231
f 215 229 230
f 227 230 228
f 227 231 230
f 215 228 229
f 215 227 228
f 222 233 234
f 222 232 233
f 236 233 232
f 236 235 233
f 235 222 234
f 235 236 222
f 391 237 263
f 391 259 237
f 394 263 237
f 394 352 263
f 256 240 257
f 256 249 240
f 258 249 256
f 258 254 249
f 255 254 258
f 255 241 254
f 253 255 258
f 253 244 255
f 251 247 252
f 251 244 247
f 250 246 252
f 250 243 246
f 248 258 256
f 248 253 258
f 247 250 252
f 247 242 250
f 238 256 257
f 238 248 256
f 239 252 246
f 239 251 252
f 261 390 361
f 261 262 390
f 263 361 353
f 263 261 361
f 259 365 394
f 259 260 365
f 359 367 393
f 359 260 367
f 363 263 352
f 363 261 263
f 365 359 392
f 365 260 359
f 388 261 363
f 388 262 261
f 389 260 259
f 389 367 260
f 386 351 357
f 386 384 351
f 273 277 274
f 273 278 277
f 274 276 275
f 274 277 276
f 273 276 278
f 273 275 276
f 272 275 273
f 272 270 275
f 271 275 270
f 271 274 275
f 272 274 271
f 272 273 274
f 264 271 265
f 264 272 271
f 265 270 269
f 265 271 270
f 264 270 272
f 264 269 270
f 264 268 269
f 264 267 268
f 265 268 266
f 265 269 268
f 264 266 267
f 264 265 266
f 281 284 282
f 281 279 284
f 280 284 279
f 280 283 284
f 281 283 280
f 281 282 283
f 290 286 289
f 290 285 286
f 289 287 288
f 289 286 287
f 290 287 285
f 290 288 287
f 291 288 290
f 291 293 288
f 292 288 293
f 292 289 288
f 291 289 292
f 291 290 289
f 299 292 298
f 299 291 292
f 298 293 294
f 298 292 293
f 299 293 291
f 299 294 293
f 299 295 294
f 299 296 295
f 298 295 297
f 298 294 295
f 299 297 296
f 299 298 297
f 309 313 314
f 309 310 313
f 310 312 313
f 310 311 312
f 309 312 311
f 309 314 312
f 308 311 306
f 308 309 311
f 307 311 310
f 307 306 311
f 308 310 309
f 308 307 310
f 300 307 308
f 300 301 307
f 301 306 307
f 301 305 306
f 300 306 305
f 300 308 306
f 300 304 303
f 300 305 304
f 301 304 305
f 301 302 304
f 300 302 301
f 300 303 302
f 317 320 315
f 317 318 320
f 316 320 319
f 316 315 320
f 317 319 318
f 317 316 319
f 326 322 321
f 326 325 322
f 325 323 322
f 325 324 323
f 326 323 324
f 326 321 323
f 327 324 329
f 327 326 324
f 328 324 325
f 328 329 324
f 327 325 326
f 327 328 325
f 335 328 327
f 335 334 328
f 334 329 328
f 334 330 329
f 335 329 330
f 335 327 329
f 335 331 332
f 335 330 331
f 334 331 330
f 334 333 331
f 335 333 334
f 335 332 333
f 346 341 336
f 346 343 341
f 345 340 341
f 345 344 340
f 343 340 342
f 343 341 340
f 339 346 347
f 339 343 346
f 337 343 342
f 337 339 343
f 350 385 349
f 350 360 385
f 348 360 350
f 348 354 360
f 351 354 348
f 351 384 354
f 355 351 348
f 355 381 351
f 353 384 391
f 353 354 384
f 352 381 355
f 352 394 381
f 359 383 392
f 359 358 383
f 357 364 356
f 357 381 364
f 358 366 356
f 358 382 366
f 363 355 362
f 363 352 355
f 361 354 353
f 361 360 354
f 362 348 350
f 362 355 348
f 367 386 366
f 367 389 386
f 365 381 394
f 365 364 381
f 364 358 356
f 364 383 358
f 376 369 368
f 376 372 369
f 371 377 378
f 371 370 377
f 373 374 375
f 373 372 374
f 375 370 371
f 375 374 370
f 395 387 380
f 395 388 387
f 379 372 373
f 379 376 372
f 387 350 349
f 387 362 350
f 386 356 366
f 386 357 356
f 392 364 365
f 392 383 364
f 393 358 359
f 393 382 358
f 390 360 361
f 390 385 360
f 395 385 390
f 395 380 385
f 389 384 386
f 389 391 384
f 393 366 382
f 393 367 366
f 388 362 387
f 388 363 362
f 406 401 403
f 406 396 401
f 405 400 404
f 405 401 400
f 403 400 401
f 403 402 400
f 399 406 403
f 399 407 406
f 397 403 399
f 397 402 403
f 410 438 417
f 410 409 438
f 408 417 412
f 408 410 417
f 411 412 437
f 411 408 412
f 413 411 434
f 413 408 411
f 254 437 412
f 254 241 437
f 253 434 244
f 253 413 434
f 250 436 416
f 250 242 436
f 415 419 434
f 415 414 419
f 416 420 435
f 416 414 420
f 248 413 253
f 248 418 413
f 249 412 417
f 249 254 412
f 418 408 413
f 418 410 408
f 246 439 239
f 246 420 439
f 247 434 419
f 247 244 434
f 419 416 436
f 419 414 416
f 429 422 425
f 429 421 422
f 424 430 423
f 424 431 430
f 426 427 425
f 426 428 427
f 428 423 427
f 428 424 423
f 440 245 433
f 440 238 245
f 432 425 429
f 432 426 425
f 440 410 418
f 440 409 410
f 439 414 415
f 439 420 414
f 242 419 436
f 242 247 419
f 243 416 435
f 243 250 416
f 240 417 438
f 240 249 417
f 245 438 433
f 245 240 438
f 239 437 241
f 239 439 437
f 243 420 246
f 243 435 420
f 238 418 248
f 238 440 418
f 490 488 489
f 490 487 488
f 489 475 474
f 489 488 475
f 490 475 487
f 490 474 475
f 493 444 443
f 493 492 444
f 444 441 443
f 444 442 441
f 493 442 492
f 493 441 442
f 494 492 491
f 494 493 492
f 493 473 492
f 493 472 473
f 494 473 472
f 494 491 473
f 497 476 477
f 497 496 476
f 497 495 496
f 497 498 495
f 498 476 495
f 498 477 476
f 941 505 628
f 941 507 505
f 629 505 504
f 629 628 505
f 642 504 503
f 642 629 504
f 643 503 502
f 643 642 503
f 644 502 501
f 644 643 502
f 940 501 506
f 940 644 501
f 941 506 507
f 941 940 506
f 502 512 513
f 502 503 512
f 501 513 514
f 501 502 513
f 501 509 506
f 501 514 509
f 504 512 503
f 504 511 512
f 505 511 504
f 505 510 511
f 507 510 505
f 507 508 510
f 506 508 507
f 506 509 508
f 529 519 528
f 529 518 519
f 530 518 529
f 530 517 518
f 530 522 517
f 530 525 522
f 527 519 520
f 527 528 519
f 526 520 521
f 526 527 520
f 524 521 523
f 524 526 521
f 525 523 522
f 525 524 523
f 939 524 525
f 939 942 524
f 942 526 524
f 942 922 526
f 922 527 526
f 922 921 527
f 921 528 527
f 921 908 528
f 906 525 530
f 906 939 525
f 906 529 907
f 906 530 529
f 907 528 908
f 907 529 528
f 743 558 555
f 743 740 558
f 940 564 563
f 940 939 564
f 938 934 935
f 938 932 934
f 1029 1011 1006
f 1029 1024 1011
f 1029 1005 1022
f 1029 1006 1005
f 1031 1000 999
f 1031 1022 1000
f 1030 1001 1023
f 1030 998 1001
f 1028 1004 1007
f 1028 1023 1004
f 1028 1010 1025
f 1028 1007 1010
f 1002 998 997
f 1002 1001 998
f 1000 997 999
f 1000 1002 997
f 1005 1002 1000
f 1005 1003 1002
f 1003 1001 1002
f 1003 1004 1001
f 1008 1004 1003
f 1008 1007 1004
f 1006 1003 1005
f 1006 1008 1003
f 1011 1008 1006
f 1011 1009 1008
f 1009 1007 1008
f 1009 1010 1007
f 1020 1019 1017
f 1020 1009 1019
f 1021 1009 1020
f 1021 1010 1009
f 1018 1014 1016
f 1018 1009 1014
f 1015 1009 1012
f 1015 1013 1009
f 936 1009 1011
f 936 1012 1009
f 1026 1030 1027
f 1026 1031 1030
f 1044 1034 1035
f 1044 1045 1034
f 1044 1040 1032
f 1044 1046 1040
f 1041 1037 1036
f 1041 1042 1037
f 1042 1038 1037
f 1042 1043 1038
f 1035 1046 1044
f 1035 1039 1046
f 1032 1043 1042
f 1032 1040 1043
f 1032 1041 1033
f 1032 1042 1041
f 1032 1045 1044
f 1032 1033 1045
f 1049 1059 1048
f 1049 1058 1059
f 1049 1053 1047
f 1049 1061 1053
f 1052 1056 1051
f 1052 1057 1056
f 1051 1055 1050
f 1051 1056 1055
f 1058 1047 1054
f 1058 1049 1047
f 1061 1050 1053
f 1061 1051 1050
f 1061 1052 1051
f 1061 1060 1052
f 1061 1048 1060
f 1061 1049 1048
f 1080 1072 1079
f 1080 1077 1072
f 1077 1074 1072
f 1077 1075 1074
f 1067 1081 1062
f 1067 1076 1081
f 1062 1080 1063
f 1062 1081 1080
f 1064 1078 1065
f 1064 1079 1078
f 1068 1076 1067
f 1068 1075 1076
f 1070 1078 1065
f 1070 1073 1078
f 1068 1074 1069
f 1068 1075 1074
f 1064 1080 1063
f 1064 1079 1080
f 1069 1094 1070
f 1069 1095 1094
f 1071 1094 1096
f 1071 1070 1094
f 1069 1096 1095
f 1069 1071 1096
f 1068 1102 1066
f 1068 1101 1102
f 1067 1102 1100
f 1067 1066 1102
f 1068 1100 1101
f 1068 1067 1100
f 1071 1107 1106
f 1071 1064 1107
f 1065 1107 1064
f 1065 1105 1107
f 1071 1105 1065
f 1071 1106 1105
f 1067 1110 1063
f 1067 1111 1110
f 1062 1110 1112
f 1062 1063 1110
f 1112 1067 1062
f 1112 1111 1067
f 1083 1091 1086
f 1083 1084 1091
f 1086 1089 1088
f 1086 1091 1089
f 1099 1082 1087
f 1099 1113 1082
f 1113 1083 1082
f 1113 1109 1083
f 1108 1085 1084
f 1108 1104 1085
f 1098 1087 1088
f 1098 1099 1087
f 1093 1085 1090
f 1093 1104 1085
f 1098 1089 1088
f 1098 1097 1089
f 1108 1083 1084
f 1108 1109 1083
f 1097 1094 1095
f 1097 1093 1094
f 1092 1094 1093
f 1092 1096 1094
f 1097 1096 1092
f 1097 1095 1096
f 1098 1102 1101
f 1098 1103 1102
f 1099 1102 1103
f 1099 1100 1102
f 1098 1100 1099
f 1098 1101 1100
f 1092 1107 1108
f 1092 1106 1107
f 1104 1107 1105
f 1104 1108 1107
f 1092 1105 1106
f 1092 1104 1105
f 1099 1110 1111
f 1099 1109 1110
f 1113 1110 1109
f 1113 1112 1110
f 1112 1099 1111
f 1112 1113 1099
f 75 74 120
f 80 75 120
f 81 80 120
f 86 81 120
f 87 86 120
f 92 87 120
f 93 92 120
f 98 93 120
f 99 98 120
f 104 99 120
f 105 104 120
f 110 105 120
f 111 110 120
f 116 111 120
f 117 116 120
f 74 117 120
f 194 193 192
f 198 192 193
f 200 196 197
f 195 197 196
f 192 198 199
f 196 200 201
f 209 211 210
f 205 210 211
f 203 206 207
f 208 207 206
f 211 204 205
f 207 202 203
f 214 213 212
f 219 218 217
f 223 224 225
f 228 230 229
f 235 234 233
f 391 263 353
f 394 237 259
f 255 244 251
f 257 240 245
f 251 239 241
f 238 257 245
f 251 241 255
f 262 395 390
f 259 391 389
f 388 395 262
f 284 282 283
f 281 280 279
f 320 319 318
f 317 315 316
f 345 336 341
f 344 345 338
f 351 381 357
f 349 385 380
f 357 386 384
f 374 369 372
f 387 349 380
f 357 351 384
f 405 401 396
f 404 398 405
f 411 415 434
f 409 433 438
f 415 437 439
f 427 425 422
f 440 433 409
f 415 411 437
f 445 457 462
f 445 450 457
f 450 461 457
f 446 461 450
f 446 458 461
f 446 449 458
f 449 460 458
f 447 460 449
f 447 454 460
f 447 453 454
f 453 459 454
f 448 459 453
f 448 456 459
f 448 451 456
f 445 462 451
f 451 462 456
f 462 457 455
f 459 455 457
f 459 457 454
f 461 454 457
f 460 454 458
f 461 458 454
f 462 455 456
f 459 456 455
f 445 452 450
f 448 450 452
f 448 453 450
f 446 450 453
f 447 449 453
f 446 453 449
f 445 451 452
f 448 452 451
f 486 468 463
f 486 481 468
f 481 464 468
f 485 464 481
f 485 467 464
f 485 482 467
f 482 465 467
f 484 465 482
f 484 471 465
f 484 478 471
f 478 466 471
f 483 466 478
f 483 469 466
f 483 480 469
f 486 463 480
f 480 463 469
f 463 468 470
f 466 470 468
f 466 468 471
f 464 471 468
f 465 471 467
f 464 467 471
f 463 470 469
f 466 469 470
f 486 479 481
f 483 481 479
f 483 478 481
f 485 481 478
f 484 482 478
f 485 478 482
f 486 480 479
f 483 479 480
f 1021 1020 623
f 1012 936 935
f 1012 935 834
f 853 824 848
f 853 828 824
f 853 833 823
f 853 823 828
f 515 514 513
f 515 509 514
f 907 499 564
f 907 564 906
f 939 906 564
f 908 499 907
f 909 499 908
f 910 499 909
f 499 910 561
f 643 500 642
f 643 563 500
f 644 563 643
f 642 500 641
f 940 563 644
f 641 500 640
f 500 563 656
f 509 515 508
f 508 515 510
f 510 515 511
f 511 515 512
f 513 512 515
f 522 523 516
f 523 521 516
f 521 520 516
f 520 519 516
f 517 522 516
f 517 516 518
f 518 516 519
f 544 536 539
f 544 547 536
f 543 539 540
f 543 544 539
f 551 540 532
f 551 543 540
f 548 532 535
f 548 551 532
f 549 535 534
f 549 548 535
f 550 534 533
f 550 549 534
f 542 533 541
f 542 550 533
f 542 541 538
f 542 538 545
f 545 538 537
f 545 537 546
f 546 537 536
f 546 536 547
f 537 531 536
f 538 531 537
f 541 531 538
f 541 533 531
f 533 534 531
f 534 535 531
f 535 532 531
f 532 540 531
f 540 539 531
f 539 536 531
f 809 547 808
f 809 546 547
f 814 546 809
f 814 545 546
f 817 545 814
f 817 542 545
f 817 703 542
f 703 550 542
f 708 549 550
f 708 550 703
f 709 549 708
f 709 548 549
f 709 702 548
f 702 551 548
f 816 551 702
f 816 543 551
f 816 815 543
f 815 544 543
f 815 808 544
f 808 547 544
f 742 741 554
f 742 554 739
f 739 554 552
f 773 552 553
f 771 770 553
f 773 553 770
f 739 552 690
f 860 552 773
f 860 690 552
f 743 554 741
f 771 553 769
f 552 554 556
f 772 769 553
f 772 553 556
f 895 556 557
f 895 772 556
f 892 557 560
f 895 557 892
f 894 560 561
f 894 892 560
f 910 894 561
f 499 561 564
f 743 555 554
f 740 558 555
f 740 655 558
f 658 559 655
f 655 559 558
f 658 562 559
f 658 656 562
f 656 563 562
f 656 640 500
f 556 553 552
f 556 554 555
f 558 557 555
f 557 556 555
f 560 558 559
f 560 557 558
f 562 561 559
f 561 560 559
f 564 562 563
f 564 561 562
f 595 577 586
f 596 585 578
f 739 565 606
f 773 603 566
f 603 566 602
f 606 565 599
f 599 565 568
f 602 567 591
f 602 566 567
f 591 569 567
f 599 568 594
f 594 568 570
f 591 581 590
f 591 580 583
f 591 580 569
f 591 569 581
f 594 570 582
f 594 570 579
f 594 582 587
f 594 584 579
f 582 570 571
f 579 574 570
f 581 569 572
f 580 573 569
f 573 572 569
f 574 571 570
f 581 573 580
f 581 572 573
f 582 579 574
f 582 574 571
f 583 580 575
f 589 583 575
f 589 578 585
f 589 575 578
f 590 580 583
f 590 581 580
f 587 579 582
f 587 584 579
f 584 576 579
f 588 576 584
f 588 577 576
f 588 586 577
f 590 587 581
f 587 582 581
f 583 591 589
f 584 594 587
f 739 690 606
f 860 773 603
f 860 603 690
f 690 603 606
f 606 602 599
f 606 603 602
f 602 591 599
f 599 591 594
f 594 591 590
f 594 590 587
f 773 604 603
f 773 770 604
f 604 601 603
f 603 601 602
f 602 601 592
f 602 592 591
f 592 589 591
f 591 590 583
f 596 585 592
f 770 608 604
f 608 597 604
f 604 597 601
f 601 597 596
f 601 596 592
f 592 585 589
f 770 611 608
f 594 584 588
f 594 588 593
f 600 599 593
f 599 594 593
f 606 600 605
f 606 599 600
f 739 606 605
f 742 739 605
f 605 600 598
f 595 593 586
f 600 595 598
f 593 588 586
f 600 593 595
f 607 605 598
f 742 605 607
f 742 607 620
f 771 770 611
f 771 611 614
f 771 614 613
f 771 613 769
f 769 613 615
f 772 769 615
f 895 772 612
f 772 615 612
f 895 612 609
f 892 609 610
f 895 609 892
f 894 892 610
f 742 741 620
f 741 617 620
f 741 618 617
f 743 618 741
f 743 616 618
f 743 740 616
f 740 655 619
f 740 619 616
f 655 622 619
f 658 622 655
f 658 621 622
f 658 656 621
f 928 633 625
f 941 633 928
f 928 625 927
f 927 625 627
f 927 627 924
f 751 754 757
f 690 754 751
f 749 757 755
f 749 751 757
f 749 755 750
f 750 755 756
f 752 756 758
f 750 756 752
f 758 759 753
f 752 758 753
f 745 753 759
f 744 753 745
f 747 750 753
f 750 752 753
f 744 747 753
f 690 746 738
f 747 749 750
f 747 748 749
f 746 751 748
f 748 751 749
f 690 751 746
f 737 748 747
f 737 747 744
f 689 748 737
f 689 746 748
f 660 746 689
f 660 738 746
f 736 744 745
f 736 737 744
f 653 659 740
f 653 743 657
f 654 657 741
f 654 742 660
f 645 660 689
f 660 739 738
f 690 738 739
f 660 742 739
f 654 741 742
f 657 743 741
f 653 740 743
f 655 740 659
f 734 737 736
f 689 737 734
f 694 776 793
f 687 735 776
f 687 776 694
f 689 734 735
f 687 689 735
f 694 793 701
f 701 724 718
f 701 793 724
f 718 724 733
f 718 733 731
f 718 731 721
f 719 721 732
f 721 731 732
f 719 730 720
f 719 732 730
f 706 710 720
f 706 720 730
f 724 726 733
f 728 731 733
f 726 728 733
f 727 732 731
f 727 731 728
f 727 729 732
f 729 730 732
f 707 730 729
f 706 730 707
f 723 728 726
f 793 791 724
f 707 729 713
f 713 729 722
f 723 725 728
f 725 727 728
f 722 727 725
f 722 729 727
f 714 722 789
f 714 789 802
f 713 722 714
f 790 723 726
f 794 726 724
f 794 724 791
f 794 790 726
f 792 725 723
f 792 723 790
f 789 722 725
f 792 789 725
f 711 712 716
f 711 716 720
f 710 711 720
f 716 717 720
f 715 719 717
f 715 718 721
f 717 719 720
f 715 721 719
f 699 716 712
f 698 700 717
f 697 715 700
f 697 701 718
f 697 718 715
f 700 715 717
f 698 717 716
f 698 716 699
f 935 699 829
f 829 699 712
f 829 712 820
f 707 709 708
f 707 713 709
f 702 713 714
f 702 709 713
f 816 702 714
f 816 714 802
f 703 704 708
f 818 703 817
f 818 704 703
f 704 707 708
f 704 705 707
f 819 704 818
f 819 705 704
f 705 706 707
f 822 711 710
f 821 710 706
f 823 706 705
f 828 705 819
f 828 823 705
f 821 706 823
f 821 822 710
f 820 711 822
f 820 712 711
f 692 696 700
f 691 697 696
f 691 694 701
f 691 701 697
f 696 697 700
f 692 700 698
f 692 698 695
f 695 698 699
f 693 695 699
f 935 934 693
f 935 693 699
f 684 687 694
f 684 691 688
f 684 694 691
f 683 693 685
f 683 686 695
f 682 692 686
f 682 688 696
f 688 691 696
f 682 696 692
f 686 692 695
f 683 695 693
f 934 924 685
f 934 685 693
f 924 678 685
f 680 683 685
f 677 686 683
f 677 681 686
f 675 682 681
f 675 679 688
f 676 684 679
f 645 687 676
f 645 689 687
f 676 687 684
f 679 684 688
f 675 688 682
f 681 682 686
f 677 683 680
f 678 680 685
f 924 627 678
f 670 673 679
f 670 675 674
f 668 674 681
f 668 677 672
f 669 672 680
f 645 676 673
f 673 676 679
f 670 679 675
f 674 675 681
f 668 681 677
f 672 677 680
f 669 680 678
f 669 678 671
f 627 671 678
f 627 638 671
f 645 673 662
f 662 673 670
f 662 670 665
f 665 670 674
f 661 665 674
f 661 674 668
f 661 668 667
f 667 668 672
f 663 667 672
f 663 669 666
f 663 672 669
f 666 669 671
f 664 666 671
f 638 664 671
f 635 664 638
f 645 662 651
f 651 662 665
f 648 651 665
f 648 665 661
f 648 661 652
f 652 661 667
f 646 652 667
f 646 663 650
f 646 667 663
f 647 650 666
f 650 663 666
f 647 664 649
f 647 666 664
f 635 649 664
f 632 649 635
f 632 640 656
f 649 656 658
f 647 658 655
f 650 655 659
f 646 659 653
f 652 653 657
f 648 657 654
f 651 654 660
f 645 651 660
f 648 654 651
f 648 652 657
f 646 653 652
f 646 650 659
f 647 655 650
f 647 649 658
f 632 656 649
f 631 641 640
f 631 640 632
f 630 642 641
f 630 641 631
f 629 642 630
f 629 630 634
f 630 631 634
f 631 636 634
f 631 632 636
f 632 635 636
f 635 638 637
f 635 637 636
f 634 636 639
f 636 637 639
f 628 634 639
f 628 629 634
f 941 639 633
f 941 628 639
f 625 633 637
f 633 639 637
f 625 637 638
f 625 638 627
f 762 757 754
f 860 762 754
f 764 755 757
f 764 757 762
f 764 763 755
f 763 756 755
f 761 758 756
f 763 761 756
f 758 760 759
f 761 760 758
f 745 759 760
f 768 745 760
f 766 760 763
f 763 760 761
f 768 760 766
f 860 774 767
f 766 763 764
f 766 764 765
f 767 765 762
f 765 764 762
f 860 767 762
f 775 766 765
f 775 768 766
f 861 775 765
f 861 765 767
f 890 861 767
f 890 767 774
f 736 745 768
f 736 768 775
f 897 772 891
f 897 893 769
f 896 771 893
f 896 890 770
f 905 861 890
f 890 774 773
f 860 773 774
f 890 773 770
f 896 770 771
f 893 771 769
f 897 769 772
f 895 891 772
f 734 736 775
f 861 734 775
f 856 793 776
f 863 776 735
f 863 856 776
f 861 735 734
f 863 735 861
f 856 843 793
f 843 798 786
f 843 786 793
f 798 777 786
f 798 779 777
f 798 795 779
f 797 778 795
f 795 778 779
f 797 796 780
f 797 780 778
f 811 796 807
f 811 780 796
f 786 777 784
f 782 777 779
f 784 777 782
f 783 779 778
f 783 782 779
f 783 778 781
f 781 778 780
f 810 781 780
f 811 810 780
f 787 784 782
f 793 786 791
f 810 804 781
f 804 788 781
f 787 782 785
f 785 782 783
f 788 785 783
f 788 783 781
f 803 789 788
f 803 802 789
f 804 803 788
f 790 784 787
f 794 786 784
f 794 791 786
f 794 784 790
f 792 787 785
f 792 790 787
f 789 785 788
f 792 785 789
f 806 800 805
f 806 796 800
f 807 796 806
f 800 796 799
f 801 799 797
f 801 795 798
f 799 796 797
f 801 797 795
f 845 805 800
f 846 799 844
f 847 844 801
f 847 798 843
f 847 801 798
f 844 799 801
f 846 800 799
f 846 845 800
f 830 829 820
f 623 852 845
f 852 805 845
f 852 827 805
f 852 851 827
f 810 809 808
f 810 808 804
f 815 803 804
f 815 804 808
f 816 803 815
f 816 802 803
f 814 809 813
f 818 817 814
f 818 814 813
f 813 809 810
f 813 810 812
f 819 818 813
f 819 813 812
f 812 810 811
f 825 807 806
f 826 811 807
f 824 812 811
f 828 819 812
f 828 812 824
f 826 824 811
f 826 807 825
f 827 825 806
f 827 806 805
f 832 820 822
f 832 830 820
f 832 822 831
f 831 822 821
f 833 831 821
f 833 821 823
f 848 824 826
f 850 848 826
f 850 825 849
f 850 826 825
f 849 825 827
f 851 849 827
f 1012 834 1015
f 1014 836 1016
f 835 1014 1013
f 1013 1015 837
f 834 837 1015
f 835 1013 837
f 835 836 1014
f 836 838 1016
f 935 829 834
f 853 838 833
f 833 838 836
f 831 833 836
f 831 836 835
f 832 835 837
f 831 835 832
f 830 832 837
f 830 837 834
f 829 830 834
f 1020 1017 842
f 1018 1016 840
f 841 1019 1018
f 1019 839 1017
f 842 1017 839
f 841 839 1019
f 841 1018 840
f 840 1016 838
f 623 842 852
f 853 848 838
f 848 840 838
f 850 840 848
f 850 841 840
f 849 839 841
f 850 849 841
f 851 839 849
f 851 842 839
f 852 842 851
f 842 623 1020
f 858 844 854
f 859 854 847
f 859 843 856
f 859 847 843
f 854 844 847
f 858 846 844
f 858 855 846
f 855 845 846
f 857 845 855
f 623 857 624
f 623 845 857
f 866 856 863
f 866 862 859
f 866 859 856
f 867 865 857
f 867 855 864
f 868 864 858
f 868 854 862
f 862 854 859
f 868 858 854
f 864 855 858
f 867 857 855
f 624 865 626
f 624 857 865
f 626 865 872
f 870 865 867
f 873 867 864
f 873 864 869
f 875 869 868
f 875 862 871
f 874 871 866
f 905 874 863
f 905 863 861
f 874 866 863
f 871 862 866
f 875 868 862
f 869 864 868
f 873 870 867
f 872 865 870
f 626 872 923
f 880 871 877
f 880 876 875
f 882 869 876
f 882 878 873
f 881 870 878
f 905 877 874
f 877 871 874
f 880 875 871
f 876 869 875
f 882 873 869
f 878 870 873
f 881 872 870
f 881 879 872
f 923 872 879
f 923 879 912
f 905 888 877
f 888 880 877
f 888 885 880
f 885 876 880
f 889 876 885
f 889 882 876
f 889 883 882
f 883 878 882
f 887 878 883
f 887 884 881
f 887 881 878
f 884 879 881
f 886 879 884
f 912 879 886
f 915 912 886
f 905 899 888
f 899 885 888
f 902 885 899
f 902 889 885
f 902 898 889
f 898 883 889
f 904 883 898
f 904 900 887
f 904 887 883
f 903 884 900
f 900 884 887
f 903 901 886
f 903 886 884
f 915 886 901
f 918 915 901
f 918 894 910
f 901 892 894
f 903 895 892
f 900 891 895
f 904 897 891
f 898 893 897
f 902 896 893
f 899 890 896
f 905 890 899
f 902 899 896
f 902 893 898
f 904 898 897
f 904 891 900
f 903 900 895
f 903 892 901
f 918 901 894
f 919 910 909
f 919 918 910
f 920 909 908
f 920 919 909
f 921 920 908
f 921 916 920
f 920 916 919
f 919 916 914
f 919 914 918
f 918 914 915
f 915 913 912
f 915 914 913
f 916 911 914
f 914 911 913
f 922 911 916
f 922 916 921
f 942 917 911
f 942 911 922
f 925 913 917
f 917 913 911
f 925 912 913
f 925 923 912
f 917 931 925
f 926 626 923
f 926 923 925
f 934 932 927
f 934 927 924
f 624 926 933
f 624 626 926
f 932 928 927
f 933 926 931
f 942 931 917
f 931 926 925
f 937 1025 623
f 1025 1021 623
f 938 935 1024
f 1024 935 936
f 937 623 933
f 623 624 933
f 938 928 932
f 1029 928 938
f 937 933 931
f 1028 937 931
f 928 1029 929
f 929 1022 944
f 929 941 928
f 1028 930 1023
f 1028 931 930
f 942 930 931
f 930 942 943
f 1028 1025 937
f 929 1029 1022
f 944 941 929
f 944 1031 949
f 1031 944 1022
f 943 1023 930
f 950 1030 943
f 1030 1023 943
f 1029 938 1024
f 945 941 944
f 945 940 941
f 946 939 940
f 946 940 945
f 943 942 939
f 946 943 939
f 947 946 945
f 948 947 945
f 949 948 944
f 948 945 944
f 950 946 947
f 950 943 946
f 983 962 949
f 949 1031 983
f 974 948 973
f 974 947 948
f 973 948 949
f 973 949 962
f 974 955 947
f 955 950 947
f 984 1030 950
f 984 950 955
f 983 1031 1030
f 984 983 1030
f 994 992 965
f 967 965 951
f 970 967 952
f 971 970 953
f 978 971 954
f 978 957 975
f 975 956 974
f 995 958 991
f 968 960 959
f 966 959 958
f 969 961 960
f 972 964 961
f 977 963 964
f 976 962 963
f 992 951 965
f 967 951 952
f 970 952 953
f 971 953 954
f 978 954 957
f 975 957 956
f 974 956 955
f 995 966 958
f 968 959 966
f 969 960 968
f 972 961 969
f 977 964 972
f 977 976 963
f 976 973 962
f 993 951 992
f 996 991 958
f 993 952 951
f 989 953 952
f 988 954 953
f 985 957 954
f 980 956 957
f 981 955 956
f 993 989 952
f 989 988 953
f 988 985 954
f 985 980 957
f 981 956 980
f 984 955 981
f 996 958 990
f 986 961 979
f 987 960 986
f 990 959 987
f 990 958 959
f 987 959 960
f 986 960 961
f 979 961 964
f 982 979 964
f 982 964 963
f 983 963 962
f 983 982 963
f 995 994 966
f 994 965 966
f 973 975 974
f 973 976 975
f 971 978 977
f 971 977 972
f 970 971 972
f 969 970 972
f 978 975 976
f 978 976 977
f 967 970 969
f 967 969 968
f 965 967 968
f 965 968 966
f 984 982 983
f 984 981 982
f 986 979 980
f 986 980 985
f 987 986 985
f 988 987 985
f 979 982 981
f 979 981 980
f 990 987 988
f 990 988 989
f 996 990 989
f 996 989 993
f 993 992 991
f 995 991 992
f 995 992 994
f 996 993 991
f 1022 1005 1000
f 1031 999 997
f 1031 997 1030
f 1030 997 998
f 1023 1001 1004
f 1014 1009 1013
f 1019 1009 1018
f 1025 1010 1021
f 1024 936 1011
f 1031 1026 1022
f 1030 1023 1027
f 1078 1072 1073
f 1074 1073 1072
f 1080 1076 1077
f 1075 1077 1076
f 1072 1078 1079
f 1076 1080 1081
f 1089 1091 1090
f 1085 1090 1091
f 1083 1086 1087
f 1088 1087 1086
f 1091 1084 1085
f 1087 1082 1083
f 1096 1095 1094
f 1100 1101 1102
f 1105 1107 1106
f 1112 1111 1110
