2004
1 26 100 90 80
27 52 202 200 193
53 78 120 110 100
79 104 202 200 193
105 130 120 110 100
131 156 240 240 200
157 182 240 240 200
183 208 240 240 200
209 234 240 240 200
235 260 240 240 200
261 286 240 240 200
287 294 140 107 75
295 302 140 107 75
303 312 116 132 167
313 322 116 132 167
323 330 146 142 187
331 356 100 90 80
357 382 202 200 193
383 408 120 110 100
409 434 202 200 193
435 460 120 110 100
461 486 240 240 200
487 512 240 240 200
513 538 240 240 200
539 564 240 240 200
565 590 240 240 200
591 616 240 240 200
617 642 100 90 80
643 668 202 200 193
669 694 120 110 100
695 720 202 200 193
721 746 120 110 100
747 772 240 240 200
773 798 240 240 200
799 824 240 240 200
825 850 240 240 200
851 876 240 240 200
877 902 240 240 200
903 928 100 90 80
929 960 202 200 193
961 996 120 110 100
997 1020 202 200 193
1021 1044 120 110 100
1045 1080 240 240 200
1081 1116 240 240 200
1117 1152 240 240 200
1153 1176 240 240 200
1177 1200 240 240 200
1201 1224 240 240 200
1225 1244 202 200 193
1245 1262 120 110 100
1263 1280 240 240 200
1281 1298 240 240 200
1299 1316 240 240 200
1317 1346 100 90 80
1347 1384 202 200 193
1385 1422 120 110 100
1423 1460 240 240 200
1461 1498 240 240 200
1499 1536 240 240 200
1537 1566 120 110 100
1567 1596 240 240 200
1597 1626 240 240 200
1627 1656 240 240 200
1657 1688 202 200 193
1689 1720 100 90 80
1721 1752 202 200 193
1753 1784 120 110 100
1785 1816 240 240 200
1817 1848 240 240 200
1849 1880 240 240 200
1881 1912 120 110 100
1913 1944 240 240 200
1945 1976 240 240 200
1977 2008 240 240 200
2009 2040 202 200 193
2041 2072 100 90 80
2073 2104 202 200 193
2105 2136 120 110 100
2137 2168 240 240 200
2169 2200 240 240 200
2201 2232 240 240 200
2233 2264 120 110 100
2265 2296 240 240 200
2297 2328 240 240 200
2329 2360 240 240 200
2361 2392 202 200 193
2393 2424 100 90 80
2425 2456 202 200 193
2457 2488 120 110 100
2489 2520 240 240 200
2521 2552 240 240 200
2553 2584 240 240 200
2585 2616 120 110 100
2617 2648 240 240 200
2649 2680 240 240 200
2681 2712 240 240 200
2713 2744 202 200 193
2745 2776 100 90 80
2777 2808 202 200 193
2809 2840 120 110 100
2841 2872 240 240 200
2873 2904 240 240 200
2905 2936 240 240 200
2937 2968 120 110 100
2969 3000 240 240 200
3001 3032 240 240 200
3033 3064 240 240 200
3065 3096 202 200 193
3097 3128 100 90 80
3129 3160 202 200 193
3161 3192 120 110 100
3193 3224 240 240 200
3225 3256 240 240 200
3257 3288 240 240 200
3289 3320 120 110 100
3321 3352 240 240 200
3353 3384 240 240 200
3385 3416 240 240 200
3417 3448 202 200 193
3449 3480 100 90 80
3481 3508 202 200 193
3509 3540 120 110 100
3541 3572 240 240 200
3573 3604 240 240 200
3605 3636 240 240 200
3637 3662 120 110 100
3663 3688 240 240 200
3689 3714 240 240 200
3715 3740 240 240 200
3741 3772 202 200 193
3773 3798 100 90 80
3799 3822 202 200 193
3823 3844 120 110 100
3845 3866 240 240 200
3867 3888 240 240 200
3889 3910 240 240 200
3911 3944 120 110 100
3945 3978 240 240 200
3979 4012 240 240 200
4013 4046 240 240 200
4047 4078 202 200 193
4079 4104 100 90 80
4105 4128 202 200 193
4129 4150 120 110 100
4151 4172 240 240 200
4173 4194 240 240 200
4195 4216 240 240 200
4217 4248 120 110 100
4249 4280 240 240 200
4281 4312 240 240 200
4313 4344 240 240 200
4345 4374 100 90 80
4375 4404 202 200 193
4405 4434 120 110 100
4435 4464 240 240 200
4465 4494 240 240 200
4495 4524 240 240 200
4525 4554 202 200 193
4555 4584 100 90 80
4585 4614 202 200 193
4615 4644 120 110 100
4645 4674 240 240 200
4675 4704 240 240 200
4705 4734 240 240 200
4735 4764 120 110 100
4765 4794 240 240 200
4795 4824 240 240 200
4825 4854 240 240 200
4855 4884 202 200 193
4885 4914 100 90 80
4915 4944 202 200 193
4945 4974 120 110 100
4975 5004 240 240 200
5005 5034 240 240 200
5035 5064 240 240 200
5065 5094 120 110 100
5095 5124 240 240 200
5125 5154 240 240 200
5155 5184 240 240 200
5185 5214 202 200 193
5215 5244 100 90 80
5245 5274 202 200 193
5275 5304 120 110 100
5305 5334 240 240 200
5335 5364 240 240 200
5365 5394 240 240 200
5395 5424 120 110 100
5425 5454 240 240 200
5455 5484 240 240 200
5485 5514 240 240 200
5515 5544 202 200 193
5545 5574 100 90 80
5575 5604 202 200 193
5605 5634 120 110 100
5635 5664 240 240 200
5665 5694 240 240 200
5695 5724 240 240 200
5725 5754 120 110 100
5755 5784 240 240 200
5785 5814 240 240 200
5815 5844 240 240 200
5845 5874 202 200 193
5875 5904 100 90 80
5905 5934 202 200 193
5935 5964 120 110 100
5965 5994 240 240 200
5995 6024 240 240 200
6025 6054 240 240 200
6055 6084 120 110 100
6085 6114 240 240 200
6115 6144 240 240 200
6145 6174 240 240 200
6175 6204 202 200 193
6205 6234 100 90 80
6235 6264 202 200 193
6265 6294 120 110 100
6295 6324 240 240 200
6325 6354 240 240 200
6355 6384 240 240 200
6385 6414 120 110 100
6415 6444 240 240 200
6445 6474 240 240 200
6475 6504 240 240 200
6505 6534 202 200 193
6535 6564 100 90 80
6565 6594 202 200 193
6595 6624 120 110 100
6625 6654 240 240 200
6655 6684 240 240 200
6685 6714 240 240 200
6715 6744 120 110 100
6745 6774 240 240 200
6775 6804 240 240 200
6805 6834 240 240 200
6835 6864 202 200 193
6865 6894 100 90 80
6895 6924 202 200 193
6925 6954 120 110 100
6955 6984 240 240 200
6985 7014 240 240 200
7015 7044 240 240 200
7045 7074 120 110 100
7075 7104 240 240 200
7105 7134 240 240 200
7135 7164 240 240 200
7165 7194 202 200 193
7195 7224 100 90 80
7225 7254 202 200 193
7255 7284 120 110 100
7285 7314 240 240 200
7315 7344 240 240 200
7345 7374 240 240 200
7375 7404 120 110 100
7405 7434 240 240 200
7435 7464 240 240 200
7465 7494 240 240 200
7495 7524 202 200 193
7525 7554 100 90 80
7555 7584 202 200 193
7585 7614 120 110 100
7615 7644 240 240 200
7645 7674 240 240 200
7675 7704 240 240 200
7705 7734 120 110 100
7735 7764 240 240 200
7765 7794 240 240 200
7795 7824 240 240 200
7825 7854 202 200 193
7855 7884 100 90 80
7885 7914 202 200 193
7915 7944 120 110 100
7945 7974 240 240 200
7975 8004 240 240 200
8005 8034 240 240 200
8035 8064 120 110 100
8065 8094 240 240 200
8095 8124 240 240 200
8125 8154 240 240 200
8155 8184 202 200 193
8185 8214 100 90 80
8215 8244 202 200 193
8245 8274 120 110 100
8275 8304 240 240 200
8305 8334 240 240 200
8335 8364 240 240 200
8365 8394 120 110 100
8395 8424 240 240 200
8425 8454 240 240 200
8455 8484 240 240 200
8485 8514 202 200 193
8515 8546 100 90 80
8547 8580 202 200 193
8581 8614 120 110 100
8615 8648 240 240 200
8649 8682 240 240 200
8683 8716 240 240 200
8717 8744 120 110 100
8745 8772 240 240 200
8773 8800 240 240 200
8801 8828 240 240 200
8829 8858 202 200 193
8859 8890 100 90 80
8891 8918 120 110 100
8919 8946 240 240 200
8947 8974 240 240 200
8975 9002 240 240 200
9003 9036 202 200 193
9037 9070 120 110 100
9071 9104 240 240 200
9105 9138 240 240 200
9139 9172 240 240 200
9173 9202 202 200 193
9203 9232 120 110 100
9233 9262 240 240 200
9263 9292 240 240 200
9293 9322 240 240 200
9323 9354 100 90 80
9355 9384 202 200 193
9385 9418 202 200 193
9419 9452 120 110 100
9453 9486 240 240 200
9487 9520 240 240 200
9521 9554 240 240 200
9555 9584 120 110 100
9585 9614 240 240 200
9615 9644 240 240 200
9645 9674 240 240 200
9675 9706 100 90 80
9707 9736 202 200 193
9737 9768 202 200 193
9769 9802 120 110 100
9803 9836 240 240 200
9837 9870 240 240 200
9871 9904 240 240 200
9905 9934 120 110 100
9935 9964 240 240 200
9965 9994 240 240 200
9995 10024 240 240 200
10025 10054 202 200 193
10055 10086 100 90 80
10087 10118 202 200 193
10119 10150 120 110 100
10151 10182 240 240 200
10183 10214 240 240 200
10215 10246 240 240 200
10247 10276 120 110 100
10277 10306 240 240 200
10307 10336 240 240 200
10337 10366 240 240 200
10367 10396 202 200 193
10397 10428 100 90 80
10429 10460 202 200 193
10461 10492 120 110 100
10493 10524 240 240 200
10525 10556 240 240 200
10557 10588 240 240 200
10589 10618 120 110 100
10619 10648 240 240 200
10649 10678 240 240 200
10679 10708 240 240 200
10709 10738 202 200 193
10739 10770 100 90 80
10771 10802 202 200 193
10803 10834 120 110 100
10835 10866 240 240 200
10867 10898 240 240 200
10899 10930 240 240 200
10931 10960 120 110 100
10961 10990 240 240 200
10991 11020 240 240 200
11021 11050 240 240 200
11051 11080 202 200 193
11081 11112 100 90 80
11113 11144 202 200 193
11145 11176 120 110 100
11177 11208 240 240 200
11209 11240 240 240 200
11241 11272 240 240 200
11273 11302 120 110 100
11303 11332 240 240 200
11333 11362 240 240 200
11363 11392 240 240 200
11393 11422 202 200 193
11423 11450 100 90 80
11451 11476 202 200 193
11477 11502 120 110 100
11503 11528 240 240 200
11529 11554 240 240 200
11555 11580 240 240 200
11581 11608 120 110 100
11609 11636 240 240 200
11637 11664 240 240 200
11665 11692 240 240 200
11693 11720 202 200 193
11721 11746 100 90 80
11747 11772 202 200 193
11773 11798 120 110 100
11799 11824 240 240 200
11825 11850 240 240 200
11851 11876 240 240 200
11877 11904 120 110 100
11905 11932 240 240 200
11933 11960 240 240 200
11961 11988 240 240 200
11989 12016 202 200 193
12017 12042 100 90 80
12043 12068 202 200 193
12069 12094 120 110 100
12095 12120 240 240 200
12121 12146 240 240 200
12147 12172 240 240 200
12173 12200 120 110 100
12201 12228 240 240 200
12229 12256 240 240 200
12257 12284 240 240 200
12285 12312 202 200 193
12313 12338 100 90 80
12339 12364 202 200 193
12365 12390 120 110 100
12391 12416 240 240 200
12417 12442 240 240 200
12443 12468 240 240 200
12469 12496 120 110 100
12497 12524 240 240 200
12525 12552 240 240 200
12553 12580 240 240 200
12581 12608 202 200 193
12609 12634 100 90 80
12635 12660 202 200 193
12661 12686 120 110 100
12687 12712 240 240 200
12713 12738 240 240 200
12739 12764 240 240 200
12765 12792 120 110 100
12793 12820 240 240 200
12821 12848 240 240 200
12849 12876 240 240 200
12877 12902 100 90 80
12903 12930 202 200 193
12931 12956 202 200 193
12957 12982 120 110 100
12983 13008 240 240 200
13009 13034 240 240 200
13035 13060 240 240 200
13061 13086 120 110 100
13087 13112 240 240 200
13113 13138 240 240 200
13139 13164 240 240 200
13165 13190 100 90 80
13191 13216 202 200 193
13217 13244 202 200 193
13245 13272 120 110 100
13273 13300 240 240 200
13301 13328 240 240 200
13329 13356 240 240 200
13357 13380 120 110 100
13381 13404 240 240 200
13405 13428 240 240 200
13429 13452 240 240 200
13453 13478 100 90 80
13479 13504 202 200 193
13505 13532 202 200 193
13533 13560 120 110 100
13561 13588 240 240 200
13589 13616 240 240 200
13617 13644 240 240 200
13645 13668 120 110 100
13669 13692 240 240 200
13693 13716 240 240 200
13717 13740 240 240 200
13741 13766 100 90 80
13767 13792 202 200 193
13793 13820 202 200 193
13821 13848 120 110 100
13849 13876 240 240 200
13877 13904 240 240 200
13905 13932 240 240 200
13933 13956 120 110 100
13957 13980 240 240 200
13981 14004 240 240 200
14005 14028 240 240 200
14029 14054 100 90 80
14055 14080 202 200 193
14081 14108 202 200 193
14109 14136 120 110 100
14137 14164 240 240 200
14165 14192 240 240 200
14193 14220 240 240 200
14221 14244 120 110 100
14245 14268 240 240 200
14269 14292 240 240 200
14293 14316 240 240 200
14317 14342 100 90 80
14343 14368 202 200 193
14369 14396 202 200 193
14397 14420 120 110 100
14421 14448 120 110 100
14449 14472 240 240 200
14473 14496 240 240 200
14497 14520 240 240 200
14521 14548 240 240 200
14549 14576 240 240 200
14577 14604 240 240 200
14605 14630 100 90 80
14631 14656 202 200 193
14657 14680 120 110 100
14681 14704 240 240 200
14705 14728 240 240 200
14729 14752 240 240 200
14753 14780 202 200 193
14781 14808 120 110 100
14809 14836 240 240 200
14837 14864 240 240 200
14865 14892 240 240 200
14893 14918 100 90 80
14919 14944 202 200 193
14945 14968 120 110 100
14969 14992 240 240 200
14993 15016 240 240 200
15017 15040 240 240 200
15041 15068 202 200 193
15069 15096 120 110 100
15097 15124 240 240 200
15125 15152 240 240 200
15153 15180 240 240 200
15181 15206 100 90 80
15207 15232 202 200 193
15233 15256 120 110 100
15257 15280 240 240 200
15281 15304 240 240 200
15305 15328 240 240 200
15329 15356 202 200 193
15357 15384 120 110 100
15385 15412 240 240 200
15413 15440 240 240 200
15441 15468 240 240 200
15469 15494 100 90 80
15495 15520 202 200 193
15521 15544 120 110 100
15545 15568 240 240 200
15569 15592 240 240 200
15593 15616 240 240 200
15617 15644 202 200 193
15645 15672 120 110 100
15673 15700 240 240 200
15701 15728 240 240 200
15729 15756 240 240 200
15757 15782 100 90 80
15783 15808 202 200 193
15809 15832 120 110 100
15833 15856 240 240 200
15857 15880 240 240 200
15881 15904 240 240 200
15905 15932 202 200 193
15933 15960 120 110 100
15961 15988 240 240 200
15989 16016 240 240 200
16017 16044 240 240 200
16045 16070 100 90 80
16071 16096 202 200 193
16097 16120 120 110 100
16121 16144 240 240 200
16145 16168 240 240 200
16169 16192 240 240 200
16193 16220 202 200 193
16221 16246 100 90 80
16247 16270 120 110 100
16271 16298 120 110 100
16299 16322 240 240 200
16323 16346 240 240 200
16347 16370 240 240 200
16371 16398 240 240 200
16399 16426 240 240 200
16427 16454 240 240 200
16455 16480 202 200 193
16481 16506 120 110 100
16507 16532 240 240 200
16533 16558 240 240 200
16559 16584 240 240 200
16585 16610 100 90 80
16611 16636 202 200 193
16637 16662 202 200 193
16663 16688 120 110 100
16689 16714 240 240 200
16715 16740 240 240 200
16741 16766 240 240 200
16767 16794 120 110 100
16795 16822 240 240 200
16823 16850 240 240 200
16851 16878 240 240 200
16879 16904 100 90 80
16905 16928 202 200 193
16929 16956 202 200 193
16957 16980 120 110 100
16981 17004 240 240 200
17005 17028 240 240 200
17029 17052 240 240 200
17053 17076 202 200 193
17077 17102 100 90 80
17103 17130 120 110 100
17131 17154 120 110 100
17155 17182 240 240 200
17183 17210 240 240 200
17211 17238 240 240 200
17239 17262 240 240 200
17263 17286 240 240 200
17287 17310 240 240 200
17311 17338 202 200 193
17339 17362 202 200 193
17363 17386 120 110 100
17387 17410 240 240 200
17411 17434 240 240 200
17435 17458 240 240 200
17459 17484 100 90 80
17485 17512 120 110 100
17513 17540 240 240 200
17541 17568 240 240 200
17569 17596 240 240 200
17597 17624 202 200 193
17625 17648 202 200 193
17649 17672 120 110 100
17673 17696 240 240 200
17697 17720 240 240 200
17721 17744 240 240 200
17745 17770 100 90 80
17771 17798 120 110 100
17799 17826 240 240 200
17827 17854 240 240 200
17855 17882 240 240 200
17883 17910 202 200 193
17911 17934 202 200 193
17935 17958 120 110 100
17959 17982 240 240 200
17983 18006 240 240 200
18007 18030 240 240 200
18031 18056 100 90 80
18057 18084 120 110 100
18085 18112 240 240 200
18113 18140 240 240 200
18141 18168 240 240 200
18169 18196 202 200 193
18197 18220 202 200 193
18221 18244 120 110 100
18245 18268 240 240 200
18269 18292 240 240 200
18293 18316 240 240 200
18317 18342 100 90 80
18343 18370 120 110 100
18371 18398 240 240 200
18399 18426 240 240 200
18427 18454 240 240 200
18455 18482 202 200 193
18483 18506 202 200 193
18507 18530 120 110 100
18531 18554 240 240 200
18555 18578 240 240 200
18579 18602 240 240 200
18603 18628 100 90 80
18629 18656 120 110 100
18657 18684 240 240 200
18685 18712 240 240 200
18713 18740 240 240 200
18741 18764 202 200 193
18765 18792 202 200 193
18793 18816 120 110 100
18817 18840 240 240 200
18841 18864 240 240 200
18865 18888 240 240 200
18889 18914 100 90 80
18915 18944 202 200 193
18945 18970 120 110 100
18971 19002 120 110 100
19003 19028 240 240 200
19029 19054 240 240 200
19055 19080 240 240 200
19081 19112 240 240 200
19113 19144 240 240 200
19145 19176 240 240 200
19177 19200 202 200 193
19201 19230 100 90 80
19231 19254 120 110 100
19255 19278 240 240 200
19279 19302 240 240 200
19303 19326 240 240 200
19327 19350 202 200 193
19351 19386 202 200 193
19387 19424 120 110 100
19425 19462 240 240 200
19463 19500 240 240 200
19501 19538 240 240 200
19539 19568 100 90 80
19569 19594 120 110 100
19595 19620 240 240 200
19621 19646 240 240 200
19647 19672 240 240 200
19673 19698 202 200 193
19699 19732 202 200 193
19733 19766 120 110 100
19767 19800 240 240 200
19801 19834 240 240 200
19835 19868 240 240 200
19869 19898 100 90 80
19899 19924 120 110 100
19925 19950 240 240 200
19951 19976 240 240 200
19977 20002 240 240 200
20003 20028 202 200 193
20029 20062 202 200 193
20063 20094 120 110 100
20095 20126 240 240 200
20127 20158 240 240 200
20159 20190 240 240 200
20191 20224 100 90 80
20225 20256 202 200 193
20257 20290 120 110 100
20291 20324 240 240 200
20325 20358 240 240 200
20359 20392 240 240 200
20393 20428 202 200 193
20429 20464 120 110 100
20465 20500 240 240 200
20501 20536 240 240 200
20537 20572 240 240 200
20573 20608 202 200 193
20609 20644 100 90 80
20645 20680 120 110 100
20681 20716 240 240 200
20717 20752 240 240 200
20753 20788 240 240 200
20789 20824 202 200 193
20825 20860 120 110 100
20861 20896 240 240 200
20897 20932 240 240 200
20933 20968 240 240 200
20969 21004 202 200 193
21005 21040 100 90 80
21041 21076 120 110 100
21077 21112 240 240 200
21113 21148 240 240 200
21149 21184 240 240 200
21185 21220 202 200 193
21221 21256 120 110 100
21257 21292 240 240 200
21293 21328 240 240 200
21329 21364 240 240 200
21365 21400 202 200 193
21401 21436 100 90 80
21437 21472 120 110 100
21473 21508 240 240 200
21509 21544 240 240 200
21545 21580 240 240 200
21581 21616 202 200 193
21617 21652 120 110 100
21653 21688 240 240 200
21689 21724 240 240 200
21725 21760 240 240 200
21761 21796 202 200 193
21797 21832 100 90 80
21833 21868 120 110 100
21869 21904 240 240 200
21905 21940 240 240 200
21941 21976 240 240 200
21977 22012 202 200 193
22013 22048 120 110 100
22049 22084 240 240 200
22085 22120 240 240 200
22121 22156 240 240 200
22157 22192 202 200 193
22193 22228 100 90 80
22229 22264 120 110 100
22265 22300 240 240 200
22301 22336 240 240 200
22337 22372 240 240 200
22373 22408 202 200 193
22409 22444 120 110 100
22445 22480 240 240 200
22481 22516 240 240 200
22517 22552 240 240 200
22553 22588 202 200 193
22589 22624 100 90 80
22625 22660 120 110 100
22661 22696 240 240 200
22697 22732 240 240 200
22733 22768 240 240 200
22769 22804 202 200 193
22805 22840 120 110 100
22841 22876 240 240 200
22877 22912 240 240 200
22913 22948 240 240 200
22949 22984 202 200 193
22985 23020 100 90 80
23021 23056 120 110 100
23057 23092 240 240 200
23093 23128 240 240 200
23129 23164 240 240 200
23165 23200 202 200 193
23201 23236 120 110 100
23237 23272 240 240 200
23273 23308 240 240 200
23309 23344 240 240 200
23345 23380 202 200 193
23381 23416 100 90 80
23417 23452 120 110 100
23453 23488 240 240 200
23489 23524 240 240 200
23525 23560 240 240 200
23561 23596 202 200 193
23597 23632 120 110 100
23633 23668 240 240 200
23669 23704 240 240 200
23705 23740 240 240 200
23741 23776 202 200 193
23777 23812 100 90 80
23813 23848 120 110 100
23849 23884 240 240 200
23885 23920 240 240 200
23921 23956 240 240 200
23957 23992 202 200 193
23993 24028 120 110 100
24029 24064 240 240 200
24065 24100 240 240 200
24101 24136 240 240 200
24137 24172 202 200 193
24173 24208 100 90 80
24209 24244 120 110 100
24245 24280 240 240 200
24281 24316 240 240 200
24317 24352 240 240 200
24353 24388 202 200 193
24389 24424 120 110 100
24425 24460 240 240 200
24461 24496 240 240 200
24497 24532 240 240 200
24533 24568 202 200 193
24569 24604 100 90 80
24605 24640 120 110 100
24641 24676 240 240 200
24677 24712 240 240 200
24713 24748 240 240 200
24749 24782 202 200 193
24783 24808 120 110 100
24809 24834 240 240 200
24835 24860 240 240 200
24861 24886 240 240 200
24887 24912 202 200 193
24913 24940 100 90 80
24941 24974 120 110 100
24975 25008 240 240 200
25009 25042 240 240 200
25043 25076 240 240 200
25077 25098 120 110 100
25099 25120 240 240 200
25121 25142 240 240 200
25143 25164 240 240 200
25165 25186 202 200 193
25187 25212 100 90 80
25213 25244 202 200 193
25245 25278 120 110 100
25279 25312 240 240 200
25313 25346 240 240 200
25347 25380 240 240 200
25381 25402 120 110 100
25403 25424 240 240 200
25425 25446 240 240 200
25447 25468 240 240 200
25469 25490 202 200 193
25491 25516 100 90 80
25517 25546 202 200 193
25547 25570 120 110 100
25571 25594 240 240 200
25595 25618 240 240 200
25619 25642 240 240 200
25643 25666 202 200 193
25667 25694 120 110 100
25695 25722 240 240 200
25723 25750 240 240 200
25751 25778 240 240 200
25779 25804 100 90 80
25805 25830 120 110 100
25831 25856 202 200 193
25857 25882 240 240 200
25883 25908 240 240 200
25909 25934 240 240 200
25935 25960 202 200 193
25961 25986 120 110 100
25987 26012 240 240 200
26013 26038 240 240 200
26039 26064 240 240 200
26065 26090 100 90 80
26091 26114 120 110 100
26115 26138 202 200 193
26139 26162 240 240 200
26163 26186 240 240 200
26187 26210 240 240 200
26211 26232 202 200 193
26233 26250 120 110 100
26251 26268 240 240 200
26269 26286 240 240 200
26287 26304 240 240 200
26305 26312 100 90 80
26313 26334 50 120 50
26335 26338 50 120 50
26339 26346 50 120 50
26347 26419 50 120 50
26420 26624 50 120 50
26625 26760 50 120 50
26761 26796 50 120 50
26797 26803 50 120 50
26804 26806 50 120 50
26807 26809 50 120 50
26810 26821 50 120 50
26822 26834 50 120 50
26835 26837 50 120 50
26838 26840 50 120 50
26841 26851 50 120 50
26852 27031 50 120 50
27032 27081 50 120 50
27082 27191 50 120 50
27192 27337 50 120 50
27338 27356 50 120 50
27357 27359 50 120 50
27360 27362 50 120 50
27363 27365 50 120 50
27366 27369 50 120 50
27370 27373 50 120 50
27374 27376 50 120 50
27377 27451 50 120 50
27452 27507 50 120 50
27508 27545 50 120 50
27546 27582 50 120 50
27583 27626 50 120 50
27627 27726 50 120 50
27727 27745 50 120 50
27746 27749 50 120 50
27750 27754 50 120 50
27755 27757 50 120 50
27758 27760 50 120 50
27761 27763 50 120 50
27764 27858 50 120 50
27859 27920 50 120 50
27921 27952 50 120 50
27953 27962 50 120 50
27963 27974 50 120 50
27975 28005 50 120 50
28006 28090 50 120 50
28091 28164 50 120 50
28165 28197 50 120 50
28198 28202 50 120 50
28203 28206 50 120 50
28207 28234 50 120 50
28235 28330 50 120 50
28331 28348 50 120 50
28349 28349 50 120 50
28350 28351 50 120 50
28352 28352 50 120 50
28353 28379 50 120 50
28380 28423 50 120 50
28424 28492 50 120 50
28493 28636 50 120 50
28637 28645 50 120 50
28646 28651 50 120 50
28652 28750 50 120 50
28751 28818 50 120 50
28819 28828 50 120 50
28829 28836 50 120 50
28837 28837 50 120 50
28838 28851 50 120 50
28852 28879 50 120 50
28880 28890 50 120 50
28891 29022 50 120 50
29023 29065 50 120 50
29066 29113 50 120 50
29114 29241 50 120 50
29242 29320 50 120 50
29321 29355 50 120 50
29356 29358 50 120 50
29359 29362 50 120 50
29363 29365 50 120 50
29366 29401 50 120 50
29402 29420 50 120 50
29421 29448 50 120 50
29449 29625 50 120 50
29626 29642 50 120 50
29643 29816 50 120 50
29817 29993 50 120 50
29994 30095 50 120 50
30096 30158 50 120 50
30159 30166 50 120 50
30167 30169 50 120 50
30170 30197 50 120 50
30198 30280 50 120 50
30281 30374 50 120 50
30375 30487 50 120 50
30488 30568 50 120 50
30569 30575 50 120 50
30576 30646 50 120 50
30647 30849 50 120 50
30850 31045 50 120 50
31046 31241 50 120 50
31242 31371 50 120 50
31372 31386 50 120 50
31387 31524 50 120 50
31525 31554 50 120 50
31555 31595 50 120 50
31596 31607 50 120 50
31608 31618 50 120 50
31619 31622 50 120 50
31623 31740 50 120 50
31741 31981 50 120 50
31982 32224 50 120 50
32225 32450 50 120 50
32451 32608 50 120 50
32609 32700 50 120 50
32701 32847 50 120 50
32848 32976 50 120 50
32977 32996 50 120 50
32997 32998 50 120 50
32999 33000 50 120 50
33001 33002 50 120 50
33003 33016 50 120 50
33017 33030 50 120 50
33031 33052 50 120 50
33053 33100 50 120 50
33101 33198 50 120 50
33199 33310 50 120 50
33311 33501 50 120 50
33502 33742 50 120 50
33743 33847 50 120 50
33848 33852 50 120 50
33853 33860 50 120 50
33861 33870 50 120 50
33871 33878 50 120 50
33879 33879 50 120 50
33880 33883 50 120 50
33884 33896 50 120 50
33897 33902 50 120 50
33903 33905 50 120 50
33906 33910 50 120 50
33911 33916 50 120 50
33917 33920 40 100 40
33921 33924 40 100 40
33925 33940 208 178 203
33941 33952 208 178 203
33953 33956 40 100 40
33957 33960 40 100 40
33961 33964 40 100 40
33965 33990 153 152 122
33991 33998 153 152 122
33999 34000 153 152 122
34001 34002 153 152 122
34003 34006 40 100 40
34007 34181 140 70 40
34182 34356 140 70 40
34357 34360 40 100 40
34361 34364 40 100 40
34365 34368 40 100 40
34369 34372 40 100 40
34373 34376 40 100 40
34377 34380 40 100 40
34381 34384 40 100 40
34385 34388 40 100 40
34389 34392 40 100 40
34393 34396 40 100 40
34397 34400 40 100 40
34401 34575 140 70 40
34576 34579 40 100 40
34580 34583 40 100 40
34584 34587 40 100 40
34588 34591 40 100 40
34592 34595 40 100 40
34596 34599 40 100 40
34600 34603 40 100 40
34604 34649 140 70 40
34650 34665 165 194 206
34666 34669 40 100 40
34670 34673 40 100 40
34674 34677 40 100 40
34678 34681 40 100 40
34682 34685 40 100 40
34686 34689 40 100 40
34690 34693 40 100 40
34694 34697 40 100 40
34698 34701 40 100 40
34702 34705 40 100 40
34706 34709 40 100 40
34710 34713 40 100 40
34714 34717 40 100 40
34718 34721 40 100 40
34722 34725 40 100 40
34726 34729 40 100 40
34730 34733 40 100 40
34734 34737 40 100 40
34738 34741 40 100 40
34742 34745 40 100 40
34746 34749 40 100 40
34750 34753 40 100 40
34754 34757 40 100 40
34758 34761 40 100 40
34762 34765 40 100 40
34766 34769 40 100 40
34770 34773 40 100 40
34774 34777 40 100 40
34778 34781 40 100 40
34782 34785 40 100 40
34786 34789 40 100 40
34790 34793 40 100 40
34794 34797 40 100 40
34798 34801 40 100 40
34802 34805 40 100 40
34806 34809 40 100 40
34810 34813 40 100 40
34814 34859 140 70 40
34860 34875 165 194 206
34876 34879 40 100 40
34880 34883 40 100 40
34884 34887 40 100 40
34888 34891 40 100 40
34892 34895 40 100 40
34896 34899 40 100 40
34900 34903 40 100 40
34904 34907 40 100 40
34908 34911 40 100 40
34912 34915 40 100 40
34916 34919 40 100 40
34920 34923 40 100 40
34924 34927 40 100 40
34928 34931 40 100 40
34932 34935 40 100 40
34936 34951 208 178 203
34952 34963 208 178 203
34964 35138 140 70 40
35139 35142 40 100 40
35143 35317 140 70 40
35318 35492 140 70 40
35493 35496 40 100 40
35497 35500 40 100 40
35501 35504 40 100 40
35505 35508 40 100 40
35509 35512 40 100 40
35513 35516 40 100 40
35517 35520 40 100 40
35521 35524 40 100 40
35525 35528 40 100 40
35529 35532 40 100 40
35533 35536 40 100 40
35537 35540 40 100 40
35541 35586 140 70 40
35587 35602 165 194 206
35603 35606 40 100 40
35607 35610 40 100 40
35611 35614 40 100 40
35615 35618 40 100 40
35619 35622 40 100 40
35623 35626 40 100 40
35627 35630 40 100 40
35631 35634 40 100 40
35635 35638 40 100 40
35639 35642 40 100 40
35643 35688 140 70 40
35689 35704 165 194 206
35705 35708 40 100 40
35709 35712 40 100 40
35713 35716 40 100 40
35717 35720 40 100 40
35721 35724 40 100 40
35725 35728 40 100 40
35729 35732 40 100 40
35733 35736 40 100 40
35737 35740 40 100 40
35741 35744 40 100 40
35745 35748 40 100 40
35749 35752 40 100 40
35753 35756 40 100 40
35757 35760 40 100 40
35761 35764 40 100 40
35765 35768 40 100 40
35769 35772 40 100 40
35773 35776 40 100 40
35777 35780 40 100 40
35781 35784 40 100 40
35785 35788 40 100 40
35789 35814 153 152 122
35815 35822 153 152 122
35823 35824 153 152 122
35825 35826 153 152 122
35827 35830 40 100 40
35831 35834 40 100 40
35835 35838 40 100 40
35839 35842 40 100 40
35843 35846 40 100 40
35847 35850 40 100 40
35851 35854 40 100 40
35855 35880 153 152 122
35881 35888 153 152 122
35889 35890 153 152 122
35891 35892 153 152 122
35893 35896 40 100 40
35897 35900 40 100 40
35901 35904 40 100 40
35905 35908 40 100 40
35909 35912 40 100 40
35913 35916 40 100 40
35917 35920 40 100 40
35921 35924 40 100 40
35925 35928 40 100 40
35929 35932 40 100 40
35933 35936 40 100 40
35937 35940 40 100 40
35941 35944 40 100 40
35945 35948 40 100 40
35949 35952 40 100 40
35953 35956 40 100 40
35957 35960 40 100 40
35961 35964 40 100 40
35965 35968 40 100 40
35969 35972 40 100 40
35973 35976 40 100 40
35977 35980 40 100 40
35981 35984 40 100 40
35985 35988 40 100 40
35989 35992 40 100 40
35993 36018 153 152 122
36019 36026 153 152 122
36027 36028 153 152 122
36029 36030 153 152 122
36031 36034 40 100 40
36035 36038 40 100 40
36039 36042 40 100 40
36043 36046 40 100 40
36047 36050 40 100 40
36051 36054 40 100 40
36055 36229 140 70 40
36230 36233 40 100 40
36234 36279 140 70 40
36280 36295 165 194 206
36296 36299 40 100 40
36300 36303 40 100 40
36304 36307 40 100 40
36308 36311 40 100 40
36312 36315 40 100 40
36316 36319 40 100 40
36320 36323 40 100 40
36324 36327 40 100 40
36328 36353 153 152 122
36354 36361 153 152 122
36362 36363 153 152 122
36364 36365 153 152 122
36366 36381 208 178 203
36382 36393 208 178 203
36394 36568 140 70 40
36569 36572 40 100 40
36573 36618 140 70 40
36619 36634 165 194 206
36635 36638 40 100 40
36639 36642 40 100 40
36643 36817 140 70 40
36818 36821 40 100 40
36822 36825 40 100 40
36826 36829 40 100 40
36830 36833 40 100 40
36834 36837 40 100 40
36838 36841 40 100 40
36842 36845 40 100 40
36846 36849 40 100 40
36850 36853 40 100 40
36854 36857 40 100 40
36858 36861 40 100 40
36862 36865 40 100 40
36866 36881 208 178 203
36882 36893 208 178 203
36894 36897 40 100 40
36898 37072 140 70 40
37073 37076 40 100 40
37077 37080 40 100 40
37081 37084 40 100 40
37085 37088 40 100 40
37089 37092 40 100 40
37093 37096 40 100 40
37097 37100 40 100 40
37101 37104 40 100 40
37105 37108 40 100 40
37109 37154 140 70 40
37155 37170 165 194 206
37171 37174 40 100 40
37175 37178 40 100 40
37179 37182 40 100 40
37183 37186 40 100 40
37187 37190 40 100 40
37191 37194 40 100 40
37195 37198 40 100 40
37199 37202 40 100 40
37203 37206 40 100 40
37207 37210 40 100 40
37211 37214 40 100 40
37215 37218 40 100 40
37219 37222 40 100 40
37223 37226 40 100 40
37227 37230 40 100 40
37231 37234 40 100 40
37235 37238 40 100 40
37239 37284 140 70 40
37285 37300 165 194 206
37301 37304 40 100 40
37305 37308 40 100 40
37309 37312 40 100 40
37313 37316 40 100 40
37317 37320 40 100 40
37321 37324 40 100 40
37325 37328 40 100 40
37329 37332 40 100 40
37333 37336 40 100 40
37337 37340 40 100 40
37341 37344 40 100 40
37345 37348 40 100 40
37349 37352 40 100 40
37353 37356 40 100 40
37357 37360 40 100 40
37361 37386 153 152 122
37387 37394 153 152 122
37395 37396 153 152 122
37397 37398 153 152 122
37399 37402 40 100 40
37403 37406 40 100 40
37407 37410 40 100 40
37411 37414 40 100 40
37415 37418 40 100 40
37419 37422 40 100 40
37423 37426 40 100 40
37427 37430 40 100 40
37431 37434 40 100 40
37435 37438 40 100 40
37439 37442 40 100 40
37443 37446 40 100 40
37447 37450 40 100 40
37451 37454 40 100 40
37455 37458 40 100 40
37459 37462 40 100 40
37463 37466 40 100 40
37467 37470 40 100 40
37471 37474 40 100 40
37475 37478 40 100 40
37479 37482 40 100 40
37483 37486 40 100 40
37487 37490 40 100 40
37491 37494 40 100 40
37495 37498 40 100 40
37499 37502 40 100 40
37503 37506 40 100 40
37507 37510 40 100 40
37511 37514 40 100 40
37515 37518 40 100 40
37519 37522 40 100 40
37523 37526 40 100 40
37527 37530 40 100 40
37531 37534 40 100 40
37535 37538 40 100 40
37539 37542 40 100 40
37543 37546 40 100 40
37547 37550 40 100 40
37551 37554 40 100 40
37555 37558 40 100 40
37559 37562 40 100 40
37563 37566 40 100 40
37567 37570 40 100 40
37571 37574 40 100 40
37575 37578 40 100 40
37579 37582 40 100 40
37583 37586 40 100 40
37587 37590 40 100 40
37591 37594 40 100 40
37595 37598 40 100 40
37599 37602 40 100 40
37603 37606 40 100 40
37607 37610 40 100 40
37611 37614 40 100 40
37615 37618 40 100 40
37619 37622 40 100 40
37623 37626 40 100 40
37627 37630 40 100 40
37631 37805 140 70 40
37806 37809 40 100 40
37810 37813 40 100 40
37814 37817 40 100 40
37818 37821 40 100 40
37822 37825 40 100 40
37826 37829 40 100 40
37830 37833 40 100 40
37834 37837 40 100 40
37838 37841 40 100 40
37842 37845 40 100 40
37846 37849 40 100 40
37850 38024 140 70 40
38025 38028 40 100 40
38029 38032 40 100 40
38033 38036 40 100 40
38037 38040 40 100 40
38041 38044 40 100 40
38045 38048 40 100 40
38049 38052 40 100 40
38053 38056 40 100 40
38057 38060 40 100 40
38061 38064 40 100 40
38065 38068 40 100 40
38069 38072 40 100 40
38073 38076 40 100 40
38077 38080 40 100 40
38081 38084 40 100 40
38085 38130 140 70 40
38131 38146 165 194 206
38147 38150 40 100 40
38151 38154 40 100 40
38155 38158 40 100 40
38159 38162 40 100 40
38163 38166 40 100 40
38167 38170 40 100 40
38171 38174 40 100 40
38175 38178 40 100 40
38179 38182 40 100 40
38183 38186 40 100 40
38187 38190 40 100 40
38191 38206 208 178 203
38207 38218 208 178 203
38219 38222 40 100 40
38223 38226 40 100 40
38227 38230 40 100 40
38231 38256 153 152 122
38257 38264 153 152 122
38265 38266 153 152 122
38267 38268 153 152 122
38269 38314 140 70 40
38315 38330 165 194 206
38331 38356 153 152 122
38357 38364 153 152 122
38365 38366 153 152 122
38367 38368 153 152 122
38369 38372 40 100 40
38373 38376 40 100 40
38377 38380 40 100 40
38381 38384 40 100 40
38385 38388 40 100 40
38389 38404 208 178 203
38405 38416 208 178 203
38417 38420 40 100 40
38421 38424 40 100 40
38425 38428 40 100 40
38429 38432 40 100 40
38433 38436 40 100 40
38437 38440 40 100 40
38441 38444 40 100 40
38445 38448 40 100 40
38449 38474 153 152 122
38475 38482 153 152 122
38483 38484 153 152 122
38485 38486 153 152 122
38487 38490 40 100 40
38491 38494 40 100 40
38495 38498 40 100 40
38499 38502 40 100 40
38503 38506 40 100 40
38507 38510 40 100 40
38511 38514 40 100 40
38515 38518 40 100 40
38519 38522 40 100 40
38523 38526 40 100 40
38527 38530 40 100 40
38531 38534 40 100 40
38535 38538 40 100 40
38539 38542 40 100 40
38543 38546 40 100 40
38547 38550 40 100 40
38551 38554 40 100 40
38555 38558 40 100 40
38559 38562 40 100 40
38563 38566 40 100 40
38567 38570 40 100 40
38571 38574 40 100 40
38575 38578 40 100 40
38579 38582 40 100 40
38583 38586 40 100 40
38587 38590 40 100 40
38591 38765 140 70 40
38766 38769 40 100 40
38770 38773 40 100 40
38774 38777 40 100 40
38778 38781 40 100 40
38782 38785 40 100 40
38786 38789 40 100 40
38790 38793 40 100 40
38794 38797 40 100 40
38798 38801 40 100 40
38802 38805 40 100 40
38806 38809 40 100 40
38810 38813 40 100 40
38814 38817 40 100 40
38818 38821 40 100 40
38822 38825 40 100 40
38826 38829 40 100 40
38830 38833 40 100 40
38834 38837 40 100 40
38838 38841 40 100 40
38842 38845 40 100 40
38846 38849 40 100 40
38850 38853 40 100 40
38854 38857 40 100 40
38858 38861 40 100 40
38862 38865 40 100 40
38866 38869 40 100 40
38870 38873 40 100 40
38874 38877 40 100 40
38878 38881 40 100 40
38882 38885 40 100 40
38886 38889 40 100 40
38890 38893 40 100 40
38894 38897 40 100 40
38898 38901 40 100 40
38902 38905 40 100 40
38906 38909 40 100 40
38910 38955 140 70 40
38956 38971 165 194 206
38972 39017 140 70 40
39018 39033 165 194 206
39034 39037 40 100 40
39038 39041 40 100 40
39042 39045 40 100 40
39046 39049 40 100 40
39050 39053 40 100 40
39054 39057 40 100 40
39058 39061 40 100 40
39062 39065 40 100 40
39066 39069 40 100 40
39070 39073 40 100 40
39074 39077 40 100 40
39078 39081 40 100 40
39082 39085 40 100 40
39086 39089 40 100 40
39090 39093 40 100 40
39094 39097 40 100 40
39098 39101 40 100 40
39102 39105 40 100 40
39106 39280 140 70 40
39281 39455 140 70 40
39456 39481 153 152 122
39482 39489 153 152 122
39490 39491 153 152 122
39492 39493 153 152 122
39494 39497 40 100 40
39498 39501 40 100 40
39502 39505 40 100 40
39506 39509 40 100 40
39510 39555 140 70 40
39556 39571 165 194 206
39572 39575 40 100 40
39576 39579 40 100 40
39580 39583 40 100 40
39584 39587 40 100 40
39588 39591 40 100 40
39592 39595 40 100 40
39596 39599 40 100 40
39600 39603 40 100 40
39604 39607 40 100 40
39608 39611 40 100 40
39612 39615 40 100 40
39616 39619 40 100 40
39620 39623 40 100 40
39624 39627 40 100 40
39628 39631 40 100 40
39632 39635 40 100 40
39636 39639 40 100 40
39640 39643 40 100 40
39644 39647 40 100 40
39648 39651 40 100 40
39652 39655 40 100 40
39656 39659 40 100 40
39660 39663 40 100 40
39664 39709 140 70 40
39710 39725 165 194 206
39726 39729 40 100 40
39730 39733 40 100 40
39734 39737 40 100 40
39738 39741 40 100 40
39742 39745 40 100 40
39746 39749 40 100 40
39750 39753 40 100 40
39754 39757 40 100 40
39758 39761 40 100 40
39762 39765 40 100 40
39766 39769 40 100 40
39770 39773 40 100 40
39774 39777 40 100 40
39778 39781 40 100 40
39782 39785 40 100 40
39786 39789 40 100 40
39790 39793 40 100 40
39794 39797 40 100 40
39798 39801 40 100 40
39802 39805 40 100 40
39806 39809 40 100 40
39810 39813 40 100 40
39814 39817 40 100 40
39818 39821 40 100 40
39822 39825 40 100 40
39826 39829 40 100 40
39830 39833 40 100 40
39834 39837 40 100 40
39838 39841 40 100 40
39842 39845 40 100 40
39846 39849 40 100 40
39850 39853 40 100 40
39854 39857 40 100 40
39858 39861 40 100 40
39862 39865 40 100 40
39866 39869 40 100 40
39870 39873 40 100 40
39874 39877 40 100 40
39878 39881 40 100 40
39882 39885 40 100 40
39886 39889 40 100 40
39890 39893 40 100 40
39894 39897 40 100 40
39898 39901 40 100 40
39902 39905 40 100 40
39906 39909 40 100 40
39910 39913 40 100 40
39914 39917 40 100 40
39918 39921 40 100 40
39922 39925 40 100 40
39926 39929 40 100 40
39930 39933 40 100 40
39934 39937 40 100 40
39938 39941 40 100 40
39942 39945 40 100 40
39946 39949 40 100 40
39950 39953 40 100 40
39954 39957 40 100 40
39958 39961 40 100 40
39962 40136 140 70 40
40137 40140 40 100 40
40141 40144 40 100 40
40145 40148 40 100 40
40149 40152 40 100 40
40153 40156 40 100 40
40157 40160 40 100 40
40161 40164 40 100 40
40165 40168 40 100 40
40169 40194 153 152 122
40195 40202 153 152 122
40203 40204 153 152 122
40205 40206 153 152 122
40207 40210 40 100 40
40211 40214 40 100 40
40215 40389 140 70 40
40390 40393 40 100 40
40394 40397 40 100 40
40398 40401 40 100 40
40402 40405 40 100 40
40406 40409 40 100 40
40410 40584 140 70 40
40585 40588 40 100 40
40589 40592 40 100 40
40593 40596 40 100 40
40597 40600 40 100 40
40601 40604 40 100 40
40605 40630 153 152 122
40631 40638 153 152 122
40639 40640 153 152 122
40641 40642 153 152 122
40643 40658 208 178 203
40659 40670 208 178 203
40671 40696 153 152 122
40697 40704 153 152 122
40705 40706 153 152 122
40707 40708 153 152 122
40709 40754 140 70 40
40755 40770 165 194 206
40771 40774 40 100 40
40775 40778 40 100 40
40779 40782 40 100 40
40783 40786 40 100 40
40787 40790 40 100 40
40791 40794 40 100 40
40795 40798 40 100 40
40799 40814 208 178 203
40815 40826 208 178 203
40827 40830 40 100 40
40831 40834 40 100 40
40835 40838 40 100 40
40839 40842 40 100 40
40843 40846 40 100 40
40847 40850 40 100 40
40851 40854 40 100 40
40855 40858 40 100 40
40859 40862 40 100 40
40863 40866 40 100 40
40867 40870 40 100 40
40871 40874 40 100 40
40875 40878 40 100 40
40879 40924 140 70 40
40925 40940 165 194 206
40941 40944 40 100 40
40945 40948 40 100 40
40949 40952 40 100 40
40953 40956 40 100 40
40957 40960 40 100 40
40961 40964 40 100 40
40965 40968 40 100 40
40969 40972 40 100 40
40973 40976 40 100 40
40977 40980 40 100 40
40981 40984 40 100 40
40985 40988 40 100 40
40989 40992 40 100 40
40993 41008 208 178 203
41009 41020 208 178 203
41021 41024 40 100 40
41025 41028 40 100 40
41029 41032 40 100 40
41033 41036 40 100 40
41037 41040 40 100 40
41041 41044 40 100 40
41045 41048 40 100 40
41049 41052 40 100 40
41053 41068 208 178 203
41069 41080 208 178 203
41081 41084 40 100 40
41085 41088 40 100 40
41089 41092 40 100 40
41093 41096 40 100 40
41097 41100 40 100 40
41101 41104 40 100 40
41105 41108 40 100 40
41109 41112 40 100 40
41113 41116 40 100 40
41117 41120 40 100 40
41121 41124 40 100 40
41125 41128 40 100 40
41129 41132 40 100 40
41133 41136 40 100 40
41137 41140 40 100 40
41141 41144 40 100 40
41145 41148 40 100 40
41149 41152 40 100 40
41153 41156 40 100 40
41157 41160 40 100 40
41161 41164 40 100 40
41165 41168 40 100 40
41169 41172 40 100 40
41173 41176 40 100 40
41177 41180 40 100 40
41181 41184 40 100 40
41185 41188 40 100 40
41189 41192 40 100 40
41193 41196 40 100 40
41197 41200 40 100 40
41201 41204 40 100 40
41205 41208 40 100 40
41209 41212 40 100 40
41213 41216 40 100 40
41217 41220 40 100 40
41221 41224 40 100 40
41225 41228 40 100 40
41229 41232 40 100 40
41233 41236 40 100 40
41237 41240 40 100 40
41241 41244 40 100 40
41245 41248 40 100 40
41249 41252 40 100 40
41253 41256 40 100 40
41257 41431 140 70 40
41432 41435 40 100 40
41436 41439 40 100 40
41440 41443 40 100 40
41444 41447 40 100 40
41448 41451 40 100 40
41452 41455 40 100 40
41456 41459 40 100 40
41460 41463 40 100 40
41464 41467 40 100 40
41468 41471 40 100 40
41472 41475 40 100 40
41476 41479 40 100 40
41480 41483 40 100 40
41484 41499 208 178 203
41500 41511 208 178 203
41512 41515 40 100 40
41516 41519 40 100 40
41520 41694 140 70 40
41695 41698 40 100 40
41699 41702 40 100 40
41703 41706 40 100 40
41707 41710 40 100 40
41711 41714 40 100 40
41715 41718 40 100 40
41719 41722 40 100 40
41723 41726 40 100 40
41727 41752 153 152 122
41753 41760 153 152 122
41761 41762 153 152 122
41763 41764 153 152 122
41765 41768 40 100 40
41769 41772 40 100 40
41773 41776 40 100 40
41777 41792 208 178 203
41793 41804 208 178 203
41805 41808 40 100 40
41809 41834 153 152 122
41835 41842 153 152 122
41843 41844 153 152 122
41845 41846 153 152 122
41847 41850 40 100 40
41851 41854 40 100 40
41855 41858 40 100 40
41859 41862 40 100 40
41863 41866 40 100 40
41867 41870 40 100 40
41871 41874 40 100 40
41875 41878 40 100 40
41879 41882 40 100 40
41883 41886 40 100 40
41887 41890 40 100 40
41891 41894 40 100 40
41895 41898 40 100 40
41899 41902 40 100 40
41903 41906 40 100 40
41907 41910 40 100 40
41911 41914 40 100 40
41915 41918 40 100 40
41919 41922 40 100 40
41923 42097 140 70 40
42098 42101 40 100 40
42102 42105 40 100 40
42106 42109 40 100 40
42110 42113 40 100 40
42114 42117 40 100 40
42118 42133 208 178 203
42134 42145 208 178 203
42146 42149 40 100 40
42150 42153 40 100 40
42154 42157 40 100 40
42158 42161 40 100 40
42162 42165 40 100 40
42166 42169 40 100 40
42170 42173 40 100 40
42174 42177 40 100 40
42178 42181 40 100 40
42182 42185 40 100 40
42186 42189 40 100 40
42190 42193 40 100 40
42194 42197 40 100 40
42198 42201 40 100 40
42202 42205 40 100 40
42206 42209 40 100 40
42210 42213 40 100 40
42214 42217 40 100 40
42218 42243 153 152 122
42244 42251 153 152 122
42252 42253 153 152 122
42254 42255 153 152 122
42256 42259 40 100 40
42260 42263 40 100 40
42264 42267 40 100 40
42268 42293 153 152 122
42294 42301 153 152 122
42302 42303 153 152 122
42304 42305 153 152 122
42306 42309 40 100 40
42310 42313 40 100 40
42314 42317 40 100 40
42318 42321 40 100 40
42322 42325 40 100 40
42326 42351 153 152 122
42352 42359 153 152 122
42360 42361 153 152 122
42362 42363 153 152 122
42364 42367 40 100 40
42368 42371 40 100 40
42372 42375 40 100 40
42376 42379 40 100 40
42380 42383 40 100 40
42384 42387 40 100 40
42388 42391 40 100 40
42392 42395 40 100 40
42396 42399 40 100 40
42400 42403 40 100 40
42404 42407 40 100 40
42408 42411 40 100 40
42412 42415 40 100 40
42416 42419 40 100 40
42420 42423 40 100 40
42424 42427 40 100 40
42428 42431 40 100 40
42432 42435 40 100 40
42436 42439 40 100 40
42440 42443 40 100 40
42444 42447 40 100 40
42448 42451 40 100 40
42452 42455 40 100 40
42456 42459 40 100 40
42460 42463 40 100 40
42464 42467 40 100 40
42468 42471 40 100 40
42472 42475 40 100 40
42476 42479 40 100 40
42480 42483 40 100 40
42484 42487 40 100 40
42488 42491 40 100 40
42492 42495 40 100 40
42496 42499 40 100 40
42500 42545 140 70 40
42546 42561 165 194 206
42562 42565 40 100 40
42566 42569 40 100 40
42570 42573 40 100 40
42574 42577 40 100 40
42578 42581 40 100 40
42582 42585 40 100 40
42586 42589 40 100 40
42590 42593 40 100 40
42594 42597 40 100 40
42598 42601 40 100 40
42602 42605 40 100 40
42606 42609 40 100 40
42610 42613 40 100 40
42614 42617 40 100 40
42618 42621 40 100 40
42622 42625 40 100 40
42626 42629 40 100 40
42630 42633 40 100 40
42634 42637 40 100 40
42638 42641 40 100 40
42642 42645 40 100 40
42646 42649 40 100 40
42650 42653 40 100 40
42654 42657 40 100 40
42658 42661 40 100 40
42662 42665 40 100 40
42666 42669 40 100 40
42670 42844 140 70 40
42845 43019 140 70 40
43020 43194 140 70 40
43195 43198 40 100 40
43199 43202 40 100 40
43203 43206 40 100 40
43207 43210 40 100 40
43211 43214 40 100 40
43215 43230 208 178 203
43231 43242 208 178 203
43243 43246 40 100 40
43247 43250 40 100 40
43251 43254 40 100 40
43255 43258 40 100 40
43259 43262 40 100 40
43263 43437 140 70 40
43438 43441 40 100 40
43442 43445 40 100 40
43446 43449 40 100 40
43450 43453 40 100 40
43454 43499 140 70 40
43500 43515 165 194 206
43516 43519 40 100 40
43520 43523 40 100 40
43524 43527 40 100 40
43528 43531 40 100 40
43532 43535 40 100 40
43536 43539 40 100 40
43540 43714 140 70 40
43715 43718 40 100 40
43719 43722 40 100 40
43723 43726 40 100 40
43727 43730 40 100 40
43731 43734 40 100 40
43735 43780 140 70 40
43781 43796 165 194 206
43797 43800 40 100 40
43801 43804 40 100 40
43805 43808 40 100 40
43809 43812 40 100 40
43813 43816 40 100 40
43817 43820 40 100 40
43821 43824 40 100 40
43825 43828 40 100 40
43829 43832 40 100 40
43833 43836 40 100 40
43837 43840 40 100 40
43841 44015 140 70 40
44016 44019 40 100 40
44020 44023 40 100 40
44024 44027 40 100 40
44028 44031 40 100 40
44032 44206 140 70 40
44207 44210 40 100 40
44211 44214 40 100 40
44215 44218 40 100 40
44219 44222 40 100 40
44223 44226 40 100 40
44227 44230 40 100 40
44231 44234 40 100 40
44235 44238 40 100 40
44239 44242 40 100 40
44243 44246 40 100 40
44247 44250 40 100 40
44251 44254 40 100 40
44255 44258 40 100 40
44259 44433 140 70 40
