15 12
-1.0000	-0.4142	0.0000
-1.0000	0.4142	0.0000
-0.4142	1.0000	0.0000
0.4142	1.0000	0.0000
1.0000	0.4142	0.0000
1.0000	-0.4142	0.0000
0.4142	-1.0000	0.0000
-0.4142	-1.0000	0.0000
-0.4142	0.0000	0.0000
0.0000	0.4142	0.0000
0.4142	0.0000	0.0000
0.0000	-0.4142	0.0000
0.0000	0.0000	-2.0000
0.0000	0.0000	0.0000
0.0000	0.0000	2.0000
f	14	1	2
f	14	2	3
f	14	3	4
f	14	4	5
f	14	5	6
f	14	6	7
f	14	7	8
f	14	8	1
f	9	11	13
f	10	12	13
f	9	11	15
f	10	12	15
