12 20
0.0000 0.0000 -0.9781
-0.8507 0.2764 -0.4253
-0.5258 -0.7237 -0.4253
0.5258 -0.7237 -0.4253
0.8507 0.2764 -0.4253
0.0000 0.8945 -0.4253
-0.8507 -0.2764 0.4253
0.0000 -0.8945 0.4253
0.8507 -0.2764 0.4253
0.5258 0.7237 0.4253
-0.5258 0.7237 0.4253
0.0000 0.0000 0.9781
f 1 3 4
f 1 4 5
f 1 5 6
f 1 6 2
f 1 2 3
f 3 7 8
f 3 8 4
f 4 8 9
f 4 5 9
f 5 9 10
f 5 6 10
f 6 10 11
f 6 11 2
f 2 7 11
f 2 7 3
f 7 8 12
f 8 9 12
f 9 10 12
f 10 11 12
f 7 11 12
